File/simulation/qsim/chron.msim.vcd
$comment
	File created using the following command:
		vcd file chron.msim.vcd -direction
$end
$date
	Wed Dec 23 13:17:31 2020
$end
$version
	ModelSim Version 10.1d
$end
$timescale
	1ps
$end
$scope module chron_vlg_vec_tst $end
$var reg 1 ! clk_01 $end
$var wire 1 " hour_ge_01 [3] $end
$var wire 1 # hour_ge_01 [2] $end
$var wire 1 $ hour_ge_01 [1] $end
$var wire 1 % hour_ge_01 [0] $end
$var wire 1 & hour_shi_01 [3] $end
$var wire 1 ' hour_shi_01 [2] $end
$var wire 1 ( hour_shi_01 [1] $end
$var wire 1 ) hour_shi_01 [0] $end
$var wire 1 * min_ge_01 [3] $end
$var wire 1 + min_ge_01 [2] $end
$var wire 1 , min_ge_01 [1] $end
$var wire 1 - min_ge_01 [0] $end
$var wire 1 . min_shi_01 [3] $end
$var wire 1 / min_shi_01 [2] $end
$var wire 1 0 min_shi_01 [1] $end
$var wire 1 1 min_shi_01 [0] $end
$var wire 1 2 sec_ge_01 [3] $end
$var wire 1 3 sec_ge_01 [2] $end
$var wire 1 4 sec_ge_01 [1] $end
$var wire 1 5 sec_ge_01 [0] $end
$var wire 1 6 sec_shi_01 [3] $end
$var wire 1 7 sec_shi_01 [2] $end
$var wire 1 8 sec_shi_01 [1] $end
$var wire 1 9 sec_shi_01 [0] $end
$var wire 1 : sampler $end
$scope module i1 $end
$var wire 1 ; gnd $end
$var wire 1 < vcc $end
$var wire 1 = unknown $end
$var tri1 1 > devclrn $end
$var tri1 1 ? devpor $end
$var tri1 1 @ devoe $end
$var wire 1 A hour_ge_01[3]~output_o $end
$var wire 1 B hour_ge_01[2]~output_o $end
$var wire 1 C hour_ge_01[1]~output_o $end
$var wire 1 D hour_ge_01[0]~output_o $end
$var wire 1 E hour_shi_01[3]~output_o $end
$var wire 1 F hour_shi_01[2]~output_o $end
$var wire 1 G hour_shi_01[1]~output_o $end
$var wire 1 H hour_shi_01[0]~output_o $end
$var wire 1 I min_ge_01[3]~output_o $end
$var wire 1 J min_ge_01[2]~output_o $end
$var wire 1 K min_ge_01[1]~output_o $end
$var wire 1 L min_ge_01[0]~output_o $end
$var wire 1 M min_shi_01[3]~output_o $end
$var wire 1 N min_shi_01[2]~output_o $end
$var wire 1 O min_shi_01[1]~output_o $end
$var wire 1 P min_shi_01[0]~output_o $end
$var wire 1 Q sec_ge_01[3]~output_o $end
$var wire 1 R sec_ge_01[2]~output_o $end
$var wire 1 S sec_ge_01[1]~output_o $end
$var wire 1 T sec_ge_01[0]~output_o $end
$var wire 1 U sec_shi_01[3]~output_o $end
$var wire 1 V sec_shi_01[2]~output_o $end
$var wire 1 W sec_shi_01[1]~output_o $end
$var wire 1 X sec_shi_01[0]~output_o $end
$var wire 1 Y clk_01~input_o $end
$var wire 1 Z inst|inst1|7~0_combout $end
$var wire 1 [ inst|inst1|7~feeder_combout $end
$var wire 1 \ inst|inst1|7~q $end
$var wire 1 ] inst|inst1|20~combout $end
$var wire 1 ^ inst|inst1|6~0_combout $end
$var wire 1 _ inst|inst1|6~q $end
$var wire 1 ` inst|inst1|5~0_combout $end
$var wire 1 a inst|inst1|5~q $end
$var wire 1 b inst|inst1|3~0_combout $end
$var wire 1 c inst|inst1|3~feeder_combout $end
$var wire 1 d inst|inst1|3~q $end
$var wire 1 e inst|inst1|34~0_combout $end
$var wire 1 f inst|inst1|34~feeder_combout $end
$var wire 1 g inst|inst1|34~q $end
$var wire 1 h inst|inst1|29~combout $end
$var wire 1 i inst|inst1|33~0_combout $end
$var wire 1 j inst|inst1|33~q $end
$var wire 1 k inst|inst1|32~0_combout $end
$var wire 1 l inst|inst1|32~q $end
$var wire 1 m inst|inst1|31~0_combout $end
$var wire 1 n inst|inst1|31~feeder_combout $end
$var wire 1 o inst|inst1|31~q $end
$var wire 1 p inst2|inst1|7~0_combout $end
$var wire 1 q inst2|inst1|7~feeder_combout $end
$var wire 1 r inst2|inst1|7~q $end
$var wire 1 s inst2|inst1|20~combout $end
$var wire 1 t inst2|inst1|6~0_combout $end
$var wire 1 u inst2|inst1|6~feeder_combout $end
$var wire 1 v inst2|inst1|6~q $end
$var wire 1 w inst2|inst1|5~0_combout $end
$var wire 1 x inst2|inst1|5~q $end
$var wire 1 y inst2|inst1|3~0_combout $end
$var wire 1 z inst2|inst1|3~feeder_combout $end
$var wire 1 { inst2|inst1|3~q $end
$var wire 1 | inst2|inst1|34~0_combout $end
$var wire 1 } inst2|inst1|34~feeder_combout $end
$var wire 1 ~ inst2|inst6|4~combout $end
$var wire 1 !! inst2|inst6|4~clkctrl_outclk $end
$var wire 1 "! inst2|inst1|34~q $end
$var wire 1 #! inst2|inst1|31~0_combout $end
$var wire 1 $! inst2|inst1|31~feeder_combout $end
$var wire 1 %! inst2|inst1|31~q $end
$var wire 1 &! inst2|inst1|29~combout $end
$var wire 1 '! inst2|inst1|33~0_combout $end
$var wire 1 (! inst2|inst1|33~feeder_combout $end
$var wire 1 )! inst2|inst1|33~q $end
$var wire 1 *! inst2|inst1|32~0_combout $end
$var wire 1 +! inst2|inst1|32~feeder_combout $end
$var wire 1 ,! inst2|inst1|32~q $end
$var wire 1 -! inst4|inst1|7~0_combout $end
$var wire 1 .! inst4|inst1|7~feeder_combout $end
$var wire 1 /! inst4|inst1|7~q $end
$var wire 1 0! inst4|inst1|20~combout $end
$var wire 1 1! inst4|inst1|6~0_combout $end
$var wire 1 2! inst4|inst1|6~q $end
$var wire 1 3! inst4|inst1|5~0_combout $end
$var wire 1 4! inst4|inst1|5~q $end
$var wire 1 5! inst4|inst1|3~0_combout $end
$var wire 1 6! inst4|inst1|3~feeder_combout $end
$var wire 1 7! inst4|inst1|3~q $end
$var wire 1 8! inst4|inst1|34~0_combout $end
$var wire 1 9! inst4|inst1|34~feeder_combout $end
$var wire 1 :! inst4|inst1|29~combout $end
$var wire 1 ;! inst4|inst1|33~0_combout $end
$var wire 1 <! inst4|inst1|33~feeder_combout $end
$var wire 1 =! inst4|inst1|33~q $end
$var wire 1 >! inst4|inst1|32~0_combout $end
$var wire 1 ?! inst4|inst1|32~q $end
$var wire 1 @! inst4|inst6|4~combout $end
$var wire 1 A! inst4|inst6|4~clkctrl_outclk $end
$var wire 1 B! inst4|inst1|34~q $end
$var wire 1 C! inst4|inst1|31~0_combout $end
$var wire 1 D! inst4|inst1|31~q $end
$upscope $end
$upscope $end
$enddefinitions $end
#0
$dumpvars
0!
x%
x$
x#
x"
x)
x(
x'
x&
x-
x,
x+
x*
x1
x0
x/
x.
x5
x4
x3
x2
x9
x8
x7
x6
x:
0;
1<
x=
1>
1?
1@
xA
xB
xC
xD
xE
xF
xG
xH
xI
xJ
xK
xL
xM
xN
xO
xP
xQ
xR
xS
xT
xU
xV
xW
xX
0Y
xZ
x[
0\
x]
x^
0_
1`
0a
xb
xc
0d
xe
xf
0g
xh
xi
0j
1k
0l
xm
xn
0o
xp
xq
0r
xs
xt
xu
0v
1w
0x
xy
xz
0{
x|
x}
x~
x!!
0"!
x#!
x$!
0%!
x&!
x'!
x(!
0)!
x*!
x+!
0,!
x-!
x.!
0/!
x0!
x1!
02!
13!
04!
x5!
x6!
07!
x8!
x9!
x:!
x;!
x<!
0=!
1>!
0?!
x@!
xA!
0B!
xC!
0D!
$end
#546
0m
05!
#550
0y
#571
1h
#593
10!
#697
0b
#725
0C!
#727
0~
#735
1*!
#736
1|
#737
1i
#739
0@!
#741
1^
#749
18!
#752
1]
#754
11!
#762
1:!
#902
1s
#917
1-!
#957
06!
0n
#961
0z
#1004
1t
#1069
0#!
#1088
1p
#1109
0c
#1125
1'!
#1130
1&!
#1167
1;!
#1298
1+!
#1355
1}
#1502
19!
#1607
0A!
#1652
1e
#1653
xj
#1670
x2!
#1688
1Z
#1733
1.!
#1770
0!!
#1849
0$!
#1911
1u
#2054
1q
#2091
1(!
#2176
1<!
#2342
xi
#2375
x1!
#3103
0E
0&
#3108
0J
0+
#3127
0H
0)
#3133
0N
0/
#3135
0M
0.
#3146
0R
03
#3172
0L
0-
#3181
0O
00
#3276
1f
#3352
0V
07
#3375
0P
01
#3394
0A
0"
#3409
0X
09
#3412
1[
#3415
0K
0,
#3417
0T
05
#3467
0B
0#
#3479
0G
0(
#3481
0I
0*
#3486
0S
04
#3488
0D
0%
#3489
0F
0'
#5000
1!
0:
#5089
0U
06
#5392
0Q
02
#5990
1Y
#10000
0!
1:
#11028
0Y
#13676
1\
#14375
0]
#15000
1!
0:
#15471
0Z
#15990
1Y
#17029
0[
#17261
1T
15
#20000
0!
1:
#21028
0Y
#23676
0\
#24428
1]
#25000
1!
0:
#25364
1Z
#25606
1_
#25990
1Y
#26289
0^
#27088
1[
#27093
0T
05
#29237
1S
14
#30000
0!
1:
#31028
0Y
#33676
1\
#34375
0]
#35000
1!
0:
#35471
0Z
#35990
1Y
#37029
0[
#37261
1T
15
#40000
0!
1:
#41028
0Y
#43676
0\
#44428
1]
#45000
1!
0:
#45364
1Z
#45606
0_
#45990
1Y
#46347
1^
#47088
1[
#47093
0T
05
#47182
1a
#47664
0`
#49092
0S
04
#50000
0!
1:
#50457
1R
13
#51028
0Y
#53676
1\
#54375
0]
#55000
1!
0:
#55471
0Z
#55990
1Y
#57029
0[
#57261
1T
15
#60000
0!
1:
#61028
0Y
#63676
0\
#64428
1]
#65000
1!
0:
#65364
1Z
#65606
1_
#65990
1Y
#66289
0^
#66583
1b
#66998
1c
#67088
1[
#67093
0T
05
#69237
1S
14
#70000
0!
1:
#71028
0Y
#73676
1\
#74375
0]
#75000
1!
0:
#75471
0Z
#75990
1Y
#77029
0[
#77261
1T
15
#80000
0!
1:
#81028
0Y
#83676
0\
#84428
1]
#85000
1!
0:
#85232
1d
#85364
1Z
#85606
0_
#85990
1Y
#86263
0b
#86347
1^
#86675
0c
#87088
1[
#87093
0T
05
#87182
0a
#87644
1`
#89092
0S
04
#90000
0!
1:
#90328
0R
03
#90673
1Q
12
#91028
0Y
#93676
1\
#95000
1!
0:
#95471
0Z
#95990
1Y
#97029
0[
#97261
1T
15
#100000
0!
1:
#101028
0Y
#103676
0\
#105000
1!
0:
#105232
0d
#105364
1Z
#105990
1Y
#107088
1[
#107093
0T
05
#108338
1g
#108817
0h
#110000
0!
1:
#110072
0e
#110624
0Q
02
#111028
0Y
#111575
0f
#111914
1X
19
#113676
1\
#114375
0]
#115000
1!
0:
#115471
0Z
#115990
1Y
#117029
0[
#117261
1T
15
#120000
0!
1:
#121028
0Y
#123676
0\
#124428
1]
#125000
1!
0:
#125364
1Z
#125606
1_
#125990
1Y
#126289
0^
#127088
1[
#127093
0T
05
#129237
1S
14
#130000
0!
1:
#131028
0Y
#133676
1\
#134375
0]
#135000
1!
0:
#135471
0Z
#135990
1Y
#137029
0[
#137261
1T
15
#140000
0!
1:
#141028
0Y
#143676
0\
#144428
1]
#145000
1!
0:
#145364
1Z
#145606
0_
#145990
1Y
#146347
1^
#147088
1[
#147093
0T
05
#147182
1a
#147664
0`
#149092
0S
04
#150000
0!
1:
#150457
1R
13
#151028
0Y
#153676
1\
#154375
0]
#155000
1!
0:
#155471
0Z
#155990
1Y
#157029
0[
#157261
1T
15
#160000
0!
1:
#161028
0Y
#163676
0\
#164428
1]
#165000
1!
0:
#165364
1Z
#165606
1_
#165990
1Y
#166289
0^
#166583
1b
#166998
1c
#167088
1[
#167093
0T
05
#169237
1S
14
#170000
0!
1:
#171028
0Y
#173676
1\
#174375
0]
#175000
1!
0:
#175471
0Z
#175990
1Y
#177029
0[
#177261
1T
15
#180000
0!
1:
#181028
0Y
#183676
0\
#184428
1]
#185000
1!
0:
#185232
1d
#185364
1Z
#185606
0_
#185990
1Y
#186263
0b
#186347
1^
#186675
0c
#187088
1[
#187093
0T
05
#187182
0a
#187644
1`
#189092
0S
04
#190000
0!
1:
#190328
0R
03
#190673
1Q
12
#191028
0Y
#193676
1\
#195000
1!
0:
#195471
0Z
#195990
1Y
#197029
0[
#197261
1T
15
#200000
0!
1:
#201028
0Y
#203676
0\
#205000
1!
0:
#205232
0d
#205364
1Z
#205990
1Y
#207088
1[
#207093
0T
05
#208338
0g
#208909
1h
#209990
1e
#210000
0!
1:
#210624
0Q
02
#211028
0Y
#211614
1f
#211747
0X
09
#213676
1\
#214375
0]
#215000
1!
0:
#215471
0Z
#215990
1Y
#217029
0[
#217261
1T
15
#220000
0!
1:
#221028
0Y
#223676
0\
#224428
1]
#225000
1!
0:
#225364
1Z
#225606
1_
#225990
1Y
#226289
0^
#227088
1[
#227093
0T
05
#229237
1S
14
#230000
0!
1:
#231028
0Y
#233676
1\
#234375
0]
#235000
1!
0:
#235471
0Z
#235990
1Y
#237029
0[
#237261
1T
15
#240000
0!
1:
#241028
0Y
#243676
0\
#244428
1]
#245000
1!
0:
#245364
1Z
#245606
0_
#245990
1Y
#246347
1^
#247088
1[
#247093
0T
05
#247182
1a
#247664
0`
#249092
0S
04
#250000
0!
1:
#250457
1R
13
#251028
0Y
#253676
1\
#254375
0]
#255000
1!
0:
#255471
0Z
#255990
1Y
#257029
0[
#257261
1T
15
#260000
0!
1:
#261028
0Y
#263676
0\
#264428
1]
#265000
1!
0:
#265364
1Z
#265606
1_
#265990
1Y
#266289
0^
#266583
1b
#266998
1c
#267088
1[
#267093
0T
05
#269237
1S
14
#270000
0!
1:
#271028
0Y
#273676
1\
#274375
0]
#275000
1!
0:
#275471
0Z
#275990
1Y
#277029
0[
#277261
1T
15
#280000
0!
1:
#281028
0Y
#283676
0\
#284428
1]
#285000
1!
0:
#285232
1d
#285364
1Z
#285606
0_
#285990
1Y
#286263
0b
#286347
1^
#286675
0c
#287088
1[
#287093
0T
05
#287182
0a
#287644
1`
#289092
0S
04
#290000
0!
1:
#290328
0R
03
#290673
1Q
12
#291028
0Y
#293676
1\
#295000
1!
0:
#295471
0Z
#295990
1Y
#297029
0[
#297261
1T
15
#300000
0!
1:
#301028
0Y
#303676
0\
#305000
1!
0:
#305232
0d
#305364
1Z
#305990
1Y
#307088
1[
#307093
0T
05
#308338
1g
#308817
0h
#310000
0!
1:
#310072
0e
#310624
0Q
02
#311028
0Y
#311575
0f
#311914
1X
19
#313676
1\
#314375
0]
#315000
1!
0:
#315471
0Z
#315990
1Y
#317029
0[
#317261
1T
15
#320000
0!
1:
#321028
0Y
#323676
0\
#324428
1]
#325000
1!
0:
#325364
1Z
#325606
1_
#325990
1Y
#326289
0^
#327088
1[
#327093
0T
05
#329237
1S
14
#330000
0!
1:
#331028
0Y
#333676
1\
#334375
0]
#335000
1!
0:
#335471
0Z
#335990
1Y
#337029
0[
#337261
1T
15
#340000
0!
1:
#341028
0Y
#343676
0\
#344428
1]
#345000
1!
0:
#345364
1Z
#345606
0_
#345990
1Y
#346347
1^
#347088
1[
#347093
0T
05
#347182
1a
#347664
0`
#349092
0S
04
#350000
0!
1:
#350457
1R
13
#351028
0Y
#353676
1\
#354375
0]
#355000
1!
0:
#355471
0Z
#355990
1Y
#357029
0[
#357261
1T
15
#360000
0!
1:
#361028
0Y
#363676
0\
#364428
1]
#365000
1!
0:
#365364
1Z
#365606
1_
#365990
1Y
#366289
0^
#366583
1b
#366998
1c
#367088
1[
#367093
0T
05
#369237
1S
14
#370000
0!
1:
#371028
0Y
#373676
1\
#374375
0]
#375000
1!
0:
#375471
0Z
#375990
1Y
#377029
0[
#377261
1T
15
#380000
0!
1:
#381028
0Y
#383676
0\
#384428
1]
#385000
1!
0:
#385232
1d
#385364
1Z
#385606
0_
#385990
1Y
#386263
0b
#386347
1^
#386675
0c
#387088
1[
#387093
0T
05
#387182
0a
#387644
1`
#389092
0S
04
#390000
0!
1:
#390328
0R
03
#390673
1Q
12
#391028
0Y
#393676
1\
#395000
1!
0:
#395471
0Z
#395990
1Y
#397029
0[
#397261
1T
15
#400000
0!
1:
#401028
0Y
#403676
0\
#405000
1!
0:
#405232
0d
#405364
1Z
#405990
1Y
#407088
1[
#407093
0T
05
#408338
0g
#408909
1h
#409990
1e
#410000
0!
1:
#410624
0Q
02
#411028
0Y
#411614
1f
#411747
0X
09
#413676
1\
#414375
0]
#415000
1!
0:
#415471
0Z
#415990
1Y
#417029
0[
#417261
1T
15
#420000
0!
1:
#421028
0Y
#423676
0\
#424428
1]
#425000
1!
0:
#425364
1Z
#425606
1_
#425990
1Y
#426289
0^
#427088
1[
#427093
0T
05
#429237
1S
14
#430000
0!
1:
#431028
0Y
#433676
1\
#434375
0]
#435000
1!
0:
#435471
0Z
#435990
1Y
#437029
0[
#437261
1T
15
#440000
0!
1:
#441028
0Y
#443676
0\
#444428
1]
#445000
1!
0:
#445364
1Z
#445606
0_
#445990
1Y
#446347
1^
#447088
1[
#447093
0T
05
#447182
1a
#447664
0`
#449092
0S
04
#450000
0!
1:
#450457
1R
13
#451028
0Y
#453676
1\
#454375
0]
#455000
1!
0:
#455471
0Z
#455990
1Y
#457029
0[
#457261
1T
15
#460000
0!
1:
#461028
0Y
#463676
0\
#464428
1]
#465000
1!
0:
#465364
1Z
#465606
1_
#465990
1Y
#466289
0^
#466583
1b
#466998
1c
#467088
1[
#467093
0T
05
#469237
1S
14
#470000
0!
1:
#471028
0Y
#473676
1\
#474375
0]
#475000
1!
0:
#475471
0Z
#475990
1Y
#477029
0[
#477261
1T
15
#480000
0!
1:
#481028
0Y
#483676
0\
#484428
1]
#485000
1!
0:
#485232
1d
#485364
1Z
#485606
0_
#485990
1Y
#486263
0b
#486347
1^
#486675
0c
#487088
1[
#487093
0T
05
#487182
0a
#487644
1`
#489092
0S
04
#490000
0!
1:
#490328
0R
03
#490673
1Q
12
#491028
0Y
#493676
1\
#495000
1!
0:
#495471
0Z
#495990
1Y
#497029
0[
#497261
1T
15
#500000
0!
1:
#501028
0Y
#503676
0\
#505000
1!
0:
#505232
0d
#505364
1Z
#505990
1Y
#507088
1[
#507093
0T
05
#508338
1g
#508817
0h
#510000
0!
1:
#510072
0e
#510624
0Q
02
#511028
0Y
#511575
0f
#511914
1X
19
#513676
1\
#514375
0]
#515000
1!
0:
#515471
0Z
#515990
1Y
#517029
0[
#517261
1T
15
#520000
0!
1:
#521028
0Y
#523676
0\
#524428
1]
#525000
1!
0:
#525364
1Z
#525606
1_
#525990
1Y
#526289
0^
#527088
1[
#527093
0T
05
#529237
1S
14
#530000
0!
1:
#531028
0Y
#533676
1\
#534375
0]
#535000
1!
0:
#535471
0Z
#535990
1Y
#537029
0[
#537261
1T
15
#540000
0!
1:
#541028
0Y
#543676
0\
#544428
1]
#545000
1!
0:
#545364
1Z
#545606
0_
#545990
1Y
#546347
1^
#547088
1[
#547093
0T
05
#547182
1a
#547664
0`
#549092
0S
04
#550000
0!
1:
#550457
1R
13
#551028
0Y
#553676
1\
#554375
0]
#555000
1!
0:
#555471
0Z
#555990
1Y
#557029
0[
#557261
1T
15
#560000
0!
1:
#561028
0Y
#563676
0\
#564428
1]
#565000
1!
0:
#565364
1Z
#565606
1_
#565990
1Y
#566289
0^
#566583
1b
#566998
1c
#567088
1[
#567093
0T
05
#569237
1S
14
#570000
0!
1:
#571028
0Y
#573676
1\
#574375
0]
#575000
1!
0:
#575471
0Z
#575990
1Y
#577029
0[
#577261
1T
15
#580000
0!
1:
#581028
0Y
#583676
0\
#584428
1]
#585000
1!
0:
#585232
1d
#585364
1Z
#585606
0_
#585990
1Y
#586263
0b
#586347
1^
#586675
0c
#587088
1[
#587093
0T
05
#587182
0a
#587644
1`
#589092
0S
04
#590000
0!
1:
#590328
0R
03
#590673
1Q
12
#591028
0Y
#593676
1\
#595000
1!
0:
#595471
0Z
#595990
1Y
#597029
0[
#597261
1T
15
#600000
0!
1:
#601028
0Y
#603676
0\
#605000
1!
0:
#605232
0d
#605364
1Z
#605990
1Y
#607088
1[
#607093
0T
05
#608338
0g
#608909
1h
#609990
1e
#610000
0!
1:
#610624
0Q
02
#611028
0Y
#611614
1f
#611747
0X
09
#613676
1\
#614375
0]
#615000
1!
0:
#615471
0Z
#615990
1Y
#617029
0[
#617261
1T
15
#620000
0!
1:
#621028
0Y
#623676
0\
#624428
1]
#625000
1!
0:
#625364
1Z
#625606
1_
#625990
1Y
#626289
0^
#627088
1[
#627093
0T
05
#629237
1S
14
#630000
0!
1:
#631028
0Y
#633676
1\
#634375
0]
#635000
1!
0:
#635471
0Z
#635990
1Y
#637029
0[
#637261
1T
15
#640000
0!
1:
#641028
0Y
#643676
0\
#644428
1]
#645000
1!
0:
#645364
1Z
#645606
0_
#645990
1Y
#646347
1^
#647088
1[
#647093
0T
05
#647182
1a
#647664
0`
#649092
0S
04
#650000
0!
1:
#650457
1R
13
#651028
0Y
#653676
1\
#654375
0]
#655000
1!
0:
#655471
0Z
#655990
1Y
#657029
0[
#657261
1T
15
#660000
0!
1:
#661028
0Y
#663676
0\
#664428
1]
#665000
1!
0:
#665364
1Z
#665606
1_
#665990
1Y
#666289
0^
#666583
1b
#666998
1c
#667088
1[
#667093
0T
05
#669237
1S
14
#670000
0!
1:
#671028
0Y
#673676
1\
#674375
0]
#675000
1!
0:
#675471
0Z
#675990
1Y
#677029
0[
#677261
1T
15
#680000
0!
1:
#681028
0Y
#683676
0\
#684428
1]
#685000
1!
0:
#685232
1d
#685364
1Z
#685606
0_
#685990
1Y
#686263
0b
#686347
1^
#686675
0c
#687088
1[
#687093
0T
05
#687182
0a
#687644
1`
#689092
0S
04
#690000
0!
1:
#690328
0R
03
#690673
1Q
12
#691028
0Y
#693676
1\
#695000
1!
0:
#695471
0Z
#695990
1Y
#697029
0[
#697261
1T
15
#700000
0!
1:
#701028
0Y
#703676
0\
#705000
1!
0:
#705232
0d
#705364
1Z
#705990
1Y
#707088
1[
#707093
0T
05
#708338
1g
#708817
0h
#710000
0!
1:
#710072
0e
#710624
0Q
02
#711028
0Y
#711575
0f
#711914
1X
19
#713676
1\
#714375
0]
#715000
1!
0:
#715471
0Z
#715990
1Y
#717029
0[
#717261
1T
15
#720000
0!
1:
#721028
0Y
#723676
0\
#724428
1]
#725000
1!
0:
#725364
1Z
#725606
1_
#725990
1Y
#726289
0^
#727088
1[
#727093
0T
05
#729237
1S
14
#730000
0!
1:
#731028
0Y
#733676
1\
#734375
0]
#735000
1!
0:
#735471
0Z
#735990
1Y
#737029
0[
#737261
1T
15
#740000
0!
1:
#741028
0Y
#743676
0\
#744428
1]
#745000
1!
0:
#745364
1Z
#745606
0_
#745990
1Y
#746347
1^
#747088
1[
#747093
0T
05
#747182
1a
#747664
0`
#749092
0S
04
#750000
0!
1:
#750457
1R
13
#751028
0Y
#753676
1\
#754375
0]
#755000
1!
0:
#755471
0Z
#755990
1Y
#757029
0[
#757261
1T
15
#760000
0!
1:
#761028
0Y
#763676
0\
#764428
1]
#765000
1!
0:
#765364
1Z
#765606
1_
#765990
1Y
#766289
0^
#766583
1b
#766998
1c
#767088
1[
#767093
0T
05
#769237
1S
14
#770000
0!
1:
#771028
0Y
#773676
1\
#774375
0]
#775000
1!
0:
#775471
0Z
#775990
1Y
#777029
0[
#777261
1T
15
#780000
0!
1:
#781028
0Y
#783676
0\
#784428
1]
#785000
1!
0:
#785232
1d
#785364
1Z
#785606
0_
#785990
1Y
#786263
0b
#786347
1^
#786675
0c
#787088
1[
#787093
0T
05
#787182
0a
#787644
1`
#789092
0S
04
#790000
0!
1:
#790328
0R
03
#790673
1Q
12
#791028
0Y
#793676
1\
#795000
1!
0:
#795471
0Z
#795990
1Y
#797029
0[
#797261
1T
15
#800000
0!
1:
#801028
0Y
#803676
0\
#805000
1!
0:
#805232
0d
#805364
1Z
#805990
1Y
#807088
1[
#807093
0T
05
#808338
0g
#808909
1h
#809990
1e
#810000
0!
1:
#810624
0Q
02
#811028
0Y
#811614
1f
#811747
0X
09
#813676
1\
#814375
0]
#815000
1!
0:
#815471
0Z
#815990
1Y
#817029
0[
#817261
1T
15
#820000
0!
1:
#821028
0Y
#823676
0\
#824428
1]
#825000
1!
0:
#825364
1Z
#825606
1_
#825990
1Y
#826289
0^
#827088
1[
#827093
0T
05
#829237
1S
14
#830000
0!
1:
#831028
0Y
#833676
1\
#834375
0]
#835000
1!
0:
#835471
0Z
#835990
1Y
#837029
0[
#837261
1T
15
#840000
0!
1:
#841028
0Y
#843676
0\
#844428
1]
#845000
1!
0:
#845364
1Z
#845606
0_
#845990
1Y
#846347
1^
#847088
1[
#847093
0T
05
#847182
1a
#847664
0`
#849092
0S
04
#850000
0!
1:
#850457
1R
13
#851028
0Y
#853676
1\
#854375
0]
#855000
1!
0:
#855471
0Z
#855990
1Y
#857029
0[
#857261
1T
15
#860000
0!
1:
#861028
0Y
#863676
0\
#864428
1]
#865000
1!
0:
#865364
1Z
#865606
1_
#865990
1Y
#866289
0^
#866583
1b
#866998
1c
#867088
1[
#867093
0T
05
#869237
1S
14
#870000
0!
1:
#871028
0Y
#873676
1\
#874375
0]
#875000
1!
0:
#875471
0Z
#875990
1Y
#877029
0[
#877261
1T
15
#880000
0!
1:
#881028
0Y
#883676
0\
#884428
1]
#885000
1!
0:
#885232
1d
#885364
1Z
#885606
0_
#885990
1Y
#886263
0b
#886347
1^
#886675
0c
#887088
1[
#887093
0T
05
#887182
0a
#887644
1`
#889092
0S
04
#890000
0!
1:
#890328
0R
03
#890673
1Q
12
#891028
0Y
#893676
1\
#895000
1!
0:
#895471
0Z
#895990
1Y
#897029
0[
#897261
1T
15
#900000
0!
1:
#901028
0Y
#903676
0\
#905000
1!
0:
#905232
0d
#905364
1Z
#905990
1Y
#907088
1[
#907093
0T
05
#908338
1g
#908817
0h
#910000
0!
1:
#910072
0e
#910624
0Q
02
#911028
0Y
#911575
0f
#911914
1X
19
#913676
1\
#914375
0]
#915000
1!
0:
#915471
0Z
#915990
1Y
#917029
0[
#917261
1T
15
#920000
0!
1:
#921028
0Y
#923676
0\
#924428
1]
#925000
1!
0:
#925364
1Z
#925606
1_
#925990
1Y
#926289
0^
#927088
1[
#927093
0T
05
#929237
1S
14
#930000
0!
1:
#931028
0Y
#933676
1\
#934375
0]
#935000
1!
0:
#935471
0Z
#935990
1Y
#937029
0[
#937261
1T
15
#940000
0!
1:
#941028
0Y
#943676
0\
#944428
1]
#945000
1!
0:
#945364
1Z
#945606
0_
#945990
1Y
#946347
1^
#947088
1[
#947093
0T
05
#947182
1a
#947664
0`
#949092
0S
04
#950000
0!
1:
#950457
1R
13
#951028
0Y
#953676
1\
#954375
0]
#955000
1!
0:
#955471
0Z
#955990
1Y
#957029
0[
#957261
1T
15
#960000
0!
1:
#961028
0Y
#963676
0\
#964428
1]
#965000
1!
0:
#965364
1Z
#965606
1_
#965990
1Y
#966289
0^
#966583
1b
#966998
1c
#967088
1[
#967093
0T
05
#969237
1S
14
#970000
0!
1:
#971028
0Y
#973676
1\
#974375
0]
#975000
1!
0:
#975471
0Z
#975990
1Y
#977029
0[
#977261
1T
15
#980000
0!
1:
#981028
0Y
#983676
0\
#984428
1]
#985000
1!
0:
#985232
1d
#985364
1Z
#985606
0_
#985990
1Y
#986263
0b
#986347
1^
#986675
0c
#987088
1[
#987093
0T
05
#987182
0a
#987644
1`
#989092
0S
04
#990000
0!
1:
#990328
0R
03
#990673
1Q
12
#991028
0Y
#993676
1\
#995000
1!
0:
#995471
0Z
#995990
1Y
#997029
0[
#997261
1T
15
