File/simulation/qsim/cnt12.msim.vcd
$comment
	File created using the following command:
		vcd file cnt12.msim.vcd -direction
$end
$date
	Wed Dec 23 13:26:06 2020
$end
$version
	ModelSim Version 10.1d
$end
$timescale
	1ps
$end
$scope module cnt12_vlg_vec_tst $end
$var reg 1 ! clk_01 $end
$var reg 1 " CR_01 $end
$var wire 1 # CO $end
$var wire 1 $ ge_01 [3] $end
$var wire 1 % ge_01 [2] $end
$var wire 1 & ge_01 [1] $end
$var wire 1 ' ge_01 [0] $end
$var wire 1 ( shi_01 [3] $end
$var wire 1 ) shi_01 [2] $end
$var wire 1 * shi_01 [1] $end
$var wire 1 + shi_01 [0] $end
$var wire 1 , sampler $end
$scope module i1 $end
$var wire 1 - gnd $end
$var wire 1 . vcc $end
$var wire 1 / unknown $end
$var tri1 1 0 devclrn $end
$var tri1 1 1 devpor $end
$var tri1 1 2 devoe $end
$var wire 1 3 CO~output_o $end
$var wire 1 4 shi_01[3]~output_o $end
$var wire 1 5 shi_01[2]~output_o $end
$var wire 1 6 shi_01[1]~output_o $end
$var wire 1 7 shi_01[0]~output_o $end
$var wire 1 8 ge_01[3]~output_o $end
$var wire 1 9 ge_01[2]~output_o $end
$var wire 1 : ge_01[1]~output_o $end
$var wire 1 ; ge_01[0]~output_o $end
$var wire 1 < clk_01~input_o $end
$var wire 1 = inst|7~0_combout $end
$var wire 1 > inst|7~feeder_combout $end
$var wire 1 ? CR_01~input_o $end
$var wire 1 @ inst|20~combout $end
$var wire 1 A inst|6~0_combout $end
$var wire 1 B inst|6~feeder_combout $end
$var wire 1 C inst|6~q $end
$var wire 1 D inst3|4~combout $end
$var wire 1 E inst3|4~clkctrl_outclk $end
$var wire 1 F inst|7~q $end
$var wire 1 G inst|5~0_combout $end
$var wire 1 H inst|5~q $end
$var wire 1 I inst|3~0_combout $end
$var wire 1 J inst|3~feeder_combout $end
$var wire 1 K inst|3~q $end
$var wire 1 L inst|34~0_combout $end
$var wire 1 M inst|34~feeder_combout $end
$var wire 1 N inst|34~q $end
$var wire 1 O inst|29~combout $end
$var wire 1 P inst|33~0_combout $end
$var wire 1 Q inst|33~feeder_combout $end
$var wire 1 R inst|33~q $end
$var wire 1 S inst|32~0_combout $end
$var wire 1 T inst|32~q $end
$var wire 1 U inst|31~0_combout $end
$var wire 1 V inst|31~q $end
$upscope $end
$upscope $end
$enddefinitions $end
#0
$dumpvars
0!
0"
x#
x'
x&
x%
x$
x+
x*
x)
x(
x,
0-
1.
x/
10
11
12
x3
x4
x5
x6
x7
x8
x9
x:
x;
0<
x=
x>
0?
x@
xA
xB
0C
xD
xE
0F
1G
0H
xI
xJ
0K
xL
xM
0N
xO
xP
xQ
0R
1S
0T
xU
0V
$end
#548
0I
0U
#958
0J
#1012
0D
1L
#1113
1O
#1114
1@
#1128
1A
#1131
1P
#1505
1=
#1723
0E
#1842
1M
#2186
1B
#2227
1Q
#2933
1>
#3186
0;
0'
#3349
09
0%
#3422
08
0$
#3597
05
0)
#3736
04
0(
#3752
03
0#
#3753
0:
0&
#3754
06
0*
#5000
1!
0,
#5241
07
0+
#5990
1<
#10000
0!
1,
#11028
0<
#12823
1F
#13954
0@
#14395
0=
#15000
1!
0,
#15674
0>
#15990
1<
#16043
1;
1'
#20000
0!
1,
#21028
0<
#22823
0F
#23937
1@
#24328
1=
#25000
1!
0,
#25699
1C
#25756
1>
#25990
1<
#26009
0;
0'
#26842
0A
#27824
0B
#29551
1:
1&
#30000
0!
1,
#31028
0<
#32823
1F
#33954
0@
#34395
0=
#35000
1!
0,
#35674
0>
#35990
1<
#36043
1;
1'
#40000
0!
1,
#41028
0<
#42823
0F
#43937
1@
#44328
1=
#45000
1!
0,
#45699
0C
#45756
1>
#45990
1<
#46009
0;
0'
#46827
1A
#47577
1H
#47885
1B
#48059
0G
#49452
0:
0&
#50000
0!
1,
#51017
19
1%
#51028
0<
#52823
1F
#53954
0@
#54395
0=
#55000
1!
0,
#55674
0>
#55990
1<
#56043
1;
1'
#60000
0!
1,
#61028
0<
#62823
0F
#63937
1@
#64328
1=
#65000
1!
0,
#65699
1C
#65756
1>
#65990
1<
#66009
0;
0'
#66842
0A
#66981
1I
#67395
1J
#67824
0B
#69551
1:
1&
#70000
0!
1,
#71028
0<
#72823
1F
#73954
0@
#74395
0=
#75000
1!
0,
#75674
0>
#75990
1<
#76043
1;
1'
#80000
0!
1,
#81028
0<
#82823
0F
#83937
1@
#84328
1=
#84593
1K
#85000
1!
0,
#85632
0I
#85699
0C
#85756
1>
#85990
1<
#86009
0;
0'
#86042
0J
#86827
1A
#87577
0H
#87885
1B
#88039
1G
#88097
18
1$
#89452
0:
0&
#90000
0!
1,
#90926
09
0%
#91028
0<
#92823
1F
#94395
0=
#95000
1!
0,
#95674
0>
#95990
1<
#96043
1;
1'
#100000
0!
1,
#101028
0<
#102823
0F
#104328
1=
#104593
0K
#105000
1!
0,
#105756
1>
#105990
1<
#106009
0;
0'
#106472
1N
#107511
0L
#107615
0O
#108015
08
0$
#108245
0M
#110000
0!
1,
#110313
13
1#
#111028
0<
#111683
17
1+
#112823
1F
#113954
0@
#114395
0=
#115000
1!
0,
#115674
0>
#115990
1<
#116043
1;
1'
#120000
0!
1,
#121028
0<
#122823
0F
#123937
1@
#124328
1=
#125000
1!
0,
#125699
1C
#125756
1>
#125990
1<
#126009
0;
0'
#126222
1D
#126842
0A
#126959
1E
#127824
0B
#129074
0N
0C
#129551
1:
1&
#129645
0D
#130000
0!
1,
#130086
1L
#130187
1O
#130202
1A
#130356
0E
#130916
1M
#131028
0<
#131260
1B
#132823
1F
#132826
03
0#
#132827
0:
0&
#133954
0@
#134315
07
0+
#134395
0=
#135000
1!
0,
#135674
0>
#135990
1<
#136043
1;
1'
#140000
0!
1,
#141028
0<
#142823
0F
#143937
1@
#144328
1=
#145000
1!
0,
#145699
1C
#145756
1>
#145990
1<
#146009
0;
0'
#146842
0A
#147824
0B
#149551
1:
1&
#150000
0!
1,
#151028
0<
#152823
1F
#153954
0@
#154395
0=
#155000
1!
0,
#155674
0>
#155990
1<
#156043
1;
1'
#160000
0!
1,
#161028
0<
#162823
0F
#163937
1@
#164328
1=
#165000
1!
0,
#165699
0C
#165756
1>
#165990
1<
#166009
0;
0'
#166827
1A
#167577
1H
#167885
1B
#168059
0G
#169452
0:
0&
#170000
0!
1,
#171017
19
1%
#171028
0<
#172823
1F
#173954
0@
#174395
0=
#175000
1!
0,
#175674
0>
#175990
1<
#176043
1;
1'
#180000
0!
1,
#181028
0<
#182823
0F
#183937
1@
#184328
1=
#185000
1!
0,
#185699
1C
#185756
1>
#185990
1<
#186009
0;
0'
#186842
0A
#186981
1I
#187395
1J
#187824
0B
#189551
1:
1&
#190000
0!
1,
#191028
0<
#192823
1F
#193954
0@
#194395
0=
#195000
1!
0,
#195674
0>
#195990
1<
#196043
1;
1'
#200000
0!
1,
#201028
0<
#202823
0F
#203937
1@
#204328
1=
#204593
1K
#205000
1!
0,
#205632
0I
#205699
0C
#205756
1>
#205990
1<
#206009
0;
0'
#206042
0J
#206827
1A
#207577
0H
#207885
1B
#208039
1G
#208097
18
1$
#209452
0:
0&
#210000
0!
1,
#210926
09
0%
#211028
0<
#212823
1F
#214395
0=
#215000
1!
0,
#215674
0>
#215990
1<
#216043
1;
1'
#220000
0!
1,
#221028
0<
#222823
0F
#224328
1=
#224593
0K
#225000
1!
0,
#225756
1>
#225990
1<
#226009
0;
0'
#226472
1N
#227511
0L
#227615
0O
#228015
08
0$
#228245
0M
#230000
0!
1,
#230313
13
1#
#231028
0<
#231683
17
1+
#232823
1F
#233954
0@
#234395
0=
#235000
1!
0,
#235674
0>
#235990
1<
#236043
1;
1'
#240000
0!
1,
#241028
0<
#242823
0F
#243937
1@
#244328
1=
#245000
1!
0,
#245699
1C
#245756
1>
#245990
1<
#246009
0;
0'
#246222
1D
#246842
0A
#246959
1E
#247824
0B
#249074
0N
0C
#249551
1:
1&
#249645
0D
#250000
0!
1,
#250086
1L
#250187
1O
#250202
1A
#250356
0E
#250916
1M
#251028
0<
#251260
1B
#252823
1F
#252826
03
0#
#252827
0:
0&
#253954
0@
#254315
07
0+
#254395
0=
#255000
1!
0,
#255674
0>
#255990
1<
#256043
1;
1'
#260000
0!
1,
#261028
0<
#262823
0F
#263937
1@
#264328
1=
#265000
1!
0,
#265699
1C
#265756
1>
#265990
1<
#266009
0;
0'
#266842
0A
#267824
0B
#269551
1:
1&
#270000
0!
1,
#271028
0<
#272823
1F
#273954
0@
#274395
0=
#275000
1!
0,
#275674
0>
#275990
1<
#276043
1;
1'
#280000
0!
1,
#281028
0<
#282823
0F
#283937
1@
#284328
1=
#285000
1!
0,
#285699
0C
#285756
1>
#285990
1<
#286009
0;
0'
#286827
1A
#287577
1H
#287885
1B
#288059
0G
#289452
0:
0&
#290000
0!
1,
#291017
19
1%
#291028
0<
#292823
1F
#293954
0@
#294395
0=
#295000
1!
0,
#295674
0>
#295990
1<
#296043
1;
1'
#300000
0!
1,
#301028
0<
#302823
0F
#303937
1@
#304328
1=
#305000
1!
0,
#305699
1C
#305756
1>
#305990
1<
#306009
0;
0'
#306842
0A
#306981
1I
#307395
1J
#307824
0B
#309551
1:
1&
#310000
0!
1,
#311028
0<
#312823
1F
#313954
0@
#314395
0=
#315000
1!
0,
#315674
0>
#315990
1<
#316043
1;
1'
#320000
0!
1,
#321028
0<
#322823
0F
#323937
1@
#324328
1=
#324593
1K
#325000
1!
0,
#325632
0I
#325699
0C
#325756
1>
#325990
1<
#326009
0;
0'
#326042
0J
#326827
1A
#327577
0H
#327885
1B
#328039
1G
#328097
18
1$
#329452
0:
0&
#330000
0!
1,
#330926
09
0%
#331028
0<
#332823
1F
#334395
0=
#335000
1!
0,
#335674
0>
#335990
1<
#336043
1;
1'
#340000
0!
1,
#341028
0<
#342823
0F
#344328
1=
#344593
0K
#345000
1!
0,
#345756
1>
#345990
1<
#346009
0;
0'
#346472
1N
#347511
0L
#347615
0O
#348015
08
0$
#348245
0M
#350000
0!
1,
#350313
13
1#
#351028
0<
#351683
17
1+
#352823
1F
#353954
0@
#354395
0=
#355000
1!
0,
#355674
0>
#355990
1<
#356043
1;
1'
#360000
0!
1,
#361028
0<
#362823
0F
#363937
1@
#364328
1=
#365000
1!
0,
#365699
1C
#365756
1>
#365990
1<
#366009
0;
0'
#366222
1D
#366842
0A
#366959
1E
#367824
0B
#369074
0N
0C
#369551
1:
1&
#369645
0D
#370000
0!
1,
#370086
1L
#370187
1O
#370202
1A
#370356
0E
#370916
1M
#371028
0<
#371260
1B
#372823
1F
#372826
03
0#
#372827
0:
0&
#373954
0@
#374315
07
0+
#374395
0=
#375000
1!
0,
#375674
0>
#375990
1<
#376043
1;
1'
#380000
0!
1,
#381028
0<
#382823
0F
#383937
1@
#384328
1=
#385000
1!
0,
#385699
1C
#385756
1>
#385990
1<
#386009
0;
0'
#386842
0A
#387824
0B
#389551
1:
1&
#390000
0!
1,
#391028
0<
#392823
1F
#393954
0@
#394395
0=
#395000
1!
0,
#395674
0>
#395990
1<
#396043
1;
1'
#400000
0!
1,
#401028
0<
#402823
0F
#403937
1@
#404328
1=
#405000
1!
0,
#405699
0C
#405756
1>
#405990
1<
#406009
0;
0'
#406827
1A
#407577
1H
#407885
1B
#408059
0G
#409452
0:
0&
#410000
0!
1,
#411017
19
1%
#411028
0<
#412823
1F
#413954
0@
#414395
0=
#415000
1!
0,
#415674
0>
#415990
1<
#416043
1;
1'
#420000
0!
1,
#421028
0<
#422823
0F
#423937
1@
#424328
1=
#425000
1!
0,
#425699
1C
#425756
1>
#425990
1<
#426009
0;
0'
#426842
0A
#426981
1I
#427395
1J
#427824
0B
#429551
1:
1&
#430000
0!
1,
#431028
0<
#432823
1F
#433954
0@
#434395
0=
#435000
1!
0,
#435674
0>
#435990
1<
#436043
1;
1'
#440000
0!
1,
#441028
0<
#442823
0F
#443937
1@
#444328
1=
#444593
1K
#445000
1!
0,
#445632
0I
#445699
0C
#445756
1>
#445990
1<
#446009
0;
0'
#446042
0J
#446827
1A
#447577
0H
#447885
1B
#448039
1G
#448097
18
1$
#449452
0:
0&
#450000
0!
1,
#450926
09
0%
#451028
0<
#452823
1F
#454395
0=
#455000
1!
0,
#455674
0>
#455990
1<
#456043
1;
1'
#460000
0!
1,
#461028
0<
#462823
0F
#464328
1=
#464593
0K
#465000
1!
0,
#465756
1>
#465990
1<
#466009
0;
0'
#466472
1N
#467511
0L
#467615
0O
#468015
08
0$
#468245
0M
#470000
0!
1,
#470313
13
1#
#471028
0<
#471683
17
1+
#472823
1F
#473954
0@
#474395
0=
#475000
1!
0,
#475674
0>
#475990
1<
#476043
1;
1'
#480000
0!
1,
#481028
0<
#482823
0F
#483937
1@
#484328
1=
#485000
1!
0,
#485699
1C
#485756
1>
#485990
1<
#486009
0;
0'
#486222
1D
#486842
0A
#486959
1E
#487824
0B
#489074
0N
0C
#489551
1:
1&
#489645
0D
#490000
0!
1,
#490086
1L
#490187
1O
#490202
1A
#490356
0E
#490916
1M
#491028
0<
#491260
1B
#492823
1F
#492826
03
0#
#492827
0:
0&
#493954
0@
#494315
07
0+
#494395
0=
#495000
1!
0,
#495674
0>
#495990
1<
#496043
1;
1'
#500000
0!
1,
#501028
0<
#502823
0F
#503937
1@
#504328
1=
#505000
1!
0,
#505699
1C
#505756
1>
#505990
1<
#506009
0;
0'
#506842
0A
#507824
0B
#509551
1:
1&
#510000
0!
1,
#511028
0<
#512823
1F
#513954
0@
#514395
0=
#515000
1!
0,
#515674
0>
#515990
1<
#516043
1;
1'
#520000
0!
1,
#521028
0<
#522823
0F
#523937
1@
#524328
1=
#525000
1!
0,
#525699
0C
#525756
1>
#525990
1<
#526009
0;
0'
#526827
1A
#527577
1H
#527885
1B
#528059
0G
#529452
0:
0&
#530000
0!
1,
#531017
19
1%
#531028
0<
#532823
1F
#533954
0@
#534395
0=
#535000
1!
0,
#535674
0>
#535990
1<
#536043
1;
1'
#540000
0!
1,
#541028
0<
#542823
0F
#543937
1@
#544328
1=
#545000
1!
0,
#545699
1C
#545756
1>
#545990
1<
#546009
0;
0'
#546842
0A
#546981
1I
#547395
1J
#547824
0B
#549551
1:
1&
#550000
0!
1,
#551028
0<
#552823
1F
#553954
0@
#554395
0=
#555000
1!
0,
#555674
0>
#555990
1<
#556043
1;
1'
#560000
0!
1,
#561028
0<
#562823
0F
#563937
1@
#564328
1=
#564593
1K
#565000
1!
0,
#565632
0I
#565699
0C
#565756
1>
#565990
1<
#566009
0;
0'
#566042
0J
#566827
1A
#567577
0H
#567885
1B
#568039
1G
#568097
18
1$
#569452
0:
0&
#570000
0!
1,
#570926
09
0%
#571028
0<
#572823
1F
#574395
0=
#575000
1!
0,
#575674
0>
#575990
1<
#576043
1;
1'
#580000
0!
1,
#581028
0<
#582823
0F
#584328
1=
#584593
0K
#585000
1!
0,
#585756
1>
#585990
1<
#586009
0;
0'
#586472
1N
#587511
0L
#587615
0O
#588015
08
0$
#588245
0M
#590000
0!
1,
#590313
13
1#
#591028
0<
#591683
17
1+
#592823
1F
#593954
0@
#594395
0=
#595000
1!
0,
#595674
0>
#595990
1<
#596043
1;
1'
#600000
0!
1,
#601028
0<
#602823
0F
#603937
1@
#604328
1=
#605000
1!
0,
#605699
1C
#605756
1>
#605990
1<
#606009
0;
0'
#606222
1D
#606842
0A
#606959
1E
#607824
0B
#609074
0N
0C
#609551
1:
1&
#609645
0D
#610000
0!
1,
#610086
1L
#610187
1O
#610202
1A
#610356
0E
#610916
1M
#611028
0<
#611260
1B
#612823
1F
#612826
03
0#
#612827
0:
0&
#613954
0@
#614315
07
0+
#614395
0=
#615000
1!
0,
#615674
0>
#615990
1<
#616043
1;
1'
#620000
0!
1,
#621028
0<
#622823
0F
#623937
1@
#624328
1=
#625000
1!
0,
#625699
1C
#625756
1>
#625990
1<
#626009
0;
0'
#626842
0A
#627824
0B
#629551
1:
1&
#630000
0!
1,
#631028
0<
#632823
1F
#633954
0@
#634395
0=
#635000
1!
0,
#635674
0>
#635990
1<
#636043
1;
1'
#640000
0!
1,
#641028
0<
#642823
0F
#643937
1@
#644328
1=
#645000
1!
0,
#645699
0C
#645756
1>
#645990
1<
#646009
0;
0'
#646827
1A
#647577
1H
#647885
1B
#648059
0G
#649452
0:
0&
#650000
0!
1,
#651017
19
1%
#651028
0<
#652823
1F
#653954
0@
#654395
0=
#655000
1!
0,
#655674
0>
#655990
1<
#656043
1;
1'
#660000
0!
1,
#661028
0<
#662823
0F
#663937
1@
#664328
1=
#665000
1!
0,
#665699
1C
#665756
1>
#665990
1<
#666009
0;
0'
#666842
0A
#666981
1I
#667395
1J
#667824
0B
#669551
1:
1&
#670000
0!
1,
#671028
0<
#672823
1F
#673954
0@
#674395
0=
#675000
1!
0,
#675674
0>
#675990
1<
#676043
1;
1'
#680000
0!
1,
#681028
0<
#682823
0F
#683937
1@
#684328
1=
#684593
1K
#685000
1!
0,
#685632
0I
#685699
0C
#685756
1>
#685990
1<
#686009
0;
0'
#686042
0J
#686827
1A
#687577
0H
#687885
1B
#688039
1G
#688097
18
1$
#689452
0:
0&
#690000
0!
1,
#690926
09
0%
#691028
0<
#692823
1F
#694395
0=
#695000
1!
0,
#695674
0>
#695990
1<
#696043
1;
1'
#700000
0!
1,
#701028
0<
#702823
0F
#704328
1=
#704593
0K
#705000
1!
0,
#705756
1>
#705990
1<
#706009
0;
0'
#706472
1N
#707511
0L
#707615
0O
#708015
08
0$
#708245
0M
#710000
0!
1,
#710313
13
1#
#711028
0<
#711683
17
1+
#712823
1F
#713954
0@
#714395
0=
#715000
1!
0,
#715674
0>
#715990
1<
#716043
1;
1'
#720000
0!
1,
#721028
0<
#722823
0F
#723937
1@
#724328
1=
#725000
1!
0,
#725699
1C
#725756
1>
#725990
1<
#726009
0;
0'
#726222
1D
#726842
0A
#726959
1E
#727824
0B
#729074
0N
0C
#729551
1:
1&
#729645
0D
#730000
0!
1,
#730086
1L
#730187
1O
#730202
1A
#730356
0E
#730916
1M
#731028
0<
#731260
1B
#732823
1F
#732826
03
0#
#732827
0:
0&
#733954
0@
#734315
07
0+
#734395
0=
#735000
1!
0,
#735674
0>
#735990
1<
#736043
1;
1'
#740000
0!
1,
#741028
0<
#742823
0F
#743937
1@
#744328
1=
#745000
1!
0,
#745699
1C
#745756
1>
#745990
1<
#746009
0;
0'
#746842
0A
#747824
0B
#749551
1:
1&
#750000
0!
1,
#751028
0<
#752823
1F
#753954
0@
#754395
0=
#755000
1!
0,
#755674
0>
#755990
1<
#756043
1;
1'
#760000
0!
1,
#761028
0<
#762823
0F
#763937
1@
#764328
1=
#765000
1!
0,
#765699
0C
#765756
1>
#765990
1<
#766009
0;
0'
#766827
1A
#767577
1H
#767885
1B
#768059
0G
#769452
0:
0&
#770000
0!
1,
#771017
19
1%
#771028
0<
#772823
1F
#773954
0@
#774395
0=
#775000
1!
0,
#775674
0>
#775990
1<
#776043
1;
1'
#780000
0!
1,
#781028
0<
#782823
0F
#783937
1@
#784328
1=
#785000
1!
0,
#785699
1C
#785756
1>
#785990
1<
#786009
0;
0'
#786842
0A
#786981
1I
#787395
1J
#787824
0B
#789551
1:
1&
#790000
0!
1,
#791028
0<
#792823
1F
#793954
0@
#794395
0=
#795000
1!
0,
#795674
0>
#795990
1<
#796043
1;
1'
#800000
0!
1,
#801028
0<
#802823
0F
#803937
1@
#804328
1=
#804593
1K
#805000
1!
0,
#805632
0I
#805699
0C
#805756
1>
#805990
1<
#806009
0;
0'
#806042
0J
#806827
1A
#807577
0H
#807885
1B
#808039
1G
#808097
18
1$
#809452
0:
0&
#810000
0!
1,
#810926
09
0%
#811028
0<
#812823
1F
#814395
0=
#815000
1!
0,
#815674
0>
#815990
1<
#816043
1;
1'
#820000
0!
1,
#821028
0<
#822823
0F
#824328
1=
#824593
0K
#825000
1!
0,
#825756
1>
#825990
1<
#826009
0;
0'
#826472
1N
#827511
0L
#827615
0O
#828015
08
0$
#828245
0M
#830000
0!
1,
#830313
13
1#
#831028
0<
#831683
17
1+
#832823
1F
#833954
0@
#834395
0=
#835000
1!
0,
#835674
0>
#835990
1<
#836043
1;
1'
#840000
0!
1,
#841028
0<
#842823
0F
#843937
1@
#844328
1=
#845000
1!
0,
#845699
1C
#845756
1>
#845990
1<
#846009
0;
0'
#846222
1D
#846842
0A
#846959
1E
#847824
0B
#849074
0N
0C
#849551
1:
1&
#849645
0D
#850000
0!
1,
#850086
1L
#850187
1O
#850202
1A
#850356
0E
#850916
1M
#851028
0<
#851260
1B
#852823
1F
#852826
03
0#
#852827
0:
0&
#853954
0@
#854315
07
0+
#854395
0=
#855000
1!
0,
#855674
0>
#855990
1<
#856043
1;
1'
#860000
0!
1,
#861028
0<
#862823
0F
#863937
1@
#864328
1=
#865000
1!
0,
#865699
1C
#865756
1>
#865990
1<
#866009
0;
0'
#866842
0A
#867824
0B
#869551
1:
1&
#870000
0!
1,
#871028
0<
#872823
1F
#873954
0@
#874395
0=
#875000
1!
0,
#875674
0>
#875990
1<
#876043
1;
1'
#880000
0!
1,
#881028
0<
#882823
0F
#883937
1@
#884328
1=
#885000
1!
0,
#885699
0C
#885756
1>
#885990
1<
#886009
0;
0'
#886827
1A
#887577
1H
#887885
1B
#888059
0G
#889452
0:
0&
#890000
0!
1,
#891017
19
1%
#891028
0<
#892823
1F
#893954
0@
#894395
0=
#895000
1!
0,
#895674
0>
#895990
1<
#896043
1;
1'
#900000
0!
1,
#901028
0<
#902823
0F
#903937
1@
#904328
1=
#905000
1!
0,
#905699
1C
#905756
1>
#905990
1<
#906009
0;
0'
#906842
0A
#906981
1I
#907395
1J
#907824
0B
#909551
1:
1&
#910000
0!
1,
#911028
0<
#912823
1F
#913954
0@
#914395
0=
#915000
1!
0,
#915674
0>
#915990
1<
#916043
1;
1'
#920000
0!
1,
#921028
0<
#922823
0F
#923937
1@
#924328
1=
#924593
1K
#925000
1!
0,
#925632
0I
#925699
0C
#925756
1>
#925990
1<
#926009
0;
0'
#926042
0J
#926827
1A
#927577
0H
#927885
1B
#928039
1G
#928097
18
1$
#929452
0:
0&
#930000
0!
1,
#930926
09
0%
#931028
0<
#932823
1F
#934395
0=
#935000
1!
0,
#935674
0>
#935990
1<
#936043
1;
1'
#940000
0!
1,
#941028
0<
#942823
0F
#944328
1=
#944593
0K
#945000
1!
0,
#945756
1>
#945990
1<
#946009
0;
0'
#946472
1N
#947511
0L
#947615
0O
#948015
08
0$
#948245
0M
#950000
0!
1,
#950313
13
1#
#951028
0<
#951683
17
1+
#952823
1F
#953954
0@
#954395
0=
#955000
1!
0,
#955674
0>
#955990
1<
#956043
1;
1'
#960000
0!
1,
#961028
0<
#962823
0F
#963937
1@
#964328
1=
#965000
1!
0,
#965699
1C
#965756
1>
#965990
1<
#966009
0;
0'
#966222
1D
#966842
0A
#966959
1E
#967824
0B
#969074
0N
0C
#969551
1:
1&
#969645
0D
#970000
0!
1,
#970086
1L
#970187
1O
#970202
1A
#970356
0E
#970916
1M
#971028
0<
#971260
1B
#972823
1F
#972826
03
0#
#972827
0:
0&
#973954
0@
#974315
07
0+
#974395
0=
#975000
1!
0,
#975674
0>
#975990
1<
#976043
1;
1'
#980000
0!
1,
#981028
0<
#982823
0F
#983937
1@
#984328
1=
#985000
1!
0,
#985699
1C
#985756
1>
#985990
1<
#986009
0;
0'
#986842
0A
#987824
0B
#989551
1:
1&
#990000
0!
1,
#991028
0<
#992823
1F
#993954
0@
#994395
0=
#995000
1!
0,
#995674
0>
#995990
1<
#996043
1;
1'
