File/simulation/qsim/cnt100.msim.vcd
$comment
	File created using the following command:
		vcd file cnt100.msim.vcd -direction
$end
$date
	Wed Dec 23 13:19:23 2020
$end
$version
	ModelSim Version 10.1d
$end
$timescale
	1ps
$end
$scope module cnt100_vlg_vec_tst $end
$var reg 1 ! clk_01 $end
$var wire 1 " CO_01 $end
$var wire 1 # ge_01 [3] $end
$var wire 1 $ ge_01 [2] $end
$var wire 1 % ge_01 [1] $end
$var wire 1 & ge_01 [0] $end
$var wire 1 ' shi_01 [3] $end
$var wire 1 ( shi_01 [2] $end
$var wire 1 ) shi_01 [1] $end
$var wire 1 * shi_01 [0] $end
$var wire 1 + sampler $end
$scope module i1 $end
$var wire 1 , gnd $end
$var wire 1 - vcc $end
$var wire 1 . unknown $end
$var tri1 1 / devclrn $end
$var tri1 1 0 devpor $end
$var tri1 1 1 devoe $end
$var wire 1 2 CO_01~output_o $end
$var wire 1 3 shi_01[3]~output_o $end
$var wire 1 4 shi_01[2]~output_o $end
$var wire 1 5 shi_01[1]~output_o $end
$var wire 1 6 shi_01[0]~output_o $end
$var wire 1 7 ge_01[3]~output_o $end
$var wire 1 8 ge_01[2]~output_o $end
$var wire 1 9 ge_01[1]~output_o $end
$var wire 1 : ge_01[0]~output_o $end
$var wire 1 ; clk_01~input_o $end
$var wire 1 < inst1|7~0_combout $end
$var wire 1 = inst1|7~feeder_combout $end
$var wire 1 > inst1|7~q $end
$var wire 1 ? inst1|20~combout $end
$var wire 1 @ inst1|6~0_combout $end
$var wire 1 A inst1|6~feeder_combout $end
$var wire 1 B inst1|6~q $end
$var wire 1 C inst1|5~0_combout $end
$var wire 1 D inst1|5~q $end
$var wire 1 E inst1|3~0_combout $end
$var wire 1 F inst1|3~feeder_combout $end
$var wire 1 G inst1|3~q $end
$var wire 1 H inst1|34~0_combout $end
$var wire 1 I inst1|34~q $end
$var wire 1 J inst1|29~combout $end
$var wire 1 K inst1|33~0_combout $end
$var wire 1 L inst1|33~q $end
$var wire 1 M inst1|32~0_combout $end
$var wire 1 N inst1|32~q $end
$var wire 1 O inst1|31~0_combout $end
$var wire 1 P inst1|31~q $end
$upscope $end
$upscope $end
$enddefinitions $end
#0
$dumpvars
0!
x"
x&
x%
x$
x#
x*
x)
x(
x'
x+
0,
1-
x.
1/
10
11
x2
x3
x4
x5
x6
x7
x8
x9
x:
0;
x<
x=
0>
x?
x@
xA
0B
1C
0D
xE
xF
0G
xH
0I
xJ
xK
0L
1M
0N
xO
0P
$end
#548
0O
#572
1J
#584
1?
#702
0E
#905
1K
#940
1H
#1114
0F
#1124
1@
#1391
xG
#1967
1<
#2080
1A
#3338
05
0)
#3458
04
0(
#3507
03
0'
#3513
02
0"
#3868
08
0$
#3894
1=
#3957
09
0:
0%
0&
#4871
06
0*
#5000
1!
0+
#5990
1;
#10000
0!
1+
#11028
0;
#13973
1>
#14461
x?
#15000
1!
0+
#15990
1;
#15991
0<
#17737
0=
#18036
1:
1&
#20000
0!
1+
#21028
0;
#23973
0>
#24557
1?
#25000
1!
0+
#25364
0G
#25940
1<
#25990
1;
#27867
1=
#27930
0:
0&
#28967
07
0#
#30000
0!
1+
#31028
0;
#33973
1>
#34461
0?
#35000
1!
0+
#35990
1;
#35991
0<
#37737
0=
#38036
1:
1&
#40000
0!
1+
#41028
0;
#43973
0>
#44557
1?
#45000
1!
0+
#45940
1<
#45969
1B
#45990
1;
#47078
0@
#47867
1=
#47930
0:
0&
#48016
0A
#50000
0!
1+
#50115
19
1%
#51028
0;
#53973
1>
#54461
0?
#55000
1!
0+
#55990
1;
#55991
0<
#57737
0=
#58036
1:
1&
#60000
0!
1+
#61028
0;
#63973
0>
#64557
1?
#65000
1!
0+
#65940
1<
#65969
0B
#65990
1;
#67093
1@
#67374
1D
#67856
0C
#67867
1=
#67930
0:
0&
#68049
1A
#69926
09
0%
#70000
0!
1+
#71028
0;
#71421
18
1$
#73973
1>
#74461
0?
#75000
1!
0+
#75990
1;
#75991
0<
#77737
0=
#78036
1:
1&
#80000
0!
1+
#81028
0;
#83973
0>
#84557
1?
#85000
1!
0+
#85940
1<
#85969
1B
#85990
1;
#86851
1E
#87078
0@
#87266
1F
#87867
1=
#87930
0:
0&
#88016
0A
#90000
0!
1+
#90115
19
1%
#91028
0;
#93973
1>
#94461
0?
#95000
1!
0+
#95990
1;
#95991
0<
#97737
0=
#98036
1:
1&
#100000
0!
1+
#101028
0;
#103973
0>
#104557
1?
#105000
1!
0+
#105364
1G
#105940
1<
#105969
0B
#105990
1;
#106164
0E
#106576
0F
#107093
1@
#107374
0D
#107836
1C
#107867
1=
#107930
0:
0&
#108049
1A
#109096
17
1#
#109926
09
0%
#110000
0!
1+
#111028
0;
#111242
08
0$
#113973
1>
#115000
1!
0+
#115990
1;
#115991
0<
#117737
0=
#118036
1:
1&
#120000
0!
1+
#121028
0;
#123973
0>
#125000
1!
0+
#125364
0G
#125940
1<
#125990
1;
#127202
1I
#127681
0J
#127867
1=
#127930
0:
0&
#128109
0H
#128967
07
0#
#130000
0!
1+
#131028
0;
#132044
16
1*
#133973
1>
#134461
0?
#135000
1!
0+
#135990
1;
#135991
0<
#137737
0=
#138036
1:
1&
#140000
0!
1+
#141028
0;
#143973
0>
#144557
1?
#145000
1!
0+
#145940
1<
#145969
1B
#145990
1;
#147078
0@
#147867
1=
#147930
0:
0&
#148016
0A
#150000
0!
1+
#150115
19
1%
#151028
0;
#153973
1>
#154461
0?
#155000
1!
0+
#155990
1;
#155991
0<
#157737
0=
#158036
1:
1&
#160000
0!
1+
#161028
0;
#163973
0>
#164557
1?
#165000
1!
0+
#165940
1<
#165969
0B
#165990
1;
#167093
1@
#167374
1D
#167856
0C
#167867
1=
#167930
0:
0&
#168049
1A
#169926
09
0%
#170000
0!
1+
#171028
0;
#171421
18
1$
#173973
1>
#174461
0?
#175000
1!
0+
#175990
1;
#175991
0<
#177737
0=
#178036
1:
1&
#180000
0!
1+
#181028
0;
#183973
0>
#184557
1?
#185000
1!
0+
#185940
1<
#185969
1B
#185990
1;
#186851
1E
#187078
0@
#187266
1F
#187867
1=
#187930
0:
0&
#188016
0A
#190000
0!
1+
#190115
19
1%
#191028
0;
#193973
1>
#194461
0?
#195000
1!
0+
#195990
1;
#195991
0<
#197737
0=
#198036
1:
1&
#200000
0!
1+
#201028
0;
#203973
0>
#204557
1?
#205000
1!
0+
#205364
1G
#205940
1<
#205969
0B
#205990
1;
#206164
0E
#206576
0F
#207093
1@
#207374
0D
#207836
1C
#207867
1=
#207930
0:
0&
#208049
1A
#209096
17
1#
#209926
09
0%
#210000
0!
1+
#211028
0;
#211242
08
0$
#213973
1>
#215000
1!
0+
#215990
1;
#215991
0<
#217737
0=
#218036
1:
1&
#220000
0!
1+
#221028
0;
#223973
0>
#225000
1!
0+
#225364
0G
#225940
1<
#225990
1;
#227202
0I
#227774
1J
#227867
1=
#227930
0:
0&
#228142
1H
#228967
07
0#
#228988
1L
#229857
0K
#230000
0!
1+
#231028
0;
#232073
06
0*
#232410
15
1)
#233973
1>
#234461
0?
#235000
1!
0+
#235990
1;
#235991
0<
#237737
0=
#238036
1:
1&
#240000
0!
1+
#241028
0;
#243973
0>
#244557
1?
#245000
1!
0+
#245940
1<
#245969
1B
#245990
1;
#247078
0@
#247867
1=
#247930
0:
0&
#248016
0A
#250000
0!
1+
#250115
19
1%
#251028
0;
#253973
1>
#254461
0?
#255000
1!
0+
#255990
1;
#255991
0<
#257737
0=
#258036
1:
1&
#260000
0!
1+
#261028
0;
#263973
0>
#264557
1?
#265000
1!
0+
#265940
1<
#265969
0B
#265990
1;
#267093
1@
#267374
1D
#267856
0C
#267867
1=
#267930
0:
0&
#268049
1A
#269926
09
0%
#270000
0!
1+
#271028
0;
#271421
18
1$
#273973
1>
#274461
0?
#275000
1!
0+
#275990
1;
#275991
0<
#277737
0=
#278036
1:
1&
#280000
0!
1+
#281028
0;
#283973
0>
#284557
1?
#285000
1!
0+
#285940
1<
#285969
1B
#285990
1;
#286851
1E
#287078
0@
#287266
1F
#287867
1=
#287930
0:
0&
#288016
0A
#290000
0!
1+
#290115
19
1%
#291028
0;
#293973
1>
#294461
0?
#295000
1!
0+
#295990
1;
#295991
0<
#297737
0=
#298036
1:
1&
#300000
0!
1+
#301028
0;
#303973
0>
#304557
1?
#305000
1!
0+
#305364
1G
#305940
1<
#305969
0B
#305990
1;
#306164
0E
#306576
0F
#307093
1@
#307374
0D
#307836
1C
#307867
1=
#307930
0:
0&
#308049
1A
#309096
17
1#
#309926
09
0%
#310000
0!
1+
#311028
0;
#311242
08
0$
#313973
1>
#315000
1!
0+
#315990
1;
#315991
0<
#317737
0=
#318036
1:
1&
#320000
0!
1+
#321028
0;
#323973
0>
#325000
1!
0+
#325364
0G
#325940
1<
#325990
1;
#327202
1I
#327681
0J
#327867
1=
#327930
0:
0&
#328109
0H
#328967
07
0#
#330000
0!
1+
#331028
0;
#332044
16
1*
#333973
1>
#334461
0?
#335000
1!
0+
#335990
1;
#335991
0<
#337737
0=
#338036
1:
1&
#340000
0!
1+
#341028
0;
#343973
0>
#344557
1?
#345000
1!
0+
#345940
1<
#345969
1B
#345990
1;
#347078
0@
#347867
1=
#347930
0:
0&
#348016
0A
#350000
0!
1+
#350115
19
1%
#351028
0;
#353973
1>
#354461
0?
#355000
1!
0+
#355990
1;
#355991
0<
#357737
0=
#358036
1:
1&
#360000
0!
1+
#361028
0;
#363973
0>
#364557
1?
#365000
1!
0+
#365940
1<
#365969
0B
#365990
1;
#367093
1@
#367374
1D
#367856
0C
#367867
1=
#367930
0:
0&
#368049
1A
#369926
09
0%
#370000
0!
1+
#371028
0;
#371421
18
1$
#373973
1>
#374461
0?
#375000
1!
0+
#375990
1;
#375991
0<
#377737
0=
#378036
1:
1&
#380000
0!
1+
#381028
0;
#383973
0>
#384557
1?
#385000
1!
0+
#385940
1<
#385969
1B
#385990
1;
#386851
1E
#387078
0@
#387266
1F
#387867
1=
#387930
0:
0&
#388016
0A
#390000
0!
1+
#390115
19
1%
#391028
0;
#393973
1>
#394461
0?
#395000
1!
0+
#395990
1;
#395991
0<
#397737
0=
#398036
1:
1&
#400000
0!
1+
#401028
0;
#403973
0>
#404557
1?
#405000
1!
0+
#405364
1G
#405940
1<
#405969
0B
#405990
1;
#406164
0E
#406576
0F
#407093
1@
#407374
0D
#407836
1C
#407867
1=
#407930
0:
0&
#408049
1A
#409096
17
1#
#409926
09
0%
#410000
0!
1+
#411028
0;
#411242
08
0$
#413973
1>
#415000
1!
0+
#415990
1;
#415991
0<
#417737
0=
#418036
1:
1&
#420000
0!
1+
#421028
0;
#423973
0>
#425000
1!
0+
#425364
0G
#425940
1<
#425990
1;
#427202
0I
#427774
1J
#427867
1=
#427930
0:
0&
#428142
1H
#428967
07
0#
#428988
0L
#429893
1K
#430000
0!
1+
#430494
1N
#430976
0M
#431028
0;
#432073
06
0*
#432326
05
0)
#433973
1>
#434118
14
1(
#434461
0?
#435000
1!
0+
#435990
1;
#435991
0<
#437737
0=
#438036
1:
1&
#440000
0!
1+
#441028
0;
#443973
0>
#444557
1?
#445000
1!
0+
#445940
1<
#445969
1B
#445990
1;
#447078
0@
#447867
1=
#447930
0:
0&
#448016
0A
#450000
0!
1+
#450115
19
1%
#451028
0;
#453973
1>
#454461
0?
#455000
1!
0+
#455990
1;
#455991
0<
#457737
0=
#458036
1:
1&
#460000
0!
1+
#461028
0;
#463973
0>
#464557
1?
#465000
1!
0+
#465940
1<
#465969
0B
#465990
1;
#467093
1@
#467374
1D
#467856
0C
#467867
1=
#467930
0:
0&
#468049
1A
#469926
09
0%
#470000
0!
1+
#471028
0;
#471421
18
1$
#473973
1>
#474461
0?
#475000
1!
0+
#475990
1;
#475991
0<
#477737
0=
#478036
1:
1&
#480000
0!
1+
#481028
0;
#483973
0>
#484557
1?
#485000
1!
0+
#485940
1<
#485969
1B
#485990
1;
#486851
1E
#487078
0@
#487266
1F
#487867
1=
#487930
0:
0&
#488016
0A
#490000
0!
1+
#490115
19
1%
#491028
0;
#493973
1>
#494461
0?
#495000
1!
0+
#495990
1;
#495991
0<
#497737
0=
#498036
1:
1&
#500000
0!
1+
#501028
0;
#503973
0>
#504557
1?
#505000
1!
0+
#505364
1G
#505940
1<
#505969
0B
#505990
1;
#506164
0E
#506576
0F
#507093
1@
#507374
0D
#507836
1C
#507867
1=
#507930
0:
0&
#508049
1A
#509096
17
1#
#509926
09
0%
#510000
0!
1+
#511028
0;
#511242
08
0$
#513973
1>
#515000
1!
0+
#515990
1;
#515991
0<
#517737
0=
#518036
1:
1&
#520000
0!
1+
#521028
0;
#523973
0>
#525000
1!
0+
#525364
0G
#525940
1<
#525990
1;
#527202
1I
#527681
0J
#527867
1=
#527930
0:
0&
#528109
0H
#528967
07
0#
#530000
0!
1+
#531028
0;
#532044
16
1*
#533973
1>
#534461
0?
#535000
1!
0+
#535990
1;
#535991
0<
#537737
0=
#538036
1:
1&
#540000
0!
1+
#541028
0;
#543973
0>
#544557
1?
#545000
1!
0+
#545940
1<
#545969
1B
#545990
1;
#547078
0@
#547867
1=
#547930
0:
0&
#548016
0A
#550000
0!
1+
#550115
19
1%
#551028
0;
#553973
1>
#554461
0?
#555000
1!
0+
#555990
1;
#555991
0<
#557737
0=
#558036
1:
1&
#560000
0!
1+
#561028
0;
#563973
0>
#564557
1?
#565000
1!
0+
#565940
1<
#565969
0B
#565990
1;
#567093
1@
#567374
1D
#567856
0C
#567867
1=
#567930
0:
0&
#568049
1A
#569926
09
0%
#570000
0!
1+
#571028
0;
#571421
18
1$
#573973
1>
#574461
0?
#575000
1!
0+
#575990
1;
#575991
0<
#577737
0=
#578036
1:
1&
#580000
0!
1+
#581028
0;
#583973
0>
#584557
1?
#585000
1!
0+
#585940
1<
#585969
1B
#585990
1;
#586851
1E
#587078
0@
#587266
1F
#587867
1=
#587930
0:
0&
#588016
0A
#590000
0!
1+
#590115
19
1%
#591028
0;
#593973
1>
#594461
0?
#595000
1!
0+
#595990
1;
#595991
0<
#597737
0=
#598036
1:
1&
#600000
0!
1+
#601028
0;
#603973
0>
#604557
1?
#605000
1!
0+
#605364
1G
#605940
1<
#605969
0B
#605990
1;
#606164
0E
#606576
0F
#607093
1@
#607374
0D
#607836
1C
#607867
1=
#607930
0:
0&
#608049
1A
#609096
17
1#
#609926
09
0%
#610000
0!
1+
#611028
0;
#611242
08
0$
#613973
1>
#615000
1!
0+
#615990
1;
#615991
0<
#617737
0=
#618036
1:
1&
#620000
0!
1+
#621028
0;
#623973
0>
#625000
1!
0+
#625364
0G
#625940
1<
#625990
1;
#627202
0I
#627774
1J
#627867
1=
#627930
0:
0&
#628142
1H
#628967
07
0#
#628988
1L
#629857
0K
#630000
0!
1+
#630621
1O
#631028
0;
#632073
06
0*
#632410
15
1)
#633973
1>
#634461
0?
#635000
1!
0+
#635990
1;
#635991
0<
#637737
0=
#638036
1:
1&
#640000
0!
1+
#641028
0;
#643973
0>
#644557
1?
#645000
1!
0+
#645940
1<
#645969
1B
#645990
1;
#647078
0@
#647867
1=
#647930
0:
0&
#648016
0A
#650000
0!
1+
#650115
19
1%
#651028
0;
#653973
1>
#654461
0?
#655000
1!
0+
#655990
1;
#655991
0<
#657737
0=
#658036
1:
1&
#660000
0!
1+
#661028
0;
#663973
0>
#664557
1?
#665000
1!
0+
#665940
1<
#665969
0B
#665990
1;
#667093
1@
#667374
1D
#667856
0C
#667867
1=
#667930
0:
0&
#668049
1A
#669926
09
0%
#670000
0!
1+
#671028
0;
#671421
18
1$
#673973
1>
#674461
0?
#675000
1!
0+
#675990
1;
#675991
0<
#677737
0=
#678036
1:
1&
#680000
0!
1+
#681028
0;
#683973
0>
#684557
1?
#685000
1!
0+
#685940
1<
#685969
1B
#685990
1;
#686851
1E
#687078
0@
#687266
1F
#687867
1=
#687930
0:
0&
#688016
0A
#690000
0!
1+
#690115
19
1%
#691028
0;
#693973
1>
#694461
0?
#695000
1!
0+
#695990
1;
#695991
0<
#697737
0=
#698036
1:
1&
#700000
0!
1+
#701028
0;
#703973
0>
#704557
1?
#705000
1!
0+
#705364
1G
#705940
1<
#705969
0B
#705990
1;
#706164
0E
#706576
0F
#707093
1@
#707374
0D
#707836
1C
#707867
1=
#707930
0:
0&
#708049
1A
#709096
17
1#
#709926
09
0%
#710000
0!
1+
#711028
0;
#711242
08
0$
#713973
1>
#715000
1!
0+
#715990
1;
#715991
0<
#717737
0=
#718036
1:
1&
#720000
0!
1+
#721028
0;
#723973
0>
#725000
1!
0+
#725364
0G
#725940
1<
#725990
1;
#727202
1I
#727681
0J
#727867
1=
#727930
0:
0&
#728109
0H
#728967
07
0#
#730000
0!
1+
#731028
0;
#732044
16
1*
#733973
1>
#734461
0?
#735000
1!
0+
#735990
1;
#735991
0<
#737737
0=
#738036
1:
1&
#740000
0!
1+
#741028
0;
#743973
0>
#744557
1?
#745000
1!
0+
#745940
1<
#745969
1B
#745990
1;
#747078
0@
#747867
1=
#747930
0:
0&
#748016
0A
#750000
0!
1+
#750115
19
1%
#751028
0;
#753973
1>
#754461
0?
#755000
1!
0+
#755990
1;
#755991
0<
#757737
0=
#758036
1:
1&
#760000
0!
1+
#761028
0;
#763973
0>
#764557
1?
#765000
1!
0+
#765940
1<
#765969
0B
#765990
1;
#767093
1@
#767374
1D
#767856
0C
#767867
1=
#767930
0:
0&
#768049
1A
#769926
09
0%
#770000
0!
1+
#771028
0;
#771421
18
1$
#773973
1>
#774461
0?
#775000
1!
0+
#775990
1;
#775991
0<
#777737
0=
#778036
1:
1&
#780000
0!
1+
#781028
0;
#783973
0>
#784557
1?
#785000
1!
0+
#785940
1<
#785969
1B
#785990
1;
#786851
1E
#787078
0@
#787266
1F
#787867
1=
#787930
0:
0&
#788016
0A
#790000
0!
1+
#790115
19
1%
#791028
0;
#793973
1>
#794461
0?
#795000
1!
0+
#795990
1;
#795991
0<
#797737
0=
#798036
1:
1&
#800000
0!
1+
#801028
0;
#803973
0>
#804557
1?
#805000
1!
0+
#805364
1G
#805940
1<
#805969
0B
#805990
1;
#806164
0E
#806576
0F
#807093
1@
#807374
0D
#807836
1C
#807867
1=
#807930
0:
0&
#808049
1A
#809096
17
1#
#809926
09
0%
#810000
0!
1+
#811028
0;
#811242
08
0$
#813973
1>
#815000
1!
0+
#815990
1;
#815991
0<
#817737
0=
#818036
1:
1&
#820000
0!
1+
#821028
0;
#823973
0>
#825000
1!
0+
#825364
0G
#825940
1<
#825990
1;
#827202
0I
#827774
1J
#827867
1=
#827930
0:
0&
#828142
1H
#828772
1P
#828967
07
0#
#828988
0L
#829254
0O
#829893
1K
#830000
0!
1+
#830494
0N
#830956
1M
#831028
0;
#832073
06
0*
#832326
05
0)
#832409
13
1'
#832420
12
1"
#833952
04
0(
#833973
1>
#834461
0?
#835000
1!
0+
#835990
1;
#835991
0<
#837737
0=
#838036
1:
1&
#840000
0!
1+
#841028
0;
#843973
0>
#844557
1?
#845000
1!
0+
#845940
1<
#845969
1B
#845990
1;
#847078
0@
#847867
1=
#847930
0:
0&
#848016
0A
#850000
0!
1+
#850115
19
1%
#851028
0;
#853973
1>
#854461
0?
#855000
1!
0+
#855990
1;
#855991
0<
#857737
0=
#858036
1:
1&
#860000
0!
1+
#861028
0;
#863973
0>
#864557
1?
#865000
1!
0+
#865940
1<
#865969
0B
#865990
1;
#867093
1@
#867374
1D
#867856
0C
#867867
1=
#867930
0:
0&
#868049
1A
#869926
09
0%
#870000
0!
1+
#871028
0;
#871421
18
1$
#873973
1>
#874461
0?
#875000
1!
0+
#875990
1;
#875991
0<
#877737
0=
#878036
1:
1&
#880000
0!
1+
#881028
0;
#883973
0>
#884557
1?
#885000
1!
0+
#885940
1<
#885969
1B
#885990
1;
#886851
1E
#887078
0@
#887266
1F
#887867
1=
#887930
0:
0&
#888016
0A
#890000
0!
1+
#890115
19
1%
#891028
0;
#893973
1>
#894461
0?
#895000
1!
0+
#895990
1;
#895991
0<
#897737
0=
#898036
1:
1&
#900000
0!
1+
#901028
0;
#903973
0>
#904557
1?
#905000
1!
0+
#905364
1G
#905940
1<
#905969
0B
#905990
1;
#906164
0E
#906576
0F
#907093
1@
#907374
0D
#907836
1C
#907867
1=
#907930
0:
0&
#908049
1A
#909096
17
1#
#909926
09
0%
#910000
0!
1+
#911028
0;
#911242
08
0$
#913973
1>
#915000
1!
0+
#915990
1;
#915991
0<
#917737
0=
#918036
1:
1&
#920000
0!
1+
#921028
0;
#923973
0>
#925000
1!
0+
#925364
0G
#925940
1<
#925990
1;
#927202
1I
#927867
1=
#927930
0:
0&
#928109
0H
#928967
07
0#
#930000
0!
1+
#931028
0;
#932044
16
1*
#933973
1>
#934461
0?
#935000
1!
0+
#935990
1;
#935991
0<
#937737
0=
#938036
1:
1&
#940000
0!
1+
#941028
0;
#943973
0>
#944557
1?
#945000
1!
0+
#945940
1<
#945969
1B
#945990
1;
#947078
0@
#947867
1=
#947930
0:
0&
#948016
0A
#950000
0!
1+
#950115
19
1%
#951028
0;
#953973
1>
#954461
0?
#955000
1!
0+
#955990
1;
#955991
0<
#957737
0=
#958036
1:
1&
#960000
0!
1+
#961028
0;
#963973
0>
#964557
1?
#965000
1!
0+
#965940
1<
#965969
0B
#965990
1;
#967093
1@
#967374
1D
#967856
0C
#967867
1=
#967930
0:
0&
#968049
1A
#969926
09
0%
#970000
0!
1+
#971028
0;
#971421
18
1$
#973973
1>
#974461
0?
#975000
1!
0+
#975990
1;
#975991
0<
#977737
0=
#978036
1:
1&
#980000
0!
1+
#981028
0;
#983973
0>
#984557
1?
#985000
1!
0+
#985940
1<
#985969
1B
#985990
1;
#986851
1E
#987078
0@
#987266
1F
#987867
1=
#987930
0:
0&
#988016
0A
#990000
0!
1+
#990115
19
1%
#991028
0;
#993973
1>
#994461
0?
#995000
1!
0+
#995990
1;
#995991
0<
#997737
0=
#998036
1:
1&
