File/simulation/qsim/cnt24.msim.vcd
$comment
	File created using the following command:
		vcd file cnt24.msim.vcd -direction
$end
$date
	Wed Dec 23 10:11:55 2020
$end
$version
	ModelSim Version 10.1d
$end
$timescale
	1ps
$end
$scope module cnt24_vlg_vec_tst $end
$var reg 1 ! clk_01 $end
$var reg 1 " CR_01 $end
$var wire 1 # CO $end
$var wire 1 $ ge_01 [3] $end
$var wire 1 % ge_01 [2] $end
$var wire 1 & ge_01 [1] $end
$var wire 1 ' ge_01 [0] $end
$var wire 1 ( shi_01 [3] $end
$var wire 1 ) shi_01 [2] $end
$var wire 1 * shi_01 [1] $end
$var wire 1 + shi_01 [0] $end
$var wire 1 , sampler $end
$scope module i1 $end
$var wire 1 - gnd $end
$var wire 1 . vcc $end
$var wire 1 / unknown $end
$var tri1 1 0 devclrn $end
$var tri1 1 1 devpor $end
$var tri1 1 2 devoe $end
$var wire 1 3 CO~output_o $end
$var wire 1 4 shi_01[3]~output_o $end
$var wire 1 5 shi_01[2]~output_o $end
$var wire 1 6 shi_01[1]~output_o $end
$var wire 1 7 shi_01[0]~output_o $end
$var wire 1 8 ge_01[3]~output_o $end
$var wire 1 9 ge_01[2]~output_o $end
$var wire 1 : ge_01[1]~output_o $end
$var wire 1 ; ge_01[0]~output_o $end
$var wire 1 < clk_01~input_o $end
$var wire 1 = inst|7~0_combout $end
$var wire 1 > inst|7~feeder_combout $end
$var wire 1 ? CR_01~input_o $end
$var wire 1 @ inst|20~combout $end
$var wire 1 A inst|6~0_combout $end
$var wire 1 B inst|6~q $end
$var wire 1 C inst|5~0_combout $end
$var wire 1 D inst|5~q $end
$var wire 1 E inst3|4~combout $end
$var wire 1 F inst3|4~clkctrl_outclk $end
$var wire 1 G inst|7~q $end
$var wire 1 H inst|3~0_combout $end
$var wire 1 I inst|3~feeder_combout $end
$var wire 1 J inst|3~q $end
$var wire 1 K inst|34~0_combout $end
$var wire 1 L inst|34~feeder_combout $end
$var wire 1 M inst|34~q $end
$var wire 1 N inst|32~0_combout $end
$var wire 1 O inst|32~q $end
$var wire 1 P inst|31~0_combout $end
$var wire 1 Q inst|31~feeder_combout $end
$var wire 1 R inst|31~q $end
$var wire 1 S inst|29~combout $end
$var wire 1 T inst|33~0_combout $end
$var wire 1 U inst|33~q $end
$upscope $end
$upscope $end
$enddefinitions $end
#0
$dumpvars
0!
0"
x#
x'
x&
x%
x$
x+
x*
x)
x(
x,
0-
1.
x/
10
11
12
x3
x4
x5
x6
x7
x8
x9
x:
x;
0<
x=
x>
0?
x@
xA
0B
1C
0D
xE
xF
0G
xH
xI
0J
xK
xL
0M
1N
0O
xP
xQ
0R
xS
xT
0U
$end
#568
1@
#572
0H
#707
0P
#751
1S
#891
1A
#918
1T
#957
1K
#985
0I
#1120
0Q
#1573
1L
#1762
1=
#2428
0E
#3112
05
0)
#3174
08
0$
#3202
09
0%
#3392
06
0*
#3405
0:
0&
#3436
07
0+
#3442
03
0#
#3449
04
0(
#3466
0;
0'
#3543
1>
#3560
0F
#5000
1!
0,
#5990
1<
#10000
0!
1,
#11028
0<
#13646
1G
#14122
0@
#15000
1!
0,
#15540
0=
#15990
1<
#17129
0>
#17270
1;
1'
#20000
0!
1,
#21028
0<
#23646
0G
#24214
1@
#25000
1!
0,
#25408
1=
#25428
1B
#25990
1<
#26289
0A
#27112
0;
0'
#27189
1>
#28919
1:
1&
#30000
0!
1,
#31028
0<
#33646
1G
#34122
0@
#35000
1!
0,
#35540
0=
#35990
1<
#37129
0>
#37270
1;
1'
#40000
0!
1,
#41028
0<
#43646
0G
#44214
1@
#45000
1!
0,
#45408
1=
#45428
0B
#45990
1<
#46319
1A
#46935
1D
#47112
0;
0'
#47189
1>
#47417
0C
#48833
0:
0&
#50000
0!
1,
#50254
19
1%
#51028
0<
#53646
1G
#54122
0@
#55000
1!
0,
#55540
0=
#55990
1<
#57129
0>
#57270
1;
1'
#60000
0!
1,
#61028
0<
#63646
0G
#64214
1@
#65000
1!
0,
#65408
1=
#65428
1B
#65990
1<
#66289
0A
#66431
1H
#66847
1I
#67112
0;
0'
#67189
1>
#68919
1:
1&
#70000
0!
1,
#71028
0<
#73646
1G
#74122
0@
#75000
1!
0,
#75540
0=
#75990
1<
#77129
0>
#77270
1;
1'
#80000
0!
1,
#81028
0<
#83646
0G
#84214
1@
#85000
1!
0,
#85239
1J
#85408
1=
#85428
0B
#85990
1<
#86319
1A
#86463
0H
#86876
0I
#86935
0D
#87112
0;
0'
#87189
1>
#87397
1C
#88522
18
1$
#88833
0:
0&
#90000
0!
1,
#90137
09
0%
#91028
0<
#93646
1G
#95000
1!
0,
#95540
0=
#95990
1<
#97129
0>
#97270
1;
1'
#100000
0!
1,
#101028
0<
#103646
0G
#105000
1!
0,
#105239
0J
#105408
1=
#105990
1<
#106760
1M
#107112
0;
0'
#107189
1>
#107476
0S
#107642
0K
#108209
0L
#108413
08
0$
#110000
0!
1,
#110371
17
1+
#111028
0<
#113646
1G
#114122
0@
#115000
1!
0,
#115540
0=
#115990
1<
#117129
0>
#117270
1;
1'
#120000
0!
1,
#121028
0<
#123646
0G
#124214
1@
#125000
1!
0,
#125408
1=
#125428
1B
#125990
1<
#126289
0A
#127112
0;
0'
#127189
1>
#128919
1:
1&
#130000
0!
1,
#131028
0<
#133646
1G
#134122
0@
#135000
1!
0,
#135540
0=
#135990
1<
#137129
0>
#137270
1;
1'
#140000
0!
1,
#141028
0<
#143646
0G
#144214
1@
#145000
1!
0,
#145408
1=
#145428
0B
#145990
1<
#146319
1A
#146935
1D
#147112
0;
0'
#147189
1>
#147417
0C
#148833
0:
0&
#150000
0!
1,
#150254
19
1%
#151028
0<
#153646
1G
#154122
0@
#155000
1!
0,
#155540
0=
#155990
1<
#157129
0>
#157270
1;
1'
#160000
0!
1,
#161028
0<
#163646
0G
#164214
1@
#165000
1!
0,
#165408
1=
#165428
1B
#165990
1<
#166289
0A
#166431
1H
#166847
1I
#167112
0;
0'
#167189
1>
#168919
1:
1&
#170000
0!
1,
#171028
0<
#173646
1G
#174122
0@
#175000
1!
0,
#175540
0=
#175990
1<
#177129
0>
#177270
1;
1'
#180000
0!
1,
#181028
0<
#183646
0G
#184214
1@
#185000
1!
0,
#185239
1J
#185408
1=
#185428
0B
#185990
1<
#186319
1A
#186463
0H
#186876
0I
#186935
0D
#187112
0;
0'
#187189
1>
#187397
1C
#188522
18
1$
#188833
0:
0&
#190000
0!
1,
#190137
09
0%
#191028
0<
#193646
1G
#195000
1!
0,
#195540
0=
#195990
1<
#197129
0>
#197270
1;
1'
#200000
0!
1,
#201028
0<
#203646
0G
#205000
1!
0,
#205239
0J
#205408
1=
#205990
1<
#206760
0M
#207112
0;
0'
#207189
1>
#207511
1S
#207717
1K
#208333
1L
#208413
08
0$
#209329
1U
#210000
0!
1,
#210196
07
0+
#210208
0T
#211028
0<
#212865
16
1*
#212938
13
1#
#213646
1G
#214122
0@
#215000
1!
0,
#215540
0=
#215990
1<
#217129
0>
#217270
1;
1'
#220000
0!
1,
#221028
0<
#223646
0G
#224214
1@
#225000
1!
0,
#225408
1=
#225428
1B
#225990
1<
#226289
0A
#227112
0;
0'
#227189
1>
#228919
1:
1&
#230000
0!
1,
#231028
0<
#233646
1G
#234122
0@
#235000
1!
0,
#235540
0=
#235990
1<
#237129
0>
#237270
1;
1'
#240000
0!
1,
#241028
0<
#243646
0G
#244214
1@
#245000
1!
0,
#245408
1=
#245428
0B
#245990
1<
#246319
1A
#246935
1D
#247112
0;
0'
#247189
1>
#247417
0C
#248133
1E
#248833
0:
0&
#249377
1F
#250000
0!
1,
#250254
19
1%
#251028
0<
#251467
0D
#251471
0U
#251929
1C
#252014
0E
#252389
1T
#253146
0F
#254669
09
0%
#254863
06
0*
#254913
03
0#
#255000
1!
0,
#255990
1<
#260000
0!
1,
#261028
0<
#263646
1G
#264122
0@
#265000
1!
0,
#265540
0=
#265990
1<
#267129
0>
#267270
1;
1'
#270000
0!
1,
#271028
0<
#273646
0G
#274214
1@
#275000
1!
0,
#275408
1=
#275428
1B
#275990
1<
#276289
0A
#277112
0;
0'
#277189
1>
#278919
1:
1&
#280000
0!
1,
#281028
0<
#283646
1G
#284122
0@
#285000
1!
0,
#285540
0=
#285990
1<
#287129
0>
#287270
1;
1'
#290000
0!
1,
#291028
0<
#293646
0G
#294214
1@
#295000
1!
0,
#295408
1=
#295428
0B
#295990
1<
#296319
1A
#296935
1D
#297112
0;
0'
#297189
1>
#297417
0C
#298833
0:
0&
#300000
0!
1,
#300254
19
1%
#301028
0<
#303646
1G
#304122
0@
#305000
1!
0,
#305540
0=
#305990
1<
#307129
0>
#307270
1;
1'
#310000
0!
1,
#311028
0<
#313646
0G
#314214
1@
#315000
1!
0,
#315408
1=
#315428
1B
#315990
1<
#316289
0A
#316431
1H
#316847
1I
#317112
0;
0'
#317189
1>
#318919
1:
1&
#320000
0!
1,
#321028
0<
#323646
1G
#324122
0@
#325000
1!
0,
#325540
0=
#325990
1<
#327129
0>
#327270
1;
1'
#330000
0!
1,
#331028
0<
#333646
0G
#334214
1@
#335000
1!
0,
#335239
1J
#335408
1=
#335428
0B
#335990
1<
#336319
1A
#336463
0H
#336876
0I
#336935
0D
#337112
0;
0'
#337189
1>
#337397
1C
#338522
18
1$
#338833
0:
0&
#340000
0!
1,
#340137
09
0%
#341028
0<
#343646
1G
#345000
1!
0,
#345540
0=
#345990
1<
#347129
0>
#347270
1;
1'
#350000
0!
1,
#351028
0<
#353646
0G
#355000
1!
0,
#355239
0J
#355408
1=
#355990
1<
#356760
1M
#357112
0;
0'
#357189
1>
#357476
0S
#357642
0K
#358209
0L
#358413
08
0$
#360000
0!
1,
#360371
17
1+
#361028
0<
#363646
1G
#364122
0@
#365000
1!
0,
#365540
0=
#365990
1<
#367129
0>
#367270
1;
1'
#370000
0!
1,
#371028
0<
#373646
0G
#374214
1@
#375000
1!
0,
#375408
1=
#375428
1B
#375990
1<
#376289
0A
#377112
0;
0'
#377189
1>
#378919
1:
1&
#380000
0!
1,
#381028
0<
#383646
1G
#384122
0@
#385000
1!
0,
#385540
0=
#385990
1<
#387129
0>
#387270
1;
1'
#390000
0!
1,
#391028
0<
#393646
0G
#394214
1@
#395000
1!
0,
#395408
1=
#395428
0B
#395990
1<
#396319
1A
#396935
1D
#397112
0;
0'
#397189
1>
#397417
0C
#398833
0:
0&
#400000
0!
1,
#400254
19
1%
#401028
0<
#403646
1G
#404122
0@
#405000
1!
0,
#405540
0=
#405990
1<
#407129
0>
#407270
1;
1'
#410000
0!
1,
#411028
0<
#413646
0G
#414214
1@
#415000
1!
0,
#415408
1=
#415428
1B
#415990
1<
#416289
0A
#416431
1H
#416847
1I
#417112
0;
0'
#417189
1>
#418919
1:
1&
#420000
0!
1,
#421028
0<
#423646
1G
#424122
0@
#425000
1!
0,
#425540
0=
#425990
1<
#427129
0>
#427270
1;
1'
#430000
0!
1,
#431028
0<
#433646
0G
#434214
1@
#435000
1!
0,
#435239
1J
#435408
1=
#435428
0B
#435990
1<
#436319
1A
#436463
0H
#436876
0I
#436935
0D
#437112
0;
0'
#437189
1>
#437397
1C
#438522
18
1$
#438833
0:
0&
#440000
0!
1,
#440137
09
0%
#441028
0<
#443646
1G
#445000
1!
0,
#445540
0=
#445990
1<
#447129
0>
#447270
1;
1'
#450000
0!
1,
#451028
0<
#453646
0G
#455000
1!
0,
#455239
0J
#455408
1=
#455990
1<
#456760
0M
#457112
0;
0'
#457189
1>
#457511
1S
#457717
1K
#458333
1L
#458413
08
0$
#459329
1U
#460000
0!
1,
#460196
07
0+
#460208
0T
#461028
0<
#462865
16
1*
#462938
13
1#
#463646
1G
#464122
0@
#465000
1!
0,
#465540
0=
#465990
1<
#467129
0>
#467270
1;
1'
#470000
0!
1,
#471028
0<
#473646
0G
#474214
1@
#475000
1!
0,
#475408
1=
#475428
1B
#475990
1<
#476289
0A
#477112
0;
0'
#477189
1>
#478919
1:
1&
#480000
0!
1,
#481028
0<
#483646
1G
#484122
0@
#485000
1!
0,
#485540
0=
#485990
1<
#487129
0>
#487270
1;
1'
#490000
0!
1,
#491028
0<
#493646
0G
#494214
1@
#495000
1!
0,
#495408
1=
#495428
0B
#495990
1<
#496319
1A
#496935
1D
#497112
0;
0'
#497189
1>
#497417
0C
#498133
1E
#498833
0:
0&
#499377
1F
#500000
0!
1,
#500254
19
1%
#501028
0<
#501467
0D
#501471
0U
#501929
1C
#502014
0E
#502389
1T
#503146
0F
#504669
09
0%
#504863
06
0*
#504913
03
0#
#505000
1!
0,
#505990
1<
#510000
0!
1,
#511028
0<
#513646
1G
#514122
0@
#515000
1!
0,
#515540
0=
#515990
1<
#517129
0>
#517270
1;
1'
#520000
0!
1,
#521028
0<
#523646
0G
#524214
1@
#525000
1!
0,
#525408
1=
#525428
1B
#525990
1<
#526289
0A
#527112
0;
0'
#527189
1>
#528919
1:
1&
#530000
0!
1,
#531028
0<
#533646
1G
#534122
0@
#535000
1!
0,
#535540
0=
#535990
1<
#537129
0>
#537270
1;
1'
#540000
0!
1,
#541028
0<
#543646
0G
#544214
1@
#545000
1!
0,
#545408
1=
#545428
0B
#545990
1<
#546319
1A
#546935
1D
#547112
0;
0'
#547189
1>
#547417
0C
#548833
0:
0&
#550000
0!
1,
#550254
19
1%
#551028
0<
#553646
1G
#554122
0@
#555000
1!
0,
#555540
0=
#555990
1<
#557129
0>
#557270
1;
1'
#560000
0!
1,
#561028
0<
#563646
0G
#564214
1@
#565000
1!
0,
#565408
1=
#565428
1B
#565990
1<
#566289
0A
#566431
1H
#566847
1I
#567112
0;
0'
#567189
1>
#568919
1:
1&
#570000
0!
1,
#571028
0<
#573646
1G
#574122
0@
#575000
1!
0,
#575540
0=
#575990
1<
#577129
0>
#577270
1;
1'
#580000
0!
1,
#581028
0<
#583646
0G
#584214
1@
#585000
1!
0,
#585239
1J
#585408
1=
#585428
0B
#585990
1<
#586319
1A
#586463
0H
#586876
0I
#586935
0D
#587112
0;
0'
#587189
1>
#587397
1C
#588522
18
1$
#588833
0:
0&
#590000
0!
1,
#590137
09
0%
#591028
0<
#593646
1G
#595000
1!
0,
#595540
0=
#595990
1<
#597129
0>
#597270
1;
1'
#600000
0!
1,
#601028
0<
#603646
0G
#605000
1!
0,
#605239
0J
#605408
1=
#605990
1<
#606760
1M
#607112
0;
0'
#607189
1>
#607476
0S
#607642
0K
#608209
0L
#608413
08
0$
#610000
0!
1,
#610371
17
1+
#611028
0<
#613646
1G
#614122
0@
#615000
1!
0,
#615540
0=
#615990
1<
#617129
0>
#617270
1;
1'
#620000
0!
1,
#621028
0<
#623646
0G
#624214
1@
#625000
1!
0,
#625408
1=
#625428
1B
#625990
1<
#626289
0A
#627112
0;
0'
#627189
1>
#628919
1:
1&
#630000
0!
1,
#631028
0<
#633646
1G
#634122
0@
#635000
1!
0,
#635540
0=
#635990
1<
#637129
0>
#637270
1;
1'
#640000
0!
1,
#641028
0<
#643646
0G
#644214
1@
#645000
1!
0,
#645408
1=
#645428
0B
#645990
1<
#646319
1A
#646935
1D
#647112
0;
0'
#647189
1>
#647417
0C
#648833
0:
0&
#650000
0!
1,
#650254
19
1%
#651028
0<
#653646
1G
#654122
0@
#655000
1!
0,
#655540
0=
#655990
1<
#657129
0>
#657270
1;
1'
#660000
0!
1,
#661028
0<
#663646
0G
#664214
1@
#665000
1!
0,
#665408
1=
#665428
1B
#665990
1<
#666289
0A
#666431
1H
#666847
1I
#667112
0;
0'
#667189
1>
#668919
1:
1&
#670000
0!
1,
#671028
0<
#673646
1G
#674122
0@
#675000
1!
0,
#675540
0=
#675990
1<
#677129
0>
#677270
1;
1'
#680000
0!
1,
#681028
0<
#683646
0G
#684214
1@
#685000
1!
0,
#685239
1J
#685408
1=
#685428
0B
#685990
1<
#686319
1A
#686463
0H
#686876
0I
#686935
0D
#687112
0;
0'
#687189
1>
#687397
1C
#688522
18
1$
#688833
0:
0&
#690000
0!
1,
#690137
09
0%
#691028
0<
#693646
1G
#695000
1!
0,
#695540
0=
#695990
1<
#697129
0>
#697270
1;
1'
#700000
0!
1,
#701028
0<
#703646
0G
#705000
1!
0,
#705239
0J
#705408
1=
#705990
1<
#706760
0M
#707112
0;
0'
#707189
1>
#707511
1S
#707717
1K
#708333
1L
#708413
08
0$
#709329
1U
#710000
0!
1,
#710196
07
0+
#710208
0T
#711028
0<
#712865
16
1*
#712938
13
1#
#713646
1G
#714122
0@
#715000
1!
0,
#715540
0=
#715990
1<
#717129
0>
#717270
1;
1'
#720000
0!
1,
#721028
0<
#723646
0G
#724214
1@
#725000
1!
0,
#725408
1=
#725428
1B
#725990
1<
#726289
0A
#727112
0;
0'
#727189
1>
#728919
1:
1&
#730000
0!
1,
#731028
0<
#733646
1G
#734122
0@
#735000
1!
0,
#735540
0=
#735990
1<
#737129
0>
#737270
1;
1'
#740000
0!
1,
#741028
0<
#743646
0G
#744214
1@
#745000
1!
0,
#745408
1=
#745428
0B
#745990
1<
#746319
1A
#746935
1D
#747112
0;
0'
#747189
1>
#747417
0C
#748133
1E
#748833
0:
0&
#749377
1F
#750000
0!
1,
#750254
19
1%
#751028
0<
#751467
0D
#751471
0U
#751929
1C
#752014
0E
#752389
1T
#753146
0F
#754669
09
0%
#754863
06
0*
#754913
03
0#
#755000
1!
0,
#755990
1<
#760000
0!
1,
#761028
0<
#763646
1G
#764122
0@
#765000
1!
0,
#765540
0=
#765990
1<
#767129
0>
#767270
1;
1'
#770000
0!
1,
#771028
0<
#773646
0G
#774214
1@
#775000
1!
0,
#775408
1=
#775428
1B
#775990
1<
#776289
0A
#777112
0;
0'
#777189
1>
#778919
1:
1&
#780000
0!
1,
#781028
0<
#783646
1G
#784122
0@
#785000
1!
0,
#785540
0=
#785990
1<
#787129
0>
#787270
1;
1'
#790000
0!
1,
#791028
0<
#793646
0G
#794214
1@
#795000
1!
0,
#795408
1=
#795428
0B
#795990
1<
#796319
1A
#796935
1D
#797112
0;
0'
#797189
1>
#797417
0C
#798833
0:
0&
#800000
0!
1,
#800254
19
1%
#801028
0<
#803646
1G
#804122
0@
#805000
1!
0,
#805540
0=
#805990
1<
#807129
0>
#807270
1;
1'
#810000
0!
1,
#811028
0<
#813646
0G
#814214
1@
#815000
1!
0,
#815408
1=
#815428
1B
#815990
1<
#816289
0A
#816431
1H
#816847
1I
#817112
0;
0'
#817189
1>
#818919
1:
1&
#820000
0!
1,
#821028
0<
#823646
1G
#824122
0@
#825000
1!
0,
#825540
0=
#825990
1<
#827129
0>
#827270
1;
1'
#830000
0!
1,
#831028
0<
#833646
0G
#834214
1@
#835000
1!
0,
#835239
1J
#835408
1=
#835428
0B
#835990
1<
#836319
1A
#836463
0H
#836876
0I
#836935
0D
#837112
0;
0'
#837189
1>
#837397
1C
#838522
18
1$
#838833
0:
0&
#840000
0!
1,
#840137
09
0%
#841028
0<
#843646
1G
#845000
1!
0,
#845540
0=
#845990
1<
#847129
0>
#847270
1;
1'
#850000
0!
1,
#851028
0<
#853646
0G
#855000
1!
0,
#855239
0J
#855408
1=
#855990
1<
#856760
1M
#857112
0;
0'
#857189
1>
#857476
0S
#857642
0K
#858209
0L
#858413
08
0$
#860000
0!
1,
#860371
17
1+
#861028
0<
#863646
1G
#864122
0@
#865000
1!
0,
#865540
0=
#865990
1<
#867129
0>
#867270
1;
1'
#870000
0!
1,
#871028
0<
#873646
0G
#874214
1@
#875000
1!
0,
#875408
1=
#875428
1B
#875990
1<
#876289
0A
#877112
0;
0'
#877189
1>
#878919
1:
1&
#880000
0!
1,
#881028
0<
#883646
1G
#884122
0@
#885000
1!
0,
#885540
0=
#885990
1<
#887129
0>
#887270
1;
1'
#890000
0!
1,
#891028
0<
#893646
0G
#894214
1@
#895000
1!
0,
#895408
1=
#895428
0B
#895990
1<
#896319
1A
#896935
1D
#897112
0;
0'
#897189
1>
#897417
0C
#898833
0:
0&
#900000
0!
1,
#900254
19
1%
#901028
0<
#903646
1G
#904122
0@
#905000
1!
0,
#905540
0=
#905990
1<
#907129
0>
#907270
1;
1'
#910000
0!
1,
#911028
0<
#913646
0G
#914214
1@
#915000
1!
0,
#915408
1=
#915428
1B
#915990
1<
#916289
0A
#916431
1H
#916847
1I
#917112
0;
0'
#917189
1>
#918919
1:
1&
#920000
0!
1,
#921028
0<
#923646
1G
#924122
0@
#925000
1!
0,
#925540
0=
#925990
1<
#927129
0>
#927270
1;
1'
#930000
0!
1,
#931028
0<
#933646
0G
#934214
1@
#935000
1!
0,
#935239
1J
#935408
1=
#935428
0B
#935990
1<
#936319
1A
#936463
0H
#936876
0I
#936935
0D
#937112
0;
0'
#937189
1>
#937397
1C
#938522
18
1$
#938833
0:
0&
#940000
0!
1,
#940137
09
0%
#941028
0<
#943646
1G
#945000
1!
0,
#945540
0=
#945990
1<
#947129
0>
#947270
1;
1'
#950000
0!
1,
#951028
0<
#953646
0G
#955000
1!
0,
#955239
0J
#955408
1=
#955990
1<
#956760
0M
#957112
0;
0'
#957189
1>
#957511
1S
#957717
1K
#958333
1L
#958413
08
0$
#959329
1U
#960000
0!
1,
#960196
07
0+
#960208
0T
#961028
0<
#962865
16
1*
#962938
13
1#
#963646
1G
#964122
0@
#965000
1!
0,
#965540
0=
#965990
1<
#967129
0>
#967270
1;
1'
#970000
0!
1,
#971028
0<
#973646
0G
#974214
1@
#975000
1!
0,
#975408
1=
#975428
1B
#975990
1<
#976289
0A
#977112
0;
0'
#977189
1>
#978919
1:
1&
#980000
0!
1,
#981028
0<
#983646
1G
#984122
0@
#985000
1!
0,
#985540
0=
#985990
1<
#987129
0>
#987270
1;
1'
#990000
0!
1,
#991028
0<
#993646
0G
#994214
1@
#995000
1!
0,
#995408
1=
#995428
0B
#995990
1<
#996319
1A
#996935
1D
#997112
0;
0'
#997189
1>
#997417
0C
#998133
1E
#998833
0:
0&
