File/simulation/qsim/cnt6.msim.vcd
$comment
	File created using the following command:
		vcd file cnt6.msim.vcd -direction
$end
$date
	Mon Dec 14 08:24:56 2020
$end
$version
	ModelSim Version 10.1d
$end
$timescale
	1ps
$end
$scope module cnt6_vlg_vec_tst $end
$var reg 1 ! clk_01 $end
$var wire 1 " q [3] $end
$var wire 1 # q [2] $end
$var wire 1 $ q [1] $end
$var wire 1 % q [0] $end
$var wire 1 & sampler $end
$scope module i1 $end
$var wire 1 ' gnd $end
$var wire 1 ( vcc $end
$var wire 1 ) unknown $end
$var tri1 1 * devclrn $end
$var tri1 1 + devpor $end
$var tri1 1 , devoe $end
$var wire 1 - q[3]~output_o $end
$var wire 1 . q[2]~output_o $end
$var wire 1 / q[1]~output_o $end
$var wire 1 0 q[0]~output_o $end
$var wire 1 1 clk_01~input_o $end
$var wire 1 2 inst|7~0_combout $end
$var wire 1 3 inst|7~feeder_combout $end
$var wire 1 4 inst|20~combout $end
$var wire 1 5 inst|6~0_combout $end
$var wire 1 6 inst|6~q $end
$var wire 1 7 inst|5~0_combout $end
$var wire 1 8 inst|5~q $end
$var wire 1 9 inst4|4~combout $end
$var wire 1 : inst4|4~clkctrl_outclk $end
$var wire 1 ; inst|7~q $end
$var wire 1 < inst|3~0_combout $end
$var wire 1 = inst|3~q $end
$upscope $end
$upscope $end
$enddefinitions $end
#0
$dumpvars
0!
0%
0$
0#
0"
x&
0'
1(
x)
1*
1+
1,
0-
0.
0/
00
01
12
13
14
15
06
17
08
09
0:
0;
0<
0=
$end
#10000
1!
11
0&
#20000
0!
01
1&
1;
04
02
10
1%
03
#30000
1!
11
0&
#40000
0!
01
1&
0;
14
12
00
0%
13
16
05
1/
1$
#50000
1!
11
0&
#60000
0!
01
1&
1;
04
02
10
1%
03
#70000
1!
11
0&
#80000
0!
01
1&
0;
14
12
00
0%
13
06
15
0/
0$
18
07
1.
1#
#90000
1!
11
0&
#100000
0!
01
1&
1;
04
02
10
1%
03
#110000
1!
11
0&
#120000
0!
01
1&
0;
14
12
00
0%
13
16
1<
19
05
1/
1:
1$
06
08
0<
09
15
17
0/
0.
0:
0$
0#
#130000
1!
11
0&
#140000
0!
01
1&
1;
04
02
10
1%
03
#150000
1!
11
0&
#160000
0!
01
1&
0;
14
12
00
0%
13
16
05
1/
1$
#170000
1!
11
0&
#180000
0!
01
1&
1;
04
02
10
1%
03
#190000
1!
11
0&
#200000
0!
01
1&
0;
14
12
00
0%
13
06
15
0/
0$
18
07
1.
1#
#210000
1!
11
0&
#220000
0!
01
1&
1;
04
02
10
1%
03
#230000
1!
11
0&
#240000
0!
01
1&
0;
14
12
00
0%
13
16
1<
19
05
1/
1:
1$
06
08
0<
09
15
17
0/
0.
0:
0$
0#
#250000
1!
11
0&
#260000
0!
01
1&
1;
04
02
10
1%
03
#270000
1!
11
0&
#280000
0!
01
1&
0;
14
12
00
0%
13
16
05
1/
1$
#290000
1!
11
0&
#300000
0!
01
1&
1;
04
02
10
1%
03
#310000
1!
11
0&
#320000
0!
01
1&
0;
14
12
00
0%
13
06
15
0/
0$
18
07
1.
1#
#330000
1!
11
0&
#340000
0!
01
1&
1;
04
02
10
1%
03
#350000
1!
11
0&
#360000
0!
01
1&
0;
14
12
00
0%
13
16
1<
19
05
1/
1:
1$
06
08
0<
09
15
17
0/
0.
0:
0$
0#
#370000
1!
11
0&
#380000
0!
01
1&
1;
04
02
10
1%
03
#390000
1!
11
0&
#400000
0!
01
1&
0;
14
12
00
0%
13
16
05
1/
1$
#410000
1!
11
0&
#420000
0!
01
1&
1;
04
02
10
1%
03
#430000
1!
11
0&
#440000
0!
01
1&
0;
14
12
00
0%
13
06
15
0/
0$
18
07
1.
1#
#450000
1!
11
0&
#460000
0!
01
1&
1;
04
02
10
1%
03
#470000
1!
11
0&
#480000
0!
01
1&
0;
14
12
00
0%
13
16
1<
19
05
1/
1:
1$
06
08
0<
09
15
17
0/
0.
0:
0$
0#
#490000
1!
11
0&
#500000
0!
01
1&
1;
04
02
10
1%
03
#510000
1!
11
0&
#520000
0!
01
1&
0;
14
12
00
0%
13
16
05
1/
1$
#530000
1!
11
0&
#540000
0!
01
1&
1;
04
02
10
1%
03
#550000
1!
11
0&
#560000
0!
01
1&
0;
14
12
00
0%
13
06
15
0/
0$
18
07
1.
1#
#570000
1!
11
0&
#580000
0!
01
1&
1;
04
02
10
1%
03
#590000
1!
11
0&
#600000
0!
01
1&
0;
14
12
00
0%
13
16
1<
19
05
1/
1:
1$
06
08
0<
09
15
17
0/
0.
0:
0$
0#
#610000
1!
11
0&
#620000
0!
01
1&
1;
04
02
10
1%
03
#630000
1!
11
0&
#640000
0!
01
1&
0;
14
12
00
0%
13
16
05
1/
1$
#650000
1!
11
0&
#660000
0!
01
1&
1;
04
02
10
1%
03
#670000
1!
11
0&
#680000
0!
01
1&
0;
14
12
00
0%
13
06
15
0/
0$
18
07
1.
1#
#690000
1!
11
0&
#700000
0!
01
1&
1;
04
02
10
1%
03
#710000
1!
11
0&
#720000
0!
01
1&
0;
14
12
00
0%
13
16
1<
19
05
1/
1:
1$
06
08
0<
09
15
17
0/
0.
0:
0$
0#
#730000
1!
11
0&
#740000
0!
01
1&
1;
04
02
10
1%
03
#750000
1!
11
0&
#760000
0!
01
1&
0;
14
12
00
0%
13
16
05
1/
1$
#770000
1!
11
0&
#780000
0!
01
1&
1;
04
02
10
1%
03
#790000
1!
11
0&
#800000
0!
01
1&
0;
14
12
00
0%
13
06
15
0/
0$
18
07
1.
1#
#810000
1!
11
0&
#820000
0!
01
1&
1;
04
02
10
1%
03
#830000
1!
11
0&
#840000
0!
01
1&
0;
14
12
00
0%
13
16
1<
19
05
1/
1:
1$
06
08
0<
09
15
17
0/
0.
0:
0$
0#
#850000
1!
11
0&
#860000
0!
01
1&
1;
04
02
10
1%
03
#870000
1!
11
0&
#880000
0!
01
1&
0;
14
12
00
0%
13
16
05
1/
1$
#890000
1!
11
0&
#900000
0!
01
1&
1;
04
02
10
1%
03
#910000
1!
11
0&
#920000
0!
01
1&
0;
14
12
00
0%
13
06
15
0/
0$
18
07
1.
1#
#930000
1!
11
0&
#940000
0!
01
1&
1;
04
02
10
1%
03
#950000
1!
11
0&
#960000
0!
01
1&
0;
14
12
00
0%
13
16
1<
19
05
1/
1:
1$
06
08
0<
09
15
17
0/
0.
0:
0$
0#
#970000
1!
11
0&
#980000
0!
01
1&
1;
04
02
10
1%
03
#990000
1!
11
0&
