File/simulation/qsim/cnt60.msim.vcd
$comment
	File created using the following command:
		vcd file cnt60.msim.vcd -direction
$end
$date
	Wed Dec 23 13:36:53 2020
$end
$version
	ModelSim Version 10.1d
$end
$timescale
	1ps
$end
$scope module cnt60_vlg_vec_tst $end
$var reg 1 ! clk_01 $end
$var reg 1 " CR_1 $end
$var wire 1 # CO_01 $end
$var wire 1 $ ge_01 [3] $end
$var wire 1 % ge_01 [2] $end
$var wire 1 & ge_01 [1] $end
$var wire 1 ' ge_01 [0] $end
$var wire 1 ( shi_01 [3] $end
$var wire 1 ) shi_01 [2] $end
$var wire 1 * shi_01 [1] $end
$var wire 1 + shi_01 [0] $end
$var wire 1 , sampler $end
$scope module i1 $end
$var wire 1 - gnd $end
$var wire 1 . vcc $end
$var wire 1 / unknown $end
$var tri1 1 0 devclrn $end
$var tri1 1 1 devpor $end
$var tri1 1 2 devoe $end
$var wire 1 3 CO_01~output_o $end
$var wire 1 4 shi_01[3]~output_o $end
$var wire 1 5 shi_01[2]~output_o $end
$var wire 1 6 shi_01[1]~output_o $end
$var wire 1 7 shi_01[0]~output_o $end
$var wire 1 8 ge_01[3]~output_o $end
$var wire 1 9 ge_01[2]~output_o $end
$var wire 1 : ge_01[1]~output_o $end
$var wire 1 ; ge_01[0]~output_o $end
$var wire 1 < clk_01~input_o $end
$var wire 1 = inst1|7~0_combout $end
$var wire 1 > inst1|7~feeder_combout $end
$var wire 1 ? CR_1~input_o $end
$var wire 1 @ CR_1~inputclkctrl_outclk $end
$var wire 1 A inst1|7~q $end
$var wire 1 B inst1|20~combout $end
$var wire 1 C inst1|6~0_combout $end
$var wire 1 D inst1|6~q $end
$var wire 1 E inst1|5~0_combout $end
$var wire 1 F inst1|5~q $end
$var wire 1 G inst1|3~0_combout $end
$var wire 1 H inst1|3~feeder_combout $end
$var wire 1 I inst1|3~q $end
$var wire 1 J inst1|34~0_combout $end
$var wire 1 K inst1|31~0_combout $end
$var wire 1 L inst1|31~feeder_combout $end
$var wire 1 M inst1|31~q $end
$var wire 1 N inst1|29~combout $end
$var wire 1 O inst1|33~0_combout $end
$var wire 1 P inst1|33~feeder_combout $end
$var wire 1 Q inst1|33~q $end
$var wire 1 R inst1|32~0_combout $end
$var wire 1 S inst1|32~q $end
$var wire 1 T inst3|4~combout $end
$var wire 1 U inst3|4~clkctrl_outclk $end
$var wire 1 V inst1|34~q $end
$var wire 1 W inst2~combout $end
$upscope $end
$upscope $end
$enddefinitions $end
#0
$dumpvars
0!
0"
x#
x'
x&
x%
x$
x+
x*
x)
x(
x,
0-
1.
x/
10
11
12
x3
x4
x5
x6
x7
x8
x9
x:
x;
0<
x=
x>
0?
x@
0A
xB
xC
0D
1E
0F
xG
xH
0I
xJ
xK
xL
0M
xN
xO
xP
0Q
1R
0S
xT
xU
0V
0W
$end
#189
0@
#545
0G
#580
1N
#728
0K
#737
1C
#931
1B
#957
0H
#1030
1O
#1140
0L
#1457
1J
#1589
1=
#1995
1P
#2092
0T
#2968
0U
#3121
1>
#3403
0:
0&
#3410
0;
0'
#3468
04
0(
#3473
06
0*
#3535
03
0#
#3774
07
0+
#3777
05
0)
#4140
08
0$
#4892
09
0%
#5000
1!
0,
#5990
1<
#10000
0!
1,
#11028
0<
#13048
1A
#13904
0B
#14733
0=
#15000
1!
0,
#15990
1<
#16137
0>
#16526
1;
1'
#20000
0!
1,
#21028
0<
#23048
0A
#23979
1B
#24637
1=
#25000
1!
0,
#25196
1D
#25892
0C
#25990
1<
#26169
1>
#26458
0;
0'
#28669
1:
1&
#30000
0!
1,
#31028
0<
#33048
1A
#33904
0B
#34733
0=
#35000
1!
0,
#35990
1<
#36137
0>
#36526
1;
1'
#40000
0!
1,
#41028
0<
#43048
0A
#43979
1B
#44637
1=
#45000
1!
0,
#45196
0D
#45933
1C
#45990
1<
#46169
1>
#46458
0;
0'
#46732
1F
#47214
0E
#48599
0:
0&
#50000
0!
1,
#51028
0<
#51595
19
1%
#53048
1A
#53904
0B
#54733
0=
#55000
1!
0,
#55990
1<
#56137
0>
#56526
1;
1'
#60000
0!
1,
#61028
0<
#63048
0A
#63979
1B
#64637
1=
#65000
1!
0,
#65196
1D
#65892
0C
#65990
1<
#66109
1G
#66169
1>
#66458
0;
0'
#66525
1H
#68669
1:
1&
#70000
0!
1,
#71028
0<
#73048
1A
#73904
0B
#74733
0=
#75000
1!
0,
#75990
1<
#76137
0>
#76526
1;
1'
#80000
0!
1,
#81028
0<
#83048
0A
#83979
1B
#84577
1I
#84637
1=
#85000
1!
0,
#85196
0D
#85370
0G
#85782
0H
#85933
1C
#85990
1<
#86169
1>
#86458
0;
0'
#86732
0F
#87194
1E
#88599
0:
0&
#88920
18
1$
#90000
0!
1,
#91028
0<
#91624
09
0%
#93048
1A
#94733
0=
#95000
1!
0,
#95990
1<
#96137
0>
#96526
1;
1'
#100000
0!
1,
#101028
0<
#103048
0A
#104577
0I
#104637
1=
#105000
1!
0,
#105990
1<
#106169
1>
#106458
0;
0'
#107649
1V
#108134
0N
#108717
08
0$
#109138
0J
#110000
0!
1,
#111028
0<
#111635
17
1+
#113048
1A
#113904
0B
#114733
0=
#115000
1!
0,
#115990
1<
#116137
0>
#116526
1;
1'
#120000
0!
1,
#121028
0<
#123048
0A
#123979
1B
#124637
1=
#125000
1!
0,
#125196
1D
#125892
0C
#125990
1<
#126169
1>
#126458
0;
0'
#128669
1:
1&
#130000
0!
1,
#131028
0<
#133048
1A
#133904
0B
#134733
0=
#135000
1!
0,
#135990
1<
#136137
0>
#136526
1;
1'
#140000
0!
1,
#141028
0<
#143048
0A
#143979
1B
#144637
1=
#145000
1!
0,
#145196
0D
#145933
1C
#145990
1<
#146169
1>
#146458
0;
0'
#146732
1F
#147214
0E
#148599
0:
0&
#150000
0!
1,
#151028
0<
#151595
19
1%
#153048
1A
#153904
0B
#154733
0=
#155000
1!
0,
#155990
1<
#156137
0>
#156526
1;
1'
#160000
0!
1,
#161028
0<
#163048
0A
#163979
1B
#164637
1=
#165000
1!
0,
#165196
1D
#165892
0C
#165990
1<
#166109
1G
#166169
1>
#166458
0;
0'
#166525
1H
#168669
1:
1&
#170000
0!
1,
#171028
0<
#173048
1A
#173904
0B
#174733
0=
#175000
1!
0,
#175990
1<
#176137
0>
#176526
1;
1'
#180000
0!
1,
#181028
0<
#183048
0A
#183979
1B
#184577
1I
#184637
1=
#185000
1!
0,
#185196
0D
#185370
0G
#185782
0H
#185933
1C
#185990
1<
#186169
1>
#186458
0;
0'
#186732
0F
#187194
1E
#188599
0:
0&
#188920
18
1$
#190000
0!
1,
#191028
0<
#191624
09
0%
#193048
1A
#194733
0=
#195000
1!
0,
#195990
1<
#196137
0>
#196526
1;
1'
#200000
0!
1,
#201028
0<
#203048
0A
#204577
0I
#204637
1=
#205000
1!
0,
#205990
1<
#206169
1>
#206458
0;
0'
#207649
0V
#208229
1N
#208717
08
0$
#209106
1J
#209653
1Q
#210000
0!
1,
#210695
0O
#211028
0<
#211423
07
0+
#211638
0P
#213048
1A
#213292
16
1*
#213904
0B
#214733
0=
#215000
1!
0,
#215990
1<
#216137
0>
#216526
1;
1'
#220000
0!
1,
#221028
0<
#223048
0A
#223979
1B
#224637
1=
#225000
1!
0,
#225196
1D
#225892
0C
#225990
1<
#226169
1>
#226458
0;
0'
#228669
1:
1&
#230000
0!
1,
#231028
0<
#233048
1A
#233904
0B
#234733
0=
#235000
1!
0,
#235990
1<
#236137
0>
#236526
1;
1'
#240000
0!
1,
#241028
0<
#243048
0A
#243979
1B
#244637
1=
#245000
1!
0,
#245196
0D
#245933
1C
#245990
1<
#246169
1>
#246458
0;
0'
#246732
1F
#247214
0E
#248599
0:
0&
#250000
0!
1,
#251028
0<
#251595
19
1%
#253048
1A
#253904
0B
#254733
0=
#255000
1!
0,
#255990
1<
#256137
0>
#256526
1;
1'
#260000
0!
1,
#261028
0<
#263048
0A
#263979
1B
#264637
1=
#265000
1!
0,
#265196
1D
#265892
0C
#265990
1<
#266109
1G
#266169
1>
#266458
0;
0'
#266525
1H
#268669
1:
1&
#270000
0!
1,
#271028
0<
#273048
1A
#273904
0B
#274733
0=
#275000
1!
0,
#275990
1<
#276137
0>
#276526
1;
1'
#280000
0!
1,
#281028
0<
#283048
0A
#283979
1B
#284577
1I
#284637
1=
#285000
1!
0,
#285196
0D
#285370
0G
#285782
0H
#285933
1C
#285990
1<
#286169
1>
#286458
0;
0'
#286732
0F
#287194
1E
#288599
0:
0&
#288920
18
1$
#290000
0!
1,
#291028
0<
#291624
09
0%
#293048
1A
#294733
0=
#295000
1!
0,
#295990
1<
#296137
0>
#296526
1;
1'
#300000
0!
1,
#301028
0<
#303048
0A
#304577
0I
#304637
1=
#305000
1!
0,
#305990
1<
#306169
1>
#306458
0;
0'
#307649
1V
#308134
0N
#308717
08
0$
#309138
0J
#310000
0!
1,
#311028
0<
#311635
17
1+
#313048
1A
#313904
0B
#314733
0=
#315000
1!
0,
#315990
1<
#316137
0>
#316526
1;
1'
#320000
0!
1,
#321028
0<
#323048
0A
#323979
1B
#324637
1=
#325000
1!
0,
#325196
1D
#325892
0C
#325990
1<
#326169
1>
#326458
0;
0'
#328669
1:
1&
#330000
0!
1,
#331028
0<
#333048
1A
#333904
0B
#334733
0=
#335000
1!
0,
#335990
1<
#336137
0>
#336526
1;
1'
#340000
0!
1,
#341028
0<
#343048
0A
#343979
1B
#344637
1=
#345000
1!
0,
#345196
0D
#345933
1C
#345990
1<
#346169
1>
#346458
0;
0'
#346732
1F
#347214
0E
#348599
0:
0&
#350000
0!
1,
#351028
0<
#351595
19
1%
#353048
1A
#353904
0B
#354733
0=
#355000
1!
0,
#355990
1<
#356137
0>
#356526
1;
1'
#360000
0!
1,
#361028
0<
#363048
0A
#363979
1B
#364637
1=
#365000
1!
0,
#365196
1D
#365892
0C
#365990
1<
#366109
1G
#366169
1>
#366458
0;
0'
#366525
1H
#368669
1:
1&
#370000
0!
1,
#371028
0<
#373048
1A
#373904
0B
#374733
0=
#375000
1!
0,
#375990
1<
#376137
0>
#376526
1;
1'
#380000
0!
1,
#381028
0<
#383048
0A
#383979
1B
#384577
1I
#384637
1=
#385000
1!
0,
#385196
0D
#385370
0G
#385782
0H
#385933
1C
#385990
1<
#386169
1>
#386458
0;
0'
#386732
0F
#387194
1E
#388599
0:
0&
#388920
18
1$
#390000
0!
1,
#391028
0<
#391624
09
0%
#393048
1A
#394733
0=
#395000
1!
0,
#395990
1<
#396137
0>
#396526
1;
1'
#400000
0!
1,
#401028
0<
#403048
0A
#404577
0I
#404637
1=
#405000
1!
0,
#405990
1<
#406169
1>
#406458
0;
0'
#407649
0V
#408229
1N
#408717
08
0$
#409106
1J
#409653
0Q
#410000
0!
1,
#410683
1O
#411028
0<
#411057
1S
#411423
07
0+
#411539
0R
#411648
1P
#413048
1A
#413126
06
0*
#413904
0B
#414733
0=
#415000
1!
0,
#415017
15
1)
#415990
1<
#416137
0>
#416526
1;
1'
#420000
0!
1,
#421028
0<
#423048
0A
#423979
1B
#424637
1=
#425000
1!
0,
#425196
1D
#425892
0C
#425990
1<
#426169
1>
#426458
0;
0'
#428669
1:
1&
#430000
0!
1,
#431028
0<
#433048
1A
#433904
0B
#434733
0=
#435000
1!
0,
#435990
1<
#436137
0>
#436526
1;
1'
#440000
0!
1,
#441028
0<
#443048
0A
#443979
1B
#444637
1=
#445000
1!
0,
#445196
0D
#445933
1C
#445990
1<
#446169
1>
#446458
0;
0'
#446732
1F
#447214
0E
#448599
0:
0&
#450000
0!
1,
#451028
0<
#451595
19
1%
#453048
1A
#453904
0B
#454733
0=
#455000
1!
0,
#455990
1<
#456137
0>
#456526
1;
1'
#460000
0!
1,
#461028
0<
#463048
0A
#463979
1B
#464637
1=
#465000
1!
0,
#465196
1D
#465892
0C
#465990
1<
#466109
1G
#466169
1>
#466458
0;
0'
#466525
1H
#468669
1:
1&
#470000
0!
1,
#471028
0<
#473048
1A
#473904
0B
#474733
0=
#475000
1!
0,
#475990
1<
#476137
0>
#476526
1;
1'
#480000
0!
1,
#481028
0<
#483048
0A
#483979
1B
#484577
1I
#484637
1=
#485000
1!
0,
#485196
0D
#485370
0G
#485782
0H
#485933
1C
#485990
1<
#486169
1>
#486458
0;
0'
#486732
0F
#487194
1E
#488599
0:
0&
#488920
18
1$
#490000
0!
1,
#491028
0<
#491624
09
0%
#493048
1A
#494733
0=
#495000
1!
0,
#495990
1<
#496137
0>
#496526
1;
1'
#500000
1"
0!
1,
#500990
1?
#501028
0<
#501190
1@
#502964
1T
#503048
0A
#503296
0I
#503901
1U
#504637
1=
#505000
1!
0,
#505990
1<
#505995
0S
#506169
1>
#506457
1R
#506458
0;
0'
#507436
08
0$
#509772
05
0)
#510000
0!
1,
#511028
0<
#515000
1!
0,
#515990
1<
#520000
0!
1,
#521028
0<
#525000
1!
0,
#525990
1<
#530000
0!
1,
#531028
0<
#535000
1!
0,
#535990
1<
#540000
0!
1,
#541028
0<
#545000
1!
0,
#545990
1<
#550000
0!
1,
#551028
0<
#555000
1!
0,
#555990
1<
#560000
0!
1,
#561028
0<
#565000
1!
0,
#565990
1<
#570000
0!
1,
#571028
0<
#575000
1!
0,
#575990
1<
#580000
0!
1,
#581028
0<
#585000
1!
0,
#585990
1<
#590000
0!
1,
#591028
0<
#595000
1!
0,
#595990
1<
#600000
0!
1,
#601028
0<
#605000
1!
0,
#605990
1<
#610000
0!
1,
#611028
0<
#615000
1!
0,
#615990
1<
#620000
0!
1,
#621028
0<
#625000
1!
0,
#625990
1<
#630000
0!
1,
#631028
0<
#635000
1!
0,
#635990
1<
#640000
0!
1,
#641028
0<
#645000
1!
0,
#645990
1<
#650000
0!
1,
#651028
0<
#655000
1!
0,
#655990
1<
#660000
0!
1,
#661028
0<
#665000
1!
0,
#665990
1<
#670000
0!
1,
#671028
0<
#675000
1!
0,
#675990
1<
#680000
0!
1,
#681028
0<
#685000
1!
0,
#685990
1<
#690000
0!
1,
#691028
0<
#695000
1!
0,
#695990
1<
#700000
0!
1,
#701028
0<
#705000
1!
0,
#705990
1<
#710000
0!
1,
#711028
0<
#715000
1!
0,
#715990
1<
#720000
0!
1,
#721028
0<
#725000
1!
0,
#725990
1<
#730000
0!
1,
#731028
0<
#735000
1!
0,
#735990
1<
#740000
0!
1,
#741028
0<
#745000
1!
0,
#745990
1<
#750000
0!
1,
#751028
0<
#755000
1!
0,
#755990
1<
#760000
0!
1,
#761028
0<
#765000
1!
0,
#765990
1<
#770000
0!
1,
#771028
0<
#775000
1!
0,
#775990
1<
#780000
0!
1,
#781028
0<
#785000
1!
0,
#785990
1<
#790000
0!
1,
#791028
0<
#795000
1!
0,
#795990
1<
#800000
0!
1,
#801028
0<
#805000
1!
0,
#805990
1<
#810000
0!
1,
#811028
0<
#815000
1!
0,
#815990
1<
#820000
0!
1,
#821028
0<
#825000
1!
0,
#825990
1<
#830000
0!
1,
#831028
0<
#835000
1!
0,
#835990
1<
#840000
0!
1,
#841028
0<
#845000
1!
0,
#845990
1<
#850000
0!
1,
#851028
0<
#855000
1!
0,
#855990
1<
#860000
0!
1,
#861028
0<
#865000
1!
0,
#865990
1<
#870000
0!
1,
#871028
0<
#875000
1!
0,
#875990
1<
#880000
0!
1,
#881028
0<
#885000
1!
0,
#885990
1<
#890000
0!
1,
#891028
0<
#895000
1!
0,
#895990
1<
#900000
0!
1,
#901028
0<
#905000
1!
0,
#905990
1<
#910000
0!
1,
#911028
0<
#915000
1!
0,
#915990
1<
#920000
0!
1,
#921028
0<
#925000
1!
0,
#925990
1<
#930000
0!
1,
#931028
0<
#935000
1!
0,
#935990
1<
#940000
0!
1,
#941028
0<
#945000
1!
0,
#945990
1<
#950000
0!
1,
#951028
0<
#955000
1!
0,
#955990
1<
#960000
0!
1,
#961028
0<
#965000
1!
0,
#965990
1<
#970000
0!
1,
#971028
0<
#975000
1!
0,
#975990
1<
#980000
0!
1,
#981028
0<
#985000
1!
0,
#985990
1<
#990000
0!
1,
#991028
0<
#995000
1!
0,
