File/simulation/qsim/cnt8.msim.vcd
$comment
	File created using the following command:
		vcd file cnt8.msim.vcd -direction
$end
$date
	Wed Dec 23 10:49:46 2020
$end
$version
	ModelSim Version 10.1d
$end
$timescale
	1ps
$end
$scope module cnt8_vlg_vec_tst $end
$var reg 1 ! clk_01 $end
$var wire 1 " add_01 [2] $end
$var wire 1 # add_01 [1] $end
$var wire 1 $ add_01 [0] $end
$var wire 1 % sampler $end
$scope module i1 $end
$var wire 1 & gnd $end
$var wire 1 ' vcc $end
$var wire 1 ( unknown $end
$var tri1 1 ) devclrn $end
$var tri1 1 * devpor $end
$var tri1 1 + devoe $end
$var wire 1 , add_01[2]~output_o $end
$var wire 1 - add_01[1]~output_o $end
$var wire 1 . add_01[0]~output_o $end
$var wire 1 / clk_01~input_o $end
$var wire 1 0 inst|7~0_combout $end
$var wire 1 1 inst|7~q $end
$var wire 1 2 inst|3~0_combout $end
$var wire 1 3 inst|3~q $end
$var wire 1 4 inst|20~combout $end
$var wire 1 5 inst|6~0_combout $end
$var wire 1 6 inst|6~q $end
$var wire 1 7 inst|5~0_combout $end
$var wire 1 8 inst|5~q $end
$upscope $end
$upscope $end
$enddefinitions $end
#0
$dumpvars
0!
x$
x#
x"
x%
0&
1'
x(
1)
1*
1+
x,
x-
x.
0/
x0
01
x2
03
x4
x5
06
17
08
$end
#548
02
#730
14
#740
15
#1640
10
#3116
0.
0$
#3118
0-
0#
#3387
0,
0"
#5000
1!
0%
#5939
1/
#10000
0!
1%
#10984
0/
#12854
11
#13528
04
#14575
00
#15000
1!
0%
#15939
1/
#16080
1.
1$
#20000
0!
1%
#20984
0/
#22854
01
#23584
14
#24494
10
#24801
16
#25000
1!
0%
#25498
05
#25939
1/
#25970
0.
0$
#28042
1-
1#
#30000
0!
1%
#30984
0/
#32854
11
#33528
04
#34575
00
#35000
1!
0%
#35939
1/
#36080
1.
1$
#40000
0!
1%
#40984
0/
#42854
01
#43584
14
#44494
10
#44801
06
#45000
1!
0%
#45541
15
#45939
1/
#45970
0.
0$
#46388
18
#46870
07
#47919
0-
0#
#49917
1,
1"
#50000
0!
1%
#50984
0/
#52854
11
#53528
04
#54575
00
#55000
1!
0%
#55939
1/
#56080
1.
1$
#60000
0!
1%
#60984
0/
#62854
01
#63584
14
#64494
10
#64801
16
#65000
1!
0%
#65498
05
#65939
1/
#65970
0.
0$
#66462
12
#68042
1-
1#
#70000
0!
1%
#70984
0/
#72854
11
#73528
04
#74575
00
#75000
1!
0%
#75939
1/
#76080
1.
1$
#80000
0!
1%
#80984
0/
#82854
01
#83584
14
#84385
13
#84494
10
#84801
06
#85000
1!
0%
#85541
15
#85762
08
03
#85939
1/
#85970
0.
0$
#86224
17
#86390
02
#87919
0-
0#
#89149
0,
0"
#90000
0!
1%
#90984
0/
#92854
11
#93528
04
#94575
00
#95000
1!
0%
#95939
1/
#96080
1.
1$
#100000
0!
1%
#100984
0/
#102854
01
#103584
14
#104494
10
#104801
16
#105000
1!
0%
#105498
05
#105939
1/
#105970
0.
0$
#108042
1-
1#
#110000
0!
1%
#110984
0/
#112854
11
#113528
04
#114575
00
#115000
1!
0%
#115939
1/
#116080
1.
1$
#120000
0!
1%
#120984
0/
#122854
01
#123584
14
#124494
10
#124801
06
#125000
1!
0%
#125541
15
#125939
1/
#125970
0.
0$
#126388
18
#126870
07
#127919
0-
0#
#129917
1,
1"
#130000
0!
1%
#130984
0/
#132854
11
#133528
04
#134575
00
#135000
1!
0%
#135939
1/
#136080
1.
1$
#140000
0!
1%
#140984
0/
#142854
01
#143584
14
#144494
10
#144801
16
#145000
1!
0%
#145498
05
#145939
1/
#145970
0.
0$
#146462
12
#148042
1-
1#
#150000
0!
1%
#150984
0/
#152854
11
#153528
04
#154575
00
#155000
1!
0%
#155939
1/
#156080
1.
1$
#160000
0!
1%
#160984
0/
#162854
01
#163584
14
#164385
13
#164494
10
#164801
06
#165000
1!
0%
#165541
15
#165762
08
03
#165939
1/
#165970
0.
0$
#166224
17
#166390
02
#167919
0-
0#
#169149
0,
0"
#170000
0!
1%
#170984
0/
#172854
11
#173528
04
#174575
00
#175000
1!
0%
#175939
1/
#176080
1.
1$
#180000
0!
1%
#180984
0/
#182854
01
#183584
14
#184494
10
#184801
16
#185000
1!
0%
#185498
05
#185939
1/
#185970
0.
0$
#188042
1-
1#
#190000
0!
1%
#190984
0/
#192854
11
#193528
04
#194575
00
#195000
1!
0%
#195939
1/
#196080
1.
1$
#200000
0!
1%
#200984
0/
#202854
01
#203584
14
#204494
10
#204801
06
#205000
1!
0%
#205541
15
#205939
1/
#205970
0.
0$
#206388
18
#206870
07
#207919
0-
0#
#209917
1,
1"
#210000
0!
1%
#210984
0/
#212854
11
#213528
04
#214575
00
#215000
1!
0%
#215939
1/
#216080
1.
1$
#220000
0!
1%
#220984
0/
#222854
01
#223584
14
#224494
10
#224801
16
#225000
1!
0%
#225498
05
#225939
1/
#225970
0.
0$
#226462
12
#228042
1-
1#
#230000
0!
1%
#230984
0/
#232854
11
#233528
04
#234575
00
#235000
1!
0%
#235939
1/
#236080
1.
1$
#240000
0!
1%
#240984
0/
#242854
01
#243584
14
#244385
13
#244494
10
#244801
06
#245000
1!
0%
#245541
15
#245762
08
03
#245939
1/
#245970
0.
0$
#246224
17
#246390
02
#247919
0-
0#
#249149
0,
0"
#250000
0!
1%
#250984
0/
#252854
11
#253528
04
#254575
00
#255000
1!
0%
#255939
1/
#256080
1.
1$
#260000
0!
1%
#260984
0/
#262854
01
#263584
14
#264494
10
#264801
16
#265000
1!
0%
#265498
05
#265939
1/
#265970
0.
0$
#268042
1-
1#
#270000
0!
1%
#270984
0/
#272854
11
#273528
04
#274575
00
#275000
1!
0%
#275939
1/
#276080
1.
1$
#280000
0!
1%
#280984
0/
#282854
01
#283584
14
#284494
10
#284801
06
#285000
1!
0%
#285541
15
#285939
1/
#285970
0.
0$
#286388
18
#286870
07
#287919
0-
0#
#289917
1,
1"
#290000
0!
1%
#290984
0/
#292854
11
#293528
04
#294575
00
#295000
1!
0%
#295939
1/
#296080
1.
1$
#300000
0!
1%
#300984
0/
#302854
01
#303584
14
#304494
10
#304801
16
#305000
1!
0%
#305498
05
#305939
1/
#305970
0.
0$
#306462
12
#308042
1-
1#
#310000
0!
1%
#310984
0/
#312854
11
#313528
04
#314575
00
#315000
1!
0%
#315939
1/
#316080
1.
1$
#320000
0!
1%
#320984
0/
#322854
01
#323584
14
#324385
13
#324494
10
#324801
06
#325000
1!
0%
#325541
15
#325762
08
03
#325939
1/
#325970
0.
0$
#326224
17
#326390
02
#327919
0-
0#
#329149
0,
0"
#330000
0!
1%
#330984
0/
#332854
11
#333528
04
#334575
00
#335000
1!
0%
#335939
1/
#336080
1.
1$
#340000
0!
1%
#340984
0/
#342854
01
#343584
14
#344494
10
#344801
16
#345000
1!
0%
#345498
05
#345939
1/
#345970
0.
0$
#348042
1-
1#
#350000
0!
1%
#350984
0/
#352854
11
#353528
04
#354575
00
#355000
1!
0%
#355939
1/
#356080
1.
1$
#360000
0!
1%
#360984
0/
#362854
01
#363584
14
#364494
10
#364801
06
#365000
1!
0%
#365541
15
#365939
1/
#365970
0.
0$
#366388
18
#366870
07
#367919
0-
0#
#369917
1,
1"
#370000
0!
1%
#370984
0/
#372854
11
#373528
04
#374575
00
#375000
1!
0%
#375939
1/
#376080
1.
1$
#380000
0!
1%
#380984
0/
#382854
01
#383584
14
#384494
10
#384801
16
#385000
1!
0%
#385498
05
#385939
1/
#385970
0.
0$
#386462
12
#388042
1-
1#
#390000
0!
1%
#390984
0/
#392854
11
#393528
04
#394575
00
#395000
1!
0%
#395939
1/
#396080
1.
1$
#400000
0!
1%
#400984
0/
#402854
01
#403584
14
#404385
13
#404494
10
#404801
06
#405000
1!
0%
#405541
15
#405762
08
03
#405939
1/
#405970
0.
0$
#406224
17
#406390
02
#407919
0-
0#
#409149
0,
0"
#410000
0!
1%
#410984
0/
#412854
11
#413528
04
#414575
00
#415000
1!
0%
#415939
1/
#416080
1.
1$
#420000
0!
1%
#420984
0/
#422854
01
#423584
14
#424494
10
#424801
16
#425000
1!
0%
#425498
05
#425939
1/
#425970
0.
0$
#428042
1-
1#
#430000
0!
1%
#430984
0/
#432854
11
#433528
04
#434575
00
#435000
1!
0%
#435939
1/
#436080
1.
1$
#440000
0!
1%
#440984
0/
#442854
01
#443584
14
#444494
10
#444801
06
#445000
1!
0%
#445541
15
#445939
1/
#445970
0.
0$
#446388
18
#446870
07
#447919
0-
0#
#449917
1,
1"
#450000
0!
1%
#450984
0/
#452854
11
#453528
04
#454575
00
#455000
1!
0%
#455939
1/
#456080
1.
1$
#460000
0!
1%
#460984
0/
#462854
01
#463584
14
#464494
10
#464801
16
#465000
1!
0%
#465498
05
#465939
1/
#465970
0.
0$
#466462
12
#468042
1-
1#
#470000
0!
1%
#470984
0/
#472854
11
#473528
04
#474575
00
#475000
1!
0%
#475939
1/
#476080
1.
1$
#480000
0!
1%
#480984
0/
#482854
01
#483584
14
#484385
13
#484494
10
#484801
06
#485000
1!
0%
#485541
15
#485762
08
03
#485939
1/
#485970
0.
0$
#486224
17
#486390
02
#487919
0-
0#
#489149
0,
0"
#490000
0!
1%
#490984
0/
#492854
11
#493528
04
#494575
00
#495000
1!
0%
#495939
1/
#496080
1.
1$
#500000
0!
1%
#500984
0/
#502854
01
#503584
14
#504494
10
#504801
16
#505000
1!
0%
#505498
05
#505939
1/
#505970
0.
0$
#508042
1-
1#
#510000
0!
1%
#510984
0/
#512854
11
#513528
04
#514575
00
#515000
1!
0%
#515939
1/
#516080
1.
1$
#520000
0!
1%
#520984
0/
#522854
01
#523584
14
#524494
10
#524801
06
#525000
1!
0%
#525541
15
#525939
1/
#525970
0.
0$
#526388
18
#526870
07
#527919
0-
0#
#529917
1,
1"
#530000
0!
1%
#530984
0/
#532854
11
#533528
04
#534575
00
#535000
1!
0%
#535939
1/
#536080
1.
1$
#540000
0!
1%
#540984
0/
#542854
01
#543584
14
#544494
10
#544801
16
#545000
1!
0%
#545498
05
#545939
1/
#545970
0.
0$
#546462
12
#548042
1-
1#
#550000
0!
1%
#550984
0/
#552854
11
#553528
04
#554575
00
#555000
1!
0%
#555939
1/
#556080
1.
1$
#560000
0!
1%
#560984
0/
#562854
01
#563584
14
#564385
13
#564494
10
#564801
06
#565000
1!
0%
#565541
15
#565762
08
03
#565939
1/
#565970
0.
0$
#566224
17
#566390
02
#567919
0-
0#
#569149
0,
0"
#570000
0!
1%
#570984
0/
#572854
11
#573528
04
#574575
00
#575000
1!
0%
#575939
1/
#576080
1.
1$
#580000
0!
1%
#580984
0/
#582854
01
#583584
14
#584494
10
#584801
16
#585000
1!
0%
#585498
05
#585939
1/
#585970
0.
0$
#588042
1-
1#
#590000
0!
1%
#590984
0/
#592854
11
#593528
04
#594575
00
#595000
1!
0%
#595939
1/
#596080
1.
1$
#600000
0!
1%
#600984
0/
#602854
01
#603584
14
#604494
10
#604801
06
#605000
1!
0%
#605541
15
#605939
1/
#605970
0.
0$
#606388
18
#606870
07
#607919
0-
0#
#609917
1,
1"
#610000
0!
1%
#610984
0/
#612854
11
#613528
04
#614575
00
#615000
1!
0%
#615939
1/
#616080
1.
1$
#620000
0!
1%
#620984
0/
#622854
01
#623584
14
#624494
10
#624801
16
#625000
1!
0%
#625498
05
#625939
1/
#625970
0.
0$
#626462
12
#628042
1-
1#
#630000
0!
1%
#630984
0/
#632854
11
#633528
04
#634575
00
#635000
1!
0%
#635939
1/
#636080
1.
1$
#640000
0!
1%
#640984
0/
#642854
01
#643584
14
#644385
13
#644494
10
#644801
06
#645000
1!
0%
#645541
15
#645762
08
03
#645939
1/
#645970
0.
0$
#646224
17
#646390
02
#647919
0-
0#
#649149
0,
0"
#650000
0!
1%
#650984
0/
#652854
11
#653528
04
#654575
00
#655000
1!
0%
#655939
1/
#656080
1.
1$
#660000
0!
1%
#660984
0/
#662854
01
#663584
14
#664494
10
#664801
16
#665000
1!
0%
#665498
05
#665939
1/
#665970
0.
0$
#668042
1-
1#
#670000
0!
1%
#670984
0/
#672854
11
#673528
04
#674575
00
#675000
1!
0%
#675939
1/
#676080
1.
1$
#680000
0!
1%
#680984
0/
#682854
01
#683584
14
#684494
10
#684801
06
#685000
1!
0%
#685541
15
#685939
1/
#685970
0.
0$
#686388
18
#686870
07
#687919
0-
0#
#689917
1,
1"
#690000
0!
1%
#690984
0/
#692854
11
#693528
04
#694575
00
#695000
1!
0%
#695939
1/
#696080
1.
1$
#700000
0!
1%
#700984
0/
#702854
01
#703584
14
#704494
10
#704801
16
#705000
1!
0%
#705498
05
#705939
1/
#705970
0.
0$
#706462
12
#708042
1-
1#
#710000
0!
1%
#710984
0/
#712854
11
#713528
04
#714575
00
#715000
1!
0%
#715939
1/
#716080
1.
1$
#720000
0!
1%
#720984
0/
#722854
01
#723584
14
#724385
13
#724494
10
#724801
06
#725000
1!
0%
#725541
15
#725762
08
03
#725939
1/
#725970
0.
0$
#726224
17
#726390
02
#727919
0-
0#
#729149
0,
0"
#730000
0!
1%
#730984
0/
#732854
11
#733528
04
#734575
00
#735000
1!
0%
#735939
1/
#736080
1.
1$
#740000
0!
1%
#740984
0/
#742854
01
#743584
14
#744494
10
#744801
16
#745000
1!
0%
#745498
05
#745939
1/
#745970
0.
0$
#748042
1-
1#
#750000
0!
1%
#750984
0/
#752854
11
#753528
04
#754575
00
#755000
1!
0%
#755939
1/
#756080
1.
1$
#760000
0!
1%
#760984
0/
#762854
01
#763584
14
#764494
10
#764801
06
#765000
1!
0%
#765541
15
#765939
1/
#765970
0.
0$
#766388
18
#766870
07
#767919
0-
0#
#769917
1,
1"
#770000
0!
1%
#770984
0/
#772854
11
#773528
04
#774575
00
#775000
1!
0%
#775939
1/
#776080
1.
1$
#780000
0!
1%
#780984
0/
#782854
01
#783584
14
#784494
10
#784801
16
#785000
1!
0%
#785498
05
#785939
1/
#785970
0.
0$
#786462
12
#788042
1-
1#
#790000
0!
1%
#790984
0/
#792854
11
#793528
04
#794575
00
#795000
1!
0%
#795939
1/
#796080
1.
1$
#800000
0!
1%
#800984
0/
#802854
01
#803584
14
#804385
13
#804494
10
#804801
06
#805000
1!
0%
#805541
15
#805762
08
03
#805939
1/
#805970
0.
0$
#806224
17
#806390
02
#807919
0-
0#
#809149
0,
0"
#810000
0!
1%
#810984
0/
#812854
11
#813528
04
#814575
00
#815000
1!
0%
#815939
1/
#816080
1.
1$
#820000
0!
1%
#820984
0/
#822854
01
#823584
14
#824494
10
#824801
16
#825000
1!
0%
#825498
05
#825939
1/
#825970
0.
0$
#828042
1-
1#
#830000
0!
1%
#830984
0/
#832854
11
#833528
04
#834575
00
#835000
1!
0%
#835939
1/
#836080
1.
1$
#840000
0!
1%
#840984
0/
#842854
01
#843584
14
#844494
10
#844801
06
#845000
1!
0%
#845541
15
#845939
1/
#845970
0.
0$
#846388
18
#846870
07
#847919
0-
0#
#849917
1,
1"
#850000
0!
1%
#850984
0/
#852854
11
#853528
04
#854575
00
#855000
1!
0%
#855939
1/
#856080
1.
1$
#860000
0!
1%
#860984
0/
#862854
01
#863584
14
#864494
10
#864801
16
#865000
1!
0%
#865498
05
#865939
1/
#865970
0.
0$
#866462
12
#868042
1-
1#
#870000
0!
1%
#870984
0/
#872854
11
#873528
04
#874575
00
#875000
1!
0%
#875939
1/
#876080
1.
1$
#880000
0!
1%
#880984
0/
#882854
01
#883584
14
#884385
13
#884494
10
#884801
06
#885000
1!
0%
#885541
15
#885762
08
03
#885939
1/
#885970
0.
0$
#886224
17
#886390
02
#887919
0-
0#
#889149
0,
0"
#890000
0!
1%
#890984
0/
#892854
11
#893528
04
#894575
00
#895000
1!
0%
#895939
1/
#896080
1.
1$
#900000
0!
1%
#900984
0/
#902854
01
#903584
14
#904494
10
#904801
16
#905000
1!
0%
#905498
05
#905939
1/
#905970
0.
0$
#908042
1-
1#
#910000
0!
1%
#910984
0/
#912854
11
#913528
04
#914575
00
#915000
1!
0%
#915939
1/
#916080
1.
1$
#920000
0!
1%
#920984
0/
#922854
01
#923584
14
#924494
10
#924801
06
#925000
1!
0%
#925541
15
#925939
1/
#925970
0.
0$
#926388
18
#926870
07
#927919
0-
0#
#929917
1,
1"
#930000
0!
1%
#930984
0/
#932854
11
#933528
04
#934575
00
#935000
1!
0%
#935939
1/
#936080
1.
1$
#940000
0!
1%
#940984
0/
#942854
01
#943584
14
#944494
10
#944801
16
#945000
1!
0%
#945498
05
#945939
1/
#945970
0.
0$
#946462
12
#948042
1-
1#
#950000
0!
1%
#950984
0/
#952854
11
#953528
04
#954575
00
#955000
1!
0%
#955939
1/
#956080
1.
1$
#960000
0!
1%
#960984
0/
#962854
01
#963584
14
#964385
13
#964494
10
#964801
06
#965000
1!
0%
#965541
15
#965762
08
03
#965939
1/
#965970
0.
0$
#966224
17
#966390
02
#967919
0-
0#
#969149
0,
0"
#970000
0!
1%
#970984
0/
#972854
11
#973528
04
#974575
00
#975000
1!
0%
#975939
1/
#976080
1.
1$
#980000
0!
1%
#980984
0/
#982854
01
#983584
14
#984494
10
#984801
16
#985000
1!
0%
#985498
05
#985939
1/
#985970
0.
0$
#988042
1-
1#
#990000
0!
1%
#990984
0/
#992854
11
#993528
04
#994575
00
#995000
1!
0%
#995939
1/
#996080
1.
1$
