File/simulation/qsim/com_xnor.msim.vcd
$comment
	File created using the following command:
		vcd file com_xnor.msim.vcd -direction
$end
$date
	Wed Dec 23 13:30:00 2020
$end
$version
	ModelSim Version 10.1d
$end
$timescale
	1ps
$end
$scope module com_xnor_vlg_vec_tst $end
$var reg 4 ! ala_01 [3:0] $end
$var reg 4 " clk_01 [3:0] $end
$var wire 1 # ans_01 $end
$var wire 1 $ sampler $end
$scope module i1 $end
$var wire 1 % gnd $end
$var wire 1 & vcc $end
$var wire 1 ' unknown $end
$var tri1 1 ( devclrn $end
$var tri1 1 ) devpor $end
$var tri1 1 * devoe $end
$var wire 1 + ans_01~output_o $end
$var wire 1 , ala_01[3]~input_o $end
$var wire 1 - clk_01[3]~input_o $end
$var wire 1 . ala_01[2]~input_o $end
$var wire 1 / clk_01[2]~input_o $end
$var wire 1 0 inst5|sub|109~1_combout $end
$var wire 1 1 clk_01[0]~input_o $end
$var wire 1 2 clk_01[1]~input_o $end
$var wire 1 3 ala_01[0]~input_o $end
$var wire 1 4 ala_01[1]~input_o $end
$var wire 1 5 inst5|sub|109~0_combout $end
$var wire 1 6 inst5|sub|109~combout $end
$upscope $end
$upscope $end
$enddefinitions $end
#0
$dumpvars
b0 !
b0 "
x#
x$
0%
1&
x'
1(
1)
1*
x+
0,
0-
0.
0/
x0
01
02
03
04
x5
x6
$end
#4464
00
#4604
05
#5018
06
#9149
1+
1#
#10000
b1 !
b1 "
0$
#10959
13
#11010
11
#15171
15
#15588
16
#15850
05
#16264
06
#20000
b11 !
b11 "
b10 !
b10 "
1$
#20939
14
#21000
12
#21004
03
#21048
01
#25107
15
#25524
16
#25947
05
#26361
06
#30000
b11 !
b11 "
0$
#30959
13
#31010
11
#35171
15
#35588
16
#35850
05
#36264
06
#40000
b111 !
b111 "
b101 !
b101 "
b100 !
b100 "
1$
#40984
04
#40990
1/
#41000
1.
#41004
03
#41038
02
#41048
01
#44892
10
#45291
00
#45316
15
#45645
16
#45947
05
#46361
06
#50000
b101 !
b101 "
0$
#50959
13
#51010
11
#55171
15
#55588
16
#55850
05
#56264
06
#60000
b111 !
b111 "
b110 !
b110 "
1$
#60939
14
#61000
12
#61004
03
#61048
01
#65107
15
#65524
16
#65947
05
#66361
06
#70000
b111 !
b111 "
0$
#70959
13
#71010
11
#75171
15
#75588
16
#75850
05
#76264
06
#80000
b1111 !
b1111 "
b1011 !
b1011 "
b1001 !
b1001 "
b1000 !
b1000 "
1$
#80984
04
#80990
1,
1-
#81004
03
#81028
0/
#81038
0.
02
#81048
01
#85077
10
#85316
15
#85502
00
#85830
16
#85947
05
#86361
06
#90000
b1001 !
b1001 "
0$
#90959
13
#91010
11
#95171
15
#95588
16
#95850
05
#96264
06
#100000
b1011 !
b1011 "
b1010 !
b1010 "
1$
#100939
14
#101000
12
#101004
03
#101048
01
#105107
15
#105524
16
#105947
05
#106361
06
#110000
b1011 !
b1011 "
0$
#110959
13
#111010
11
#115171
15
#115588
16
#115850
05
#116264
06
#120000
b1111 !
b1111 "
b1101 !
b1101 "
b1100 !
b1100 "
1$
#120984
04
#120990
1/
#121000
1.
#121004
03
#121038
02
#121048
01
#124892
10
#125291
00
#125316
15
#125645
16
#125947
05
#126361
06
#130000
b1101 !
b1101 "
0$
#130959
13
#131010
11
#135171
15
#135588
16
#135850
05
#136264
06
#140000
b1111 !
b1111 "
b1110 !
b1110 "
1$
#140939
14
#141000
12
#141004
03
#141048
01
#145107
15
#145524
16
#145947
05
#146361
06
#150000
b1111 !
b1111 "
0$
#150959
13
#151010
11
#155171
15
#155588
16
#155850
05
#156264
06
#160000
b111 !
b111 "
b11 !
b11 "
b1 !
b1 "
b0 !
b0 "
1$
#160984
04
#161004
03
#161028
0,
0-
0/
#161038
0.
02
#161048
01
#165316
15
#165733
16
#165947
05
#166361
06
#170000
b1 !
b1 "
0$
#170959
13
#171010
11
#175171
15
#175588
16
#175850
05
#176264
06
#180000
b11 !
b11 "
b10 !
b10 "
1$
#180939
14
#181000
12
#181004
03
#181048
01
#185107
15
#185524
16
#185947
05
#186361
06
#190000
b11 !
b11 "
0$
#190959
13
#191010
11
#195171
15
#195588
16
#195850
05
#196264
06
#200000
b111 !
b111 "
b101 !
b101 "
b100 !
b100 "
1$
#200984
04
#200990
1/
#201000
1.
#201004
03
#201038
02
#201048
01
#204892
10
#205291
00
#205316
15
#205645
16
#205947
05
#206361
06
#210000
b101 !
b101 "
0$
#210959
13
#211010
11
#215171
15
#215588
16
#215850
05
#216264
06
#220000
b111 !
b111 "
b110 !
b110 "
1$
#220939
14
#221000
12
#221004
03
#221048
01
#225107
15
#225524
16
#225947
05
#226361
06
#230000
b111 !
b111 "
0$
#230959
13
#231010
11
#235171
15
#235588
16
#235850
05
#236264
06
#240000
b1111 !
b1111 "
b1011 !
b1011 "
b1001 !
b1001 "
b1000 !
b1000 "
1$
#240984
04
#240990
1,
1-
#241004
03
#241028
0/
#241038
0.
02
#241048
01
#245077
10
#245316
15
#245502
00
#245830
16
#245947
05
#246361
06
#250000
b1001 !
b1001 "
0$
#250959
13
#251010
11
#255171
15
#255588
16
#255850
05
#256264
06
#260000
b1011 !
b1011 "
b1010 !
b1010 "
1$
#260939
14
#261000
12
#261004
03
#261048
01
#265107
15
#265524
16
#265947
05
#266361
06
#270000
b1011 !
b1011 "
0$
#270959
13
#271010
11
#275171
15
#275588
16
#275850
05
#276264
06
#280000
b1111 !
b1111 "
b1101 !
b1101 "
b1100 !
b1100 "
1$
#280984
04
#280990
1/
#281000
1.
#281004
03
#281038
02
#281048
01
#284892
10
#285291
00
#285316
15
#285645
16
#285947
05
#286361
06
#290000
b1101 !
b1101 "
0$
#290959
13
#291010
11
#295171
15
#295588
16
#295850
05
#296264
06
#300000
b1111 !
b1111 "
b1110 !
b1110 "
1$
#300939
14
#301000
12
#301004
03
#301048
01
#305107
15
#305524
16
#305947
05
#306361
06
#310000
b1111 !
b1111 "
0$
#310959
13
#311010
11
#315171
15
#315588
16
#315850
05
#316264
06
#320000
b111 !
b111 "
b11 !
b11 "
b1 !
b1 "
b0 !
b0 "
1$
#320984
04
#321004
03
#321028
0,
0-
0/
#321038
0.
02
#321048
01
#325316
15
#325733
16
#325947
05
#326361
06
#330000
b1 !
b1 "
0$
#330959
13
#331010
11
#335171
15
#335588
16
#335850
05
#336264
06
#340000
b11 !
b11 "
b10 !
b10 "
1$
#340939
14
#341000
12
#341004
03
#341048
01
#345107
15
#345524
16
#345947
05
#346361
06
#350000
b11 !
b11 "
0$
#350959
13
#351010
11
#355171
15
#355588
16
#355850
05
#356264
06
#360000
b111 !
b111 "
b101 !
b101 "
b100 !
b100 "
1$
#360984
04
#360990
1/
#361000
1.
#361004
03
#361038
02
#361048
01
#364892
10
#365291
00
#365316
15
#365645
16
#365947
05
#366361
06
#370000
b101 !
b101 "
0$
#370959
13
#371010
11
#375171
15
#375588
16
#375850
05
#376264
06
#380000
b111 !
b111 "
b110 !
b110 "
1$
#380939
14
#381000
12
#381004
03
#381048
01
#385107
15
#385524
16
#385947
05
#386361
06
#390000
b111 !
b111 "
0$
#390959
13
#391010
11
#395171
15
#395588
16
#395850
05
#396264
06
#400000
b1111 !
b1111 "
b1011 !
b1011 "
b1001 !
b1001 "
b1000 !
b1000 "
1$
#400984
04
#400990
1,
1-
#401004
03
#401028
0/
#401038
0.
02
#401048
01
#405077
10
#405316
15
#405502
00
#405830
16
#405947
05
#406361
06
#410000
b1001 !
b1001 "
0$
#410959
13
#411010
11
#415171
15
#415588
16
#415850
05
#416264
06
#420000
b1011 !
b1011 "
b1010 !
b1010 "
1$
#420939
14
#421000
12
#421004
03
#421048
01
#425107
15
#425524
16
#425947
05
#426361
06
#430000
b1011 !
b1011 "
0$
#430959
13
#431010
11
#435171
15
#435588
16
#435850
05
#436264
06
#440000
b1111 !
b1111 "
b1101 !
b1101 "
b1100 !
b1100 "
1$
#440984
04
#440990
1/
#441000
1.
#441004
03
#441038
02
#441048
01
#444892
10
#445291
00
#445316
15
#445645
16
#445947
05
#446361
06
#450000
b1101 !
b1101 "
0$
#450959
13
#451010
11
#455171
15
#455588
16
#455850
05
#456264
06
#460000
b1111 !
b1111 "
b1110 !
b1110 "
1$
#460939
14
#461000
12
#461004
03
#461048
01
#465107
15
#465524
16
#465947
05
#466361
06
#470000
b1111 !
b1111 "
0$
#470959
13
#471010
11
#475171
15
#475588
16
#475850
05
#476264
06
#480000
b111 !
b111 "
b11 !
b11 "
b1 !
b1 "
b0 !
b0 "
1$
#480984
04
#481004
03
#481028
0,
0-
0/
#481038
0.
02
#481048
01
#485316
15
#485733
16
#485947
05
#486361
06
#490000
b1 !
b1 "
0$
#490959
13
#491010
11
#495171
15
#495588
16
#495850
05
#496264
06
#500000
b11 !
b11 "
b10 !
b10 "
1$
#500939
14
#501000
12
#501004
03
#501048
01
#505107
15
#505524
16
#505947
05
#506361
06
#510000
b11 !
b11 "
0$
#510959
13
#511010
11
#515171
15
#515588
16
#515850
05
#516264
06
#520000
b111 !
b111 "
b101 !
b101 "
b100 !
b100 "
1$
#520984
04
#520990
1/
#521000
1.
#521004
03
#521038
02
#521048
01
#524892
10
#525291
00
#525316
15
#525645
16
#525947
05
#526361
06
#530000
b101 !
b101 "
0$
#530959
13
#531010
11
#535171
15
#535588
16
#535850
05
#536264
06
#540000
b111 !
b111 "
b110 !
b110 "
1$
#540939
14
#541000
12
#541004
03
#541048
01
#545107
15
#545524
16
#545947
05
#546361
06
#550000
b111 !
b111 "
0$
#550959
13
#551010
11
#555171
15
#555588
16
#555850
05
#556264
06
#560000
b1111 !
b1111 "
b1011 !
b1011 "
b1001 !
b1001 "
b1000 !
b1000 "
1$
#560984
04
#560990
1,
1-
#561004
03
#561028
0/
#561038
0.
02
#561048
01
#565077
10
#565316
15
#565502
00
#565830
16
#565947
05
#566361
06
#570000
b1001 !
b1001 "
0$
#570959
13
#571010
11
#575171
15
#575588
16
#575850
05
#576264
06
#580000
b1011 !
b1011 "
b1010 !
b1010 "
1$
#580939
14
#581000
12
#581004
03
#581048
01
#585107
15
#585524
16
#585947
05
#586361
06
#590000
b1011 !
b1011 "
0$
#590959
13
#591010
11
#595171
15
#595588
16
#595850
05
#596264
06
#600000
b1111 !
b1111 "
b1101 !
b1101 "
b1100 !
b1100 "
1$
#600984
04
#600990
1/
#601000
1.
#601004
03
#601038
02
#601048
01
#604892
10
#605291
00
#605316
15
#605645
16
#605947
05
#606361
06
#610000
b1101 !
b1101 "
0$
#610959
13
#611010
11
#615171
15
#615588
16
#615850
05
#616264
06
#620000
b1111 !
b1111 "
b1110 !
b1110 "
1$
#620939
14
#621000
12
#621004
03
#621048
01
#625107
15
#625524
16
#625947
05
#626361
06
#630000
b1111 !
b1111 "
0$
#630959
13
#631010
11
#635171
15
#635588
16
#635850
05
#636264
06
#640000
b111 !
b111 "
b11 !
b11 "
b1 !
b1 "
b0 !
b0 "
1$
#640984
04
#641004
03
#641028
0,
0-
0/
#641038
0.
02
#641048
01
#645316
15
#645733
16
#645947
05
#646361
06
#650000
b1 !
b1 "
0$
#650959
13
#651010
11
#655171
15
#655588
16
#655850
05
#656264
06
#660000
b11 !
b11 "
b10 !
b10 "
1$
#660939
14
#661000
12
#661004
03
#661048
01
#665107
15
#665524
16
#665947
05
#666361
06
#670000
b11 !
b11 "
0$
#670959
13
#671010
11
#675171
15
#675588
16
#675850
05
#676264
06
#680000
b111 !
b111 "
b101 !
b101 "
b100 !
b100 "
1$
#680984
04
#680990
1/
#681000
1.
#681004
03
#681038
02
#681048
01
#684892
10
#685291
00
#685316
15
#685645
16
#685947
05
#686361
06
#690000
b101 !
b101 "
0$
#690959
13
#691010
11
#695171
15
#695588
16
#695850
05
#696264
06
#700000
b111 !
b111 "
b110 !
b110 "
1$
#700939
14
#701000
12
#701004
03
#701048
01
#705107
15
#705524
16
#705947
05
#706361
06
#710000
b111 !
b111 "
0$
#710959
13
#711010
11
#715171
15
#715588
16
#715850
05
#716264
06
#720000
b1111 !
b1111 "
b1011 !
b1011 "
b1001 !
b1001 "
b1000 !
b1000 "
1$
#720984
04
#720990
1,
1-
#721004
03
#721028
0/
#721038
0.
02
#721048
01
#725077
10
#725316
15
#725502
00
#725830
16
#725947
05
#726361
06
#730000
b1001 !
b1001 "
0$
#730959
13
#731010
11
#735171
15
#735588
16
#735850
05
#736264
06
#740000
b1011 !
b1011 "
b1010 !
b1010 "
1$
#740939
14
#741000
12
#741004
03
#741048
01
#745107
15
#745524
16
#745947
05
#746361
06
#750000
b1011 !
b1011 "
0$
#750959
13
#751010
11
#755171
15
#755588
16
#755850
05
#756264
06
#760000
b1111 !
b1111 "
b1101 !
b1101 "
b1100 !
b1100 "
1$
#760984
04
#760990
1/
#761000
1.
#761004
03
#761038
02
#761048
01
#764892
10
#765291
00
#765316
15
#765645
16
#765947
05
#766361
06
#770000
b1101 !
b1101 "
0$
#770959
13
#771010
11
#775171
15
#775588
16
#775850
05
#776264
06
#780000
b1111 !
b1111 "
b1110 !
b1110 "
1$
#780939
14
#781000
12
#781004
03
#781048
01
#785107
15
#785524
16
#785947
05
#786361
06
#790000
b1111 !
b1111 "
0$
#790959
13
#791010
11
#795171
15
#795588
16
#795850
05
#796264
06
#800000
b111 !
b111 "
b11 !
b11 "
b1 !
b1 "
b0 !
b0 "
1$
#800984
04
#801004
03
#801028
0,
0-
0/
#801038
0.
02
#801048
01
#805316
15
#805733
16
#805947
05
#806361
06
#810000
b1 !
b1 "
0$
#810959
13
#811010
11
#815171
15
#815588
16
#815850
05
#816264
06
#820000
b11 !
b11 "
b10 !
b10 "
1$
#820939
14
#821000
12
#821004
03
#821048
01
#825107
15
#825524
16
#825947
05
#826361
06
#830000
b11 !
b11 "
0$
#830959
13
#831010
11
#835171
15
#835588
16
#835850
05
#836264
06
#840000
b111 !
b111 "
b101 !
b101 "
b100 !
b100 "
1$
#840984
04
#840990
1/
#841000
1.
#841004
03
#841038
02
#841048
01
#844892
10
#845291
00
#845316
15
#845645
16
#845947
05
#846361
06
#850000
b101 !
b101 "
0$
#850959
13
#851010
11
#855171
15
#855588
16
#855850
05
#856264
06
#860000
b111 !
b111 "
b110 !
b110 "
1$
#860939
14
#861000
12
#861004
03
#861048
01
#865107
15
#865524
16
#865947
05
#866361
06
#870000
b111 !
b111 "
0$
#870959
13
#871010
11
#875171
15
#875588
16
#875850
05
#876264
06
#880000
b1111 !
b1111 "
b1011 !
b1011 "
b1001 !
b1001 "
b1000 !
b1000 "
1$
#880984
04
#880990
1,
1-
#881004
03
#881028
0/
#881038
0.
02
#881048
01
#885077
10
#885316
15
#885502
00
#885830
16
#885947
05
#886361
06
#890000
b1001 !
b1001 "
0$
#890959
13
#891010
11
#895171
15
#895588
16
#895850
05
#896264
06
#900000
b1011 !
b1011 "
b1010 !
b1010 "
1$
#900939
14
#901000
12
#901004
03
#901048
01
#905107
15
#905524
16
#905947
05
#906361
06
#910000
b1011 !
b1011 "
0$
#910959
13
#911010
11
#915171
15
#915588
16
#915850
05
#916264
06
#920000
b1111 !
b1111 "
b1101 !
b1101 "
b1100 !
b1100 "
1$
#920984
04
#920990
1/
#921000
1.
#921004
03
#921038
02
#921048
01
#924892
10
#925291
00
#925316
15
#925645
16
#925947
05
#926361
06
#930000
b1101 !
b1101 "
0$
#930959
13
#931010
11
#935171
15
#935588
16
#935850
05
#936264
06
#940000
b1111 !
b1111 "
b1110 !
b1110 "
1$
#940939
14
#941000
12
#941004
03
#941048
01
#945107
15
#945524
16
#945947
05
#946361
06
#950000
b1111 !
b1111 "
0$
#950959
13
#951010
11
#955171
15
#955588
16
#955850
05
#956264
06
#960000
b111 !
b111 "
b11 !
b11 "
b1 !
b1 "
b0 !
b0 "
1$
#960984
04
#961004
03
#961028
0,
0-
0/
#961038
0.
02
#961048
01
#965316
15
#965733
16
#965947
05
#966361
06
#970000
b1 !
b1 "
0$
#970959
13
#971010
11
#975171
15
#975588
16
#975850
05
#976264
06
#980000
b11 !
b11 "
b10 !
b10 "
1$
#980939
14
#981000
12
#981004
03
#981048
01
#985107
15
#985524
16
#985947
05
#986361
06
#990000
b11 !
b11 "
0$
#990959
13
#991010
11
#995171
15
#995588
16
#995850
05
#996264
06
