File/simulation/qsim/decoder.msim.vcd
$comment
	File created using the following command:
		vcd file decoder.msim.vcd -direction
$end
$date
	Wed Dec 23 11:37:27 2020
$end
$version
	ModelSim Version 10.1d
$end
$timescale
	1ps
$end
$scope module decoder_vlg_vec_tst $end
$var reg 4 ! d [3:0] $end
$var wire 1 " seg [6] $end
$var wire 1 # seg [5] $end
$var wire 1 $ seg [4] $end
$var wire 1 % seg [3] $end
$var wire 1 & seg [2] $end
$var wire 1 ' seg [1] $end
$var wire 1 ( seg [0] $end
$var wire 1 ) sampler $end
$scope module i1 $end
$var wire 1 * gnd $end
$var wire 1 + vcc $end
$var wire 1 , unknown $end
$var tri1 1 - devclrn $end
$var tri1 1 . devpor $end
$var tri1 1 / devoe $end
$var wire 1 0 seg[6]~output_o $end
$var wire 1 1 seg[5]~output_o $end
$var wire 1 2 seg[4]~output_o $end
$var wire 1 3 seg[3]~output_o $end
$var wire 1 4 seg[2]~output_o $end
$var wire 1 5 seg[1]~output_o $end
$var wire 1 6 seg[0]~output_o $end
$var wire 1 7 d[1]~input_o $end
$var wire 1 8 d[3]~input_o $end
$var wire 1 9 d[2]~input_o $end
$var wire 1 : d[0]~input_o $end
$var wire 1 ; inst|72~combout $end
$var wire 1 < inst|66~0_combout $end
$var wire 1 = inst|71~combout $end
$var wire 1 > inst|67~0_combout $end
$var wire 1 ? inst|70~combout $end
$var wire 1 @ inst|68~0_combout $end
$var wire 1 A inst|69~0_combout $end
$upscope $end
$upscope $end
$enddefinitions $end
#0
$dumpvars
b0 !
x(
x'
x&
x%
x$
x#
x"
x)
0*
1+
x,
1-
1.
1/
x0
x1
x2
x3
x4
x5
x6
07
08
09
0:
x;
x<
x=
x>
x?
x@
xA
$end
#2532
0@
#2538
0<
#4219
0A
#4221
0=
#4222
0?
#4229
1>
#4460
1;
#7579
11
1#
#7616
12
1$
#7926
14
1&
#8045
15
1'
#8589
13
1%
#10000
b1 !
0)
#10800
00
0"
#10809
16
1(
#10990
1:
#12638
0>
#12653
1=
#12659
1<
#12660
1A
#16241
02
0$
#16813
03
0%
#17966
01
0#
#19561
06
0(
#20000
b11 !
b10 !
1)
#20990
17
#21028
0:
#22770
0=
#22772
0<
#22773
0A
#22795
1>
#23407
1?
#23408
1<
#23410
0;
#26165
12
1$
#27155
13
1%
#27324
04
0&
#29363
16
1(
#29675
10
1"
#30000
b11 !
0)
#30990
1:
#32635
0?
#32653
1=
#36241
02
0$
#36339
14
1&
#40000
b111 !
b101 !
b100 !
1)
#41000
19
#41028
07
0:
#42770
0=
#42794
1?
#43543
1;
#43565
0?
#43566
0<
#45051
0>
#45054
0;
#45061
1A
#45064
1=
#48607
11
1#
#49226
03
0%
#50000
b101 !
0)
#50990
1:
#51962
06
0(
#52638
0A
#52660
1@
1>
#57020
13
1%
#58537
05
0'
#59228
16
1(
#60000
b111 !
b110 !
1)
#60990
17
#61028
0:
#62770
0@
#62773
0>
#62795
1A
#63381
1@
#63391
1>
#63409
0=
#66804
12
1$
#69696
06
0(
#70000
b111 !
0)
#70990
1:
#72638
0A
0@
0>
#72653
1=
#72655
1;
#72659
1<
#76241
02
0$
#76813
03
0%
#77966
01
0#
#78151
15
1'
#78995
00
0"
#79228
16
1(
#80000
b1111 !
b1011 !
b1001 !
b1000 !
1)
#80959
18
#81028
07
0:
#81038
09
#82770
0=
0;
#82772
0<
#82792
1@
#82795
1A
1>
#83541
0>
#83547
1=
#83560
0@
#85257
0A
#85259
0=
#85267
1>
#87813
11
1#
#88654
12
1$
#89035
10
1"
#89627
13
1%
#90000
b1001 !
0)
#90990
1:
#92638
0>
#92653
1=
#96241
02
0$
#96813
03
0%
#100000
b1011 !
b1010 !
1)
#100990
17
#101028
0:
#102770
0=
#102795
1>
#103381
1@
#103385
1A
#103407
1?
#103408
1<
#106165
12
1$
#107155
13
1%
#107324
04
0&
#108715
01
0#
#109258
05
0'
#110000
b1011 !
0)
#110286
06
0(
#110990
1:
#112635
0?
#112653
1=
#116241
02
0$
#116339
14
1&
#120000
b1111 !
b1101 !
b1100 !
1)
#121000
19
#121028
07
0:
#122770
0=
#122794
1?
#123560
0@
#123565
0?
#123566
0A
0<
#125051
0>
#125060
1?
#125061
1A
#125064
1=
#128607
11
1#
#128977
04
0&
#129073
15
1'
#129226
03
0%
#130000
b1101 !
0)
#130990
1:
#132638
0A
#132660
1@
1>
#137020
13
1%
#138537
05
0'
#139228
16
1(
#140000
b1111 !
b1110 !
1)
#140990
17
#141028
0:
#142770
0@
#142773
0>
#142795
1A
#143381
1@
#143391
1>
#143409
0=
#146804
12
1$
#149696
06
0(
#150000
b1111 !
0)
#150990
1:
#152638
0>
#152653
1=
#152655
1;
#152659
1<
#156241
02
0$
#156813
03
0%
#157966
01
0#
#158995
00
0"
#160000
b111 !
b11 !
b1 !
b0 !
1)
#161004
08
#161028
07
0:
#161038
09
#162770
0=
0;
#162772
0<
#162795
1>
#163541
0>
#163547
1=
#163560
0@
#165257
0A
#165259
0=
#165260
0?
#165267
1>
#165464
1;
#167813
11
1#
#168654
12
1$
#168964
14
1&
#169073
15
1'
#169627
13
1%
#170000
b1 !
0)
#170990
1:
#171847
16
1(
#172638
0>
#172653
1=
#172659
1<
#172660
1A
#176241
02
0$
#176813
03
0%
#177966
01
0#
#179561
06
0(
#180000
b11 !
b10 !
1)
#180990
17
#181028
0:
#182770
0=
#182772
0<
#182773
0A
#182795
1>
#183407
1?
#183408
1<
#183410
0;
#186165
12
1$
#187155
13
1%
#187324
04
0&
#189363
16
1(
#189675
10
1"
#190000
b11 !
0)
#190990
1:
#192635
0?
#192653
1=
#196241
02
0$
#196339
14
1&
#200000
b111 !
b101 !
b100 !
1)
#201000
19
#201028
07
0:
#202770
0=
#202794
1?
#203543
1;
#203565
0?
#203566
0<
#205051
0>
#205054
0;
#205061
1A
#205064
1=
#208607
11
1#
#209226
03
0%
#210000
b101 !
0)
#210990
1:
#211962
06
0(
#212638
0A
#212660
1@
1>
#217020
13
1%
#218537
05
0'
#219228
16
1(
#220000
b111 !
b110 !
1)
#220990
17
#221028
0:
#222770
0@
#222773
0>
#222795
1A
#223381
1@
#223391
1>
#223409
0=
#226804
12
1$
#229696
06
0(
#230000
b111 !
0)
#230990
1:
#232638
0A
0@
0>
#232653
1=
#232655
1;
#232659
1<
#236241
02
0$
#236813
03
0%
#237966
01
0#
#238151
15
1'
#238995
00
0"
#239228
16
1(
#240000
b1111 !
b1011 !
b1001 !
b1000 !
1)
#240959
18
#241028
07
0:
#241038
09
#242770
0=
0;
#242772
0<
#242792
1@
#242795
1A
1>
#243541
0>
#243547
1=
#243560
0@
#245257
0A
#245259
0=
#245267
1>
#247813
11
1#
#248654
12
1$
#249035
10
1"
#249627
13
1%
#250000
b1001 !
0)
#250990
1:
#252638
0>
#252653
1=
#256241
02
0$
#256813
03
0%
#260000
b1011 !
b1010 !
1)
#260990
17
#261028
0:
#262770
0=
#262795
1>
#263381
1@
#263385
1A
#263407
1?
#263408
1<
#266165
12
1$
#267155
13
1%
#267324
04
0&
#268715
01
0#
#269258
05
0'
#270000
b1011 !
0)
#270286
06
0(
#270990
1:
#272635
0?
#272653
1=
#276241
02
0$
#276339
14
1&
#280000
b1111 !
b1101 !
b1100 !
1)
#281000
19
#281028
07
0:
#282770
0=
#282794
1?
#283560
0@
#283565
0?
#283566
0A
0<
#285051
0>
#285060
1?
#285061
1A
#285064
1=
#288607
11
1#
#288977
04
0&
#289073
15
1'
#289226
03
0%
#290000
b1101 !
0)
#290990
1:
#292638
0A
#292660
1@
1>
#297020
13
1%
#298537
05
0'
#299228
16
1(
#300000
b1111 !
b1110 !
1)
#300990
17
#301028
0:
#302770
0@
#302773
0>
#302795
1A
#303381
1@
#303391
1>
#303409
0=
#306804
12
1$
#309696
06
0(
#310000
b1111 !
0)
#310990
1:
#312638
0>
#312653
1=
#312655
1;
#312659
1<
#316241
02
0$
#316813
03
0%
#317966
01
0#
#318995
00
0"
#320000
b111 !
b11 !
b1 !
b0 !
1)
#321004
08
#321028
07
0:
#321038
09
#322770
0=
0;
#322772
0<
#322795
1>
#323541
0>
#323547
1=
#323560
0@
#325257
0A
#325259
0=
#325260
0?
#325267
1>
#325464
1;
#327813
11
1#
#328654
12
1$
#328964
14
1&
#329073
15
1'
#329627
13
1%
#330000
b1 !
0)
#330990
1:
#331847
16
1(
#332638
0>
#332653
1=
#332659
1<
#332660
1A
#336241
02
0$
#336813
03
0%
#337966
01
0#
#339561
06
0(
#340000
b11 !
b10 !
1)
#340990
17
#341028
0:
#342770
0=
#342772
0<
#342773
0A
#342795
1>
#343407
1?
#343408
1<
#343410
0;
#346165
12
1$
#347155
13
1%
#347324
04
0&
#349363
16
1(
#349675
10
1"
#350000
b11 !
0)
#350990
1:
#352635
0?
#352653
1=
#356241
02
0$
#356339
14
1&
#360000
b111 !
b101 !
b100 !
1)
#361000
19
#361028
07
0:
#362770
0=
#362794
1?
#363543
1;
#363565
0?
#363566
0<
#365051
0>
#365054
0;
#365061
1A
#365064
1=
#368607
11
1#
#369226
03
0%
#370000
b101 !
0)
#370990
1:
#371962
06
0(
#372638
0A
#372660
1@
1>
#377020
13
1%
#378537
05
0'
#379228
16
1(
#380000
b111 !
b110 !
1)
#380990
17
#381028
0:
#382770
0@
#382773
0>
#382795
1A
#383381
1@
#383391
1>
#383409
0=
#386804
12
1$
#389696
06
0(
#390000
b111 !
0)
#390990
1:
#392638
0A
0@
0>
#392653
1=
#392655
1;
#392659
1<
#396241
02
0$
#396813
03
0%
#397966
01
0#
#398151
15
1'
#398995
00
0"
#399228
16
1(
#400000
b1111 !
b1011 !
b1001 !
b1000 !
1)
#400959
18
#401028
07
0:
#401038
09
#402770
0=
0;
#402772
0<
#402792
1@
#402795
1A
1>
#403541
0>
#403547
1=
#403560
0@
#405257
0A
#405259
0=
#405267
1>
#407813
11
1#
#408654
12
1$
#409035
10
1"
#409627
13
1%
#410000
b1001 !
0)
#410990
1:
#412638
0>
#412653
1=
#416241
02
0$
#416813
03
0%
#420000
b1011 !
b1010 !
1)
#420990
17
#421028
0:
#422770
0=
#422795
1>
#423381
1@
#423385
1A
#423407
1?
#423408
1<
#426165
12
1$
#427155
13
1%
#427324
04
0&
#428715
01
0#
#429258
05
0'
#430000
b1011 !
0)
#430286
06
0(
#430990
1:
#432635
0?
#432653
1=
#436241
02
0$
#436339
14
1&
#440000
b1111 !
b1101 !
b1100 !
1)
#441000
19
#441028
07
0:
#442770
0=
#442794
1?
#443560
0@
#443565
0?
#443566
0A
0<
#445051
0>
#445060
1?
#445061
1A
#445064
1=
#448607
11
1#
#448977
04
0&
#449073
15
1'
#449226
03
0%
#450000
b1101 !
0)
#450990
1:
#452638
0A
#452660
1@
1>
#457020
13
1%
#458537
05
0'
#459228
16
1(
#460000
b1111 !
b1110 !
1)
#460990
17
#461028
0:
#462770
0@
#462773
0>
#462795
1A
#463381
1@
#463391
1>
#463409
0=
#466804
12
1$
#469696
06
0(
#470000
b1111 !
0)
#470990
1:
#472638
0>
#472653
1=
#472655
1;
#472659
1<
#476241
02
0$
#476813
03
0%
#477966
01
0#
#478995
00
0"
#480000
b111 !
b11 !
b1 !
b0 !
1)
#481004
08
#481028
07
0:
#481038
09
#482770
0=
0;
#482772
0<
#482795
1>
#483541
0>
#483547
1=
#483560
0@
#485257
0A
#485259
0=
#485260
0?
#485267
1>
#485464
1;
#487813
11
1#
#488654
12
1$
#488964
14
1&
#489073
15
1'
#489627
13
1%
#490000
b1 !
0)
#490990
1:
#491847
16
1(
#492638
0>
#492653
1=
#492659
1<
#492660
1A
#496241
02
0$
#496813
03
0%
#497966
01
0#
#499561
06
0(
#500000
b11 !
b10 !
1)
#500990
17
#501028
0:
#502770
0=
#502772
0<
#502773
0A
#502795
1>
#503407
1?
#503408
1<
#503410
0;
#506165
12
1$
#507155
13
1%
#507324
04
0&
#509363
16
1(
#509675
10
1"
#510000
b11 !
0)
#510990
1:
#512635
0?
#512653
1=
#516241
02
0$
#516339
14
1&
#520000
b111 !
b101 !
b100 !
1)
#521000
19
#521028
07
0:
#522770
0=
#522794
1?
#523543
1;
#523565
0?
#523566
0<
#525051
0>
#525054
0;
#525061
1A
#525064
1=
#528607
11
1#
#529226
03
0%
#530000
b101 !
0)
#530990
1:
#531962
06
0(
#532638
0A
#532660
1@
1>
#537020
13
1%
#538537
05
0'
#539228
16
1(
#540000
b111 !
b110 !
1)
#540990
17
#541028
0:
#542770
0@
#542773
0>
#542795
1A
#543381
1@
#543391
1>
#543409
0=
#546804
12
1$
#549696
06
0(
#550000
b111 !
0)
#550990
1:
#552638
0A
0@
0>
#552653
1=
#552655
1;
#552659
1<
#556241
02
0$
#556813
03
0%
#557966
01
0#
#558151
15
1'
#558995
00
0"
#559228
16
1(
#560000
b1111 !
b1011 !
b1001 !
b1000 !
1)
#560959
18
#561028
07
0:
#561038
09
#562770
0=
0;
#562772
0<
#562792
1@
#562795
1A
1>
#563541
0>
#563547
1=
#563560
0@
#565257
0A
#565259
0=
#565267
1>
#567813
11
1#
#568654
12
1$
#569035
10
1"
#569627
13
1%
#570000
b1001 !
0)
#570990
1:
#572638
0>
#572653
1=
#576241
02
0$
#576813
03
0%
#580000
b1011 !
b1010 !
1)
#580990
17
#581028
0:
#582770
0=
#582795
1>
#583381
1@
#583385
1A
#583407
1?
#583408
1<
#586165
12
1$
#587155
13
1%
#587324
04
0&
#588715
01
0#
#589258
05
0'
#590000
b1011 !
0)
#590286
06
0(
#590990
1:
#592635
0?
#592653
1=
#596241
02
0$
#596339
14
1&
#600000
b1111 !
b1101 !
b1100 !
1)
#601000
19
#601028
07
0:
#602770
0=
#602794
1?
#603560
0@
#603565
0?
#603566
0A
0<
#605051
0>
#605060
1?
#605061
1A
#605064
1=
#608607
11
1#
#608977
04
0&
#609073
15
1'
#609226
03
0%
#610000
b1101 !
0)
#610990
1:
#612638
0A
#612660
1@
1>
#617020
13
1%
#618537
05
0'
#619228
16
1(
#620000
b1111 !
b1110 !
1)
#620990
17
#621028
0:
#622770
0@
#622773
0>
#622795
1A
#623381
1@
#623391
1>
#623409
0=
#626804
12
1$
#629696
06
0(
#630000
b1111 !
0)
#630990
1:
#632638
0>
#632653
1=
#632655
1;
#632659
1<
#636241
02
0$
#636813
03
0%
#637966
01
0#
#638995
00
0"
#640000
b111 !
b11 !
b1 !
b0 !
1)
#641004
08
#641028
07
0:
#641038
09
#642770
0=
0;
#642772
0<
#642795
1>
#643541
0>
#643547
1=
#643560
0@
#645257
0A
#645259
0=
#645260
0?
#645267
1>
#645464
1;
#647813
11
1#
#648654
12
1$
#648964
14
1&
#649073
15
1'
#649627
13
1%
#650000
b1 !
0)
#650990
1:
#651847
16
1(
#652638
0>
#652653
1=
#652659
1<
#652660
1A
#656241
02
0$
#656813
03
0%
#657966
01
0#
#659561
06
0(
#660000
b11 !
b10 !
1)
#660990
17
#661028
0:
#662770
0=
#662772
0<
#662773
0A
#662795
1>
#663407
1?
#663408
1<
#663410
0;
#666165
12
1$
#667155
13
1%
#667324
04
0&
#669363
16
1(
#669675
10
1"
#670000
b11 !
0)
#670990
1:
#672635
0?
#672653
1=
#676241
02
0$
#676339
14
1&
#680000
b111 !
b101 !
b100 !
1)
#681000
19
#681028
07
0:
#682770
0=
#682794
1?
#683543
1;
#683565
0?
#683566
0<
#685051
0>
#685054
0;
#685061
1A
#685064
1=
#688607
11
1#
#689226
03
0%
#690000
b101 !
0)
#690990
1:
#691962
06
0(
#692638
0A
#692660
1@
1>
#697020
13
1%
#698537
05
0'
#699228
16
1(
#700000
b111 !
b110 !
1)
#700990
17
#701028
0:
#702770
0@
#702773
0>
#702795
1A
#703381
1@
#703391
1>
#703409
0=
#706804
12
1$
#709696
06
0(
#710000
b111 !
0)
#710990
1:
#712638
0A
0@
0>
#712653
1=
#712655
1;
#712659
1<
#716241
02
0$
#716813
03
0%
#717966
01
0#
#718151
15
1'
#718995
00
0"
#719228
16
1(
#720000
b1111 !
b1011 !
b1001 !
b1000 !
1)
#720959
18
#721028
07
0:
#721038
09
#722770
0=
0;
#722772
0<
#722792
1@
#722795
1A
1>
#723541
0>
#723547
1=
#723560
0@
#725257
0A
#725259
0=
#725267
1>
#727813
11
1#
#728654
12
1$
#729035
10
1"
#729627
13
1%
#730000
b1001 !
0)
#730990
1:
#732638
0>
#732653
1=
#736241
02
0$
#736813
03
0%
#740000
b1011 !
b1010 !
1)
#740990
17
#741028
0:
#742770
0=
#742795
1>
#743381
1@
#743385
1A
#743407
1?
#743408
1<
#746165
12
1$
#747155
13
1%
#747324
04
0&
#748715
01
0#
#749258
05
0'
#750000
b1011 !
0)
#750286
06
0(
#750990
1:
#752635
0?
#752653
1=
#756241
02
0$
#756339
14
1&
#760000
b1111 !
b1101 !
b1100 !
1)
#761000
19
#761028
07
0:
#762770
0=
#762794
1?
#763560
0@
#763565
0?
#763566
0A
0<
#765051
0>
#765060
1?
#765061
1A
#765064
1=
#768607
11
1#
#768977
04
0&
#769073
15
1'
#769226
03
0%
#770000
b1101 !
0)
#770990
1:
#772638
0A
#772660
1@
1>
#777020
13
1%
#778537
05
0'
#779228
16
1(
#780000
b1111 !
b1110 !
1)
#780990
17
#781028
0:
#782770
0@
#782773
0>
#782795
1A
#783381
1@
#783391
1>
#783409
0=
#786804
12
1$
#789696
06
0(
#790000
b1111 !
0)
#790990
1:
#792638
0>
#792653
1=
#792655
1;
#792659
1<
#796241
02
0$
#796813
03
0%
#797966
01
0#
#798995
00
0"
#800000
b111 !
b11 !
b1 !
b0 !
1)
#801004
08
#801028
07
0:
#801038
09
#802770
0=
0;
#802772
0<
#802795
1>
#803541
0>
#803547
1=
#803560
0@
#805257
0A
#805259
0=
#805260
0?
#805267
1>
#805464
1;
#807813
11
1#
#808654
12
1$
#808964
14
1&
#809073
15
1'
#809627
13
1%
#810000
b1 !
0)
#810990
1:
#811847
16
1(
#812638
0>
#812653
1=
#812659
1<
#812660
1A
#816241
02
0$
#816813
03
0%
#817966
01
0#
#819561
06
0(
#820000
b11 !
b10 !
1)
#820990
17
#821028
0:
#822770
0=
#822772
0<
#822773
0A
#822795
1>
#823407
1?
#823408
1<
#823410
0;
#826165
12
1$
#827155
13
1%
#827324
04
0&
#829363
16
1(
#829675
10
1"
#830000
b11 !
0)
#830990
1:
#832635
0?
#832653
1=
#836241
02
0$
#836339
14
1&
#840000
b111 !
b101 !
b100 !
1)
#841000
19
#841028
07
0:
#842770
0=
#842794
1?
#843543
1;
#843565
0?
#843566
0<
#845051
0>
#845054
0;
#845061
1A
#845064
1=
#848607
11
1#
#849226
03
0%
#850000
b101 !
0)
#850990
1:
#851962
06
0(
#852638
0A
#852660
1@
1>
#857020
13
1%
#858537
05
0'
#859228
16
1(
#860000
b111 !
b110 !
1)
#860990
17
#861028
0:
#862770
0@
#862773
0>
#862795
1A
#863381
1@
#863391
1>
#863409
0=
#866804
12
1$
#869696
06
0(
#870000
b111 !
0)
#870990
1:
#872638
0A
0@
0>
#872653
1=
#872655
1;
#872659
1<
#876241
02
0$
#876813
03
0%
#877966
01
0#
#878151
15
1'
#878995
00
0"
#879228
16
1(
#880000
b1111 !
b1011 !
b1001 !
b1000 !
1)
#880959
18
#881028
07
0:
#881038
09
#882770
0=
0;
#882772
0<
#882792
1@
#882795
1A
1>
#883541
0>
#883547
1=
#883560
0@
#885257
0A
#885259
0=
#885267
1>
#887813
11
1#
#888654
12
1$
#889035
10
1"
#889627
13
1%
#890000
b1001 !
0)
#890990
1:
#892638
0>
#892653
1=
#896241
02
0$
#896813
03
0%
#900000
b1011 !
b1010 !
1)
#900990
17
#901028
0:
#902770
0=
#902795
1>
#903381
1@
#903385
1A
#903407
1?
#903408
1<
#906165
12
1$
#907155
13
1%
#907324
04
0&
#908715
01
0#
#909258
05
0'
#910000
b1011 !
0)
#910286
06
0(
#910990
1:
#912635
0?
#912653
1=
#916241
02
0$
#916339
14
1&
#920000
b1111 !
b1101 !
b1100 !
1)
#921000
19
#921028
07
0:
#922770
0=
#922794
1?
#923560
0@
#923565
0?
#923566
0A
0<
#925051
0>
#925060
1?
#925061
1A
#925064
1=
#928607
11
1#
#928977
04
0&
#929073
15
1'
#929226
03
0%
#930000
b1101 !
0)
#930990
1:
#932638
0A
#932660
1@
1>
#937020
13
1%
#938537
05
0'
#939228
16
1(
#940000
b1111 !
b1110 !
1)
#940990
17
#941028
0:
#942770
0@
#942773
0>
#942795
1A
#943381
1@
#943391
1>
#943409
0=
#946804
12
1$
#949696
06
0(
#950000
b1111 !
0)
#950990
1:
#952638
0>
#952653
1=
#952655
1;
#952659
1<
#956241
02
0$
#956813
03
0%
#957966
01
0#
#958995
00
0"
#960000
b111 !
b11 !
b1 !
b0 !
1)
#961004
08
#961028
07
0:
#961038
09
#962770
0=
0;
#962772
0<
#962795
1>
#963541
0>
#963547
1=
#963560
0@
#965257
0A
#965259
0=
#965260
0?
#965267
1>
#965464
1;
#967813
11
1#
#968654
12
1$
#968964
14
1&
#969073
15
1'
#969627
13
1%
#970000
b1 !
0)
#970990
1:
#971847
16
1(
#972638
0>
#972653
1=
#972659
1<
#972660
1A
#976241
02
0$
#976813
03
0%
#977966
01
0#
#979561
06
0(
#980000
b11 !
b10 !
1)
#980990
17
#981028
0:
#982770
0=
#982772
0<
#982773
0A
#982795
1>
#983407
1?
#983408
1<
#983410
0;
#986165
12
1$
#987155
13
1%
#987324
04
0&
#989363
16
1(
#989675
10
1"
#990000
b11 !
0)
#990990
1:
#992635
0?
#992653
1=
#996241
02
0$
#996339
14
1&
