File/simulation/qsim/dig_select.msim.vcd
$comment
	File created using the following command:
		vcd file dig_select.msim.vcd -direction
$end
$date
	Wed Dec 23 11:13:28 2020
$end
$version
	ModelSim Version 10.1d
$end
$timescale
	1ps
$end
$scope module dig_select_vlg_vec_tst $end
$var reg 3 ! add [2:0] $end
$var wire 1 " dig_01 [5] $end
$var wire 1 # dig_01 [4] $end
$var wire 1 $ dig_01 [3] $end
$var wire 1 % dig_01 [2] $end
$var wire 1 & dig_01 [1] $end
$var wire 1 ' dig_01 [0] $end
$var wire 1 ( sampler $end
$scope module i1 $end
$var wire 1 ) gnd $end
$var wire 1 * vcc $end
$var wire 1 + unknown $end
$var tri1 1 , devclrn $end
$var tri1 1 - devpor $end
$var tri1 1 . devoe $end
$var wire 1 / dig_01[5]~output_o $end
$var wire 1 0 dig_01[4]~output_o $end
$var wire 1 1 dig_01[3]~output_o $end
$var wire 1 2 dig_01[2]~output_o $end
$var wire 1 3 dig_01[1]~output_o $end
$var wire 1 4 dig_01[0]~output_o $end
$var wire 1 5 add[2]~input_o $end
$var wire 1 6 add[1]~input_o $end
$var wire 1 7 add[0]~input_o $end
$var wire 1 8 inst|15~0_combout $end
$var wire 1 9 inst|15~1_combout $end
$var wire 1 : inst|15~2_combout $end
$var wire 1 ; inst|15~3_combout $end
$var wire 1 < inst|15~4_combout $end
$var wire 1 = inst|15~5_combout $end
$upscope $end
$upscope $end
$enddefinitions $end
#0
$dumpvars
b0 !
x'
x&
x%
x$
x#
x"
x(
0)
1*
x+
1,
1-
1.
x/
x0
x1
x2
x3
x4
05
06
07
x8
x9
x:
x;
x<
x=
$end
#1235
0;
#1236
0:
#3440
0<
#3442
08
#4163
09
#4181
1=
#4732
11
1$
#5000
b100 !
0(
#5127
12
1%
#6000
15
#8055
04
0'
#8340
13
1&
#8718
1/
1"
#9792
10
1#
#9956
19
#9977
0=
#10000
b110 !
b10 !
1(
#10990
16
#11038
05
#12131
09
#13670
14
1'
#15000
b110 !
0(
#15199
1;
#16000
15
#19257
02
0%
#19970
0;
#20000
b111 !
b101 !
b1 !
1(
#20990
17
#21028
06
#21038
05
#22272
19
#23862
12
1%
#24187
09
#24207
18
#25000
b101 !
0(
#25133
08
#25162
1<
#26000
15
#29889
18
#29906
0<
#30000
b111 !
b11 !
1(
#30070
03
0&
#30990
16
#31038
05
#32131
08
#34806
13
1&
#35000
b111 !
0(
#35159
1:
#36000
15
#38748
01
0$
#39916
0:
#40000
b110 !
b100 !
b0 !
1(
#41028
06
07
#41038
05
#42273
18
#43412
11
1$
#44470
08
#44494
19
#45000
b100 !
0(
#45201
09
#45219
1=
#46000
15
#49093
04
0'
#49956
19
#49977
0=
#50000
b110 !
b10 !
1(
#50990
16
#51038
05
#52131
09
#53670
14
1'
#55000
b110 !
0(
#55199
1;
#56000
15
#59257
02
0%
#59970
0;
#60000
b111 !
b101 !
b1 !
1(
#60990
17
#61028
06
#61038
05
#62272
19
#63862
12
1%
#64187
09
#64207
18
#65000
b101 !
0(
#65133
08
#65162
1<
#66000
15
#69889
18
#69906
0<
#70000
b111 !
b11 !
1(
#70070
03
0&
#70990
16
#71038
05
#72131
08
#74806
13
1&
#75000
b111 !
0(
#75159
1:
#76000
15
#78748
01
0$
#79916
0:
#80000
b110 !
b100 !
b0 !
1(
#81028
06
07
#81038
05
#82273
18
#83412
11
1$
#84470
08
#84494
19
#85000
b100 !
0(
#85201
09
#85219
1=
#86000
15
#89093
04
0'
#89956
19
#89977
0=
#90000
b110 !
b10 !
1(
#90990
16
#91038
05
#92131
09
#93670
14
1'
#95000
b110 !
0(
#95199
1;
#96000
15
#99257
02
0%
#99970
0;
#100000
b111 !
b101 !
b1 !
1(
#100990
17
#101028
06
#101038
05
#102272
19
#103862
12
1%
#104187
09
#104207
18
#105000
b101 !
0(
#105133
08
#105162
1<
#106000
15
#109889
18
#109906
0<
#110000
b111 !
b11 !
1(
#110070
03
0&
#110990
16
#111038
05
#112131
08
#114806
13
1&
#115000
b111 !
0(
#115159
1:
#116000
15
#118748
01
0$
#119916
0:
#120000
b110 !
b100 !
b0 !
1(
#121028
06
07
#121038
05
#122273
18
#123412
11
1$
#124470
08
#124494
19
#125000
b100 !
0(
#125201
09
#125219
1=
#126000
15
#129093
04
0'
#129956
19
#129977
0=
#130000
b110 !
b10 !
1(
#130990
16
#131038
05
#132131
09
#133670
14
1'
#135000
b110 !
0(
#135199
1;
#136000
15
#139257
02
0%
#139970
0;
#140000
b111 !
b101 !
b1 !
1(
#140990
17
#141028
06
#141038
05
#142272
19
#143862
12
1%
#144187
09
#144207
18
#145000
b101 !
0(
#145133
08
#145162
1<
#146000
15
#149889
18
#149906
0<
#150000
b111 !
b11 !
1(
#150070
03
0&
#150990
16
#151038
05
#152131
08
#154806
13
1&
#155000
b111 !
0(
#155159
1:
#156000
15
#158748
01
0$
#159916
0:
#160000
b110 !
b100 !
b0 !
1(
#161028
06
07
#161038
05
#162273
18
#163412
11
1$
#164470
08
#164494
19
#165000
b100 !
0(
#165201
09
#165219
1=
#166000
15
#169093
04
0'
#169956
19
#169977
0=
#170000
b110 !
b10 !
1(
#170990
16
#171038
05
#172131
09
#173670
14
1'
#175000
b110 !
0(
#175199
1;
#176000
15
#179257
02
0%
#179970
0;
#180000
b111 !
b101 !
b1 !
1(
#180990
17
#181028
06
#181038
05
#182272
19
#183862
12
1%
#184187
09
#184207
18
#185000
b101 !
0(
#185133
08
#185162
1<
#186000
15
#189889
18
#189906
0<
#190000
b111 !
b11 !
1(
#190070
03
0&
#190990
16
#191038
05
#192131
08
#194806
13
1&
#195000
b111 !
0(
#195159
1:
#196000
15
#198748
01
0$
#199916
0:
#200000
b110 !
b100 !
b0 !
1(
#201028
06
07
#201038
05
#202273
18
#203412
11
1$
#204470
08
#204494
19
#205000
b100 !
0(
#205201
09
#205219
1=
#206000
15
#209093
04
0'
#209956
19
#209977
0=
#210000
b110 !
b10 !
1(
#210990
16
#211038
05
#212131
09
#213670
14
1'
#215000
b110 !
0(
#215199
1;
#216000
15
#219257
02
0%
#219970
0;
#220000
b111 !
b101 !
b1 !
1(
#220990
17
#221028
06
#221038
05
#222272
19
#223862
12
1%
#224187
09
#224207
18
#225000
b101 !
0(
#225133
08
#225162
1<
#226000
15
#229889
18
#229906
0<
#230000
b111 !
b11 !
1(
#230070
03
0&
#230990
16
#231038
05
#232131
08
#234806
13
1&
#235000
b111 !
0(
#235159
1:
#236000
15
#238748
01
0$
#239916
0:
#240000
b110 !
b100 !
b0 !
1(
#241028
06
07
#241038
05
#242273
18
#243412
11
1$
#244470
08
#244494
19
#245000
b100 !
0(
#245201
09
#245219
1=
#246000
15
#249093
04
0'
#249956
19
#249977
0=
#250000
b110 !
b10 !
1(
#250990
16
#251038
05
#252131
09
#253670
14
1'
#255000
b110 !
0(
#255199
1;
#256000
15
#259257
02
0%
#259970
0;
#260000
b111 !
b101 !
b1 !
1(
#260990
17
#261028
06
#261038
05
#262272
19
#263862
12
1%
#264187
09
#264207
18
#265000
b101 !
0(
#265133
08
#265162
1<
#266000
15
#269889
18
#269906
0<
#270000
b111 !
b11 !
1(
#270070
03
0&
#270990
16
#271038
05
#272131
08
#274806
13
1&
#275000
b111 !
0(
#275159
1:
#276000
15
#278748
01
0$
#279916
0:
#280000
b110 !
b100 !
b0 !
1(
#281028
06
07
#281038
05
#282273
18
#283412
11
1$
#284470
08
#284494
19
#285000
b100 !
0(
#285201
09
#285219
1=
#286000
15
#289093
04
0'
#289956
19
#289977
0=
#290000
b110 !
b10 !
1(
#290990
16
#291038
05
#292131
09
#293670
14
1'
#295000
b110 !
0(
#295199
1;
#296000
15
#299257
02
0%
#299970
0;
#300000
b111 !
b101 !
b1 !
1(
#300990
17
#301028
06
#301038
05
#302272
19
#303862
12
1%
#304187
09
#304207
18
#305000
b101 !
0(
#305133
08
#305162
1<
#306000
15
#309889
18
#309906
0<
#310000
b111 !
b11 !
1(
#310070
03
0&
#310990
16
#311038
05
#312131
08
#314806
13
1&
#315000
b111 !
0(
#315159
1:
#316000
15
#318748
01
0$
#319916
0:
#320000
b110 !
b100 !
b0 !
1(
#321028
06
07
#321038
05
#322273
18
#323412
11
1$
#324470
08
#324494
19
#325000
b100 !
0(
#325201
09
#325219
1=
#326000
15
#329093
04
0'
#329956
19
#329977
0=
#330000
b110 !
b10 !
1(
#330990
16
#331038
05
#332131
09
#333670
14
1'
#335000
b110 !
0(
#335199
1;
#336000
15
#339257
02
0%
#339970
0;
#340000
b111 !
b101 !
b1 !
1(
#340990
17
#341028
06
#341038
05
#342272
19
#343862
12
1%
#344187
09
#344207
18
#345000
b101 !
0(
#345133
08
#345162
1<
#346000
15
#349889
18
#349906
0<
#350000
b111 !
b11 !
1(
#350070
03
0&
#350990
16
#351038
05
#352131
08
#354806
13
1&
#355000
b111 !
0(
#355159
1:
#356000
15
#358748
01
0$
#359916
0:
#360000
b110 !
b100 !
b0 !
1(
#361028
06
07
#361038
05
#362273
18
#363412
11
1$
#364470
08
#364494
19
#365000
b100 !
0(
#365201
09
#365219
1=
#366000
15
#369093
04
0'
#369956
19
#369977
0=
#370000
b110 !
b10 !
1(
#370990
16
#371038
05
#372131
09
#373670
14
1'
#375000
b110 !
0(
#375199
1;
#376000
15
#379257
02
0%
#379970
0;
#380000
b111 !
b101 !
b1 !
1(
#380990
17
#381028
06
#381038
05
#382272
19
#383862
12
1%
#384187
09
#384207
18
#385000
b101 !
0(
#385133
08
#385162
1<
#386000
15
#389889
18
#389906
0<
#390000
b111 !
b11 !
1(
#390070
03
0&
#390990
16
#391038
05
#392131
08
#394806
13
1&
#395000
b111 !
0(
#395159
1:
#396000
15
#398748
01
0$
#399916
0:
#400000
b110 !
b100 !
b0 !
1(
#401028
06
07
#401038
05
#402273
18
#403412
11
1$
#404470
08
#404494
19
#405000
b100 !
0(
#405201
09
#405219
1=
#406000
15
#409093
04
0'
#409956
19
#409977
0=
#410000
b110 !
b10 !
1(
#410990
16
#411038
05
#412131
09
#413670
14
1'
#415000
b110 !
0(
#415199
1;
#416000
15
#419257
02
0%
#419970
0;
#420000
b111 !
b101 !
b1 !
1(
#420990
17
#421028
06
#421038
05
#422272
19
#423862
12
1%
#424187
09
#424207
18
#425000
b101 !
0(
#425133
08
#425162
1<
#426000
15
#429889
18
#429906
0<
#430000
b111 !
b11 !
1(
#430070
03
0&
#430990
16
#431038
05
#432131
08
#434806
13
1&
#435000
b111 !
0(
#435159
1:
#436000
15
#438748
01
0$
#439916
0:
#440000
b110 !
b100 !
b0 !
1(
#441028
06
07
#441038
05
#442273
18
#443412
11
1$
#444470
08
#444494
19
#445000
b100 !
0(
#445201
09
#445219
1=
#446000
15
#449093
04
0'
#449956
19
#449977
0=
#450000
b110 !
b10 !
1(
#450990
16
#451038
05
#452131
09
#453670
14
1'
#455000
b110 !
0(
#455199
1;
#456000
15
#459257
02
0%
#459970
0;
#460000
b111 !
b101 !
b1 !
1(
#460990
17
#461028
06
#461038
05
#462272
19
#463862
12
1%
#464187
09
#464207
18
#465000
b101 !
0(
#465133
08
#465162
1<
#466000
15
#469889
18
#469906
0<
#470000
b111 !
b11 !
1(
#470070
03
0&
#470990
16
#471038
05
#472131
08
#474806
13
1&
#475000
b111 !
0(
#475159
1:
#476000
15
#478748
01
0$
#479916
0:
#480000
b110 !
b100 !
b0 !
1(
#481028
06
07
#481038
05
#482273
18
#483412
11
1$
#484470
08
#484494
19
#485000
b100 !
0(
#485201
09
#485219
1=
#486000
15
#489093
04
0'
#489956
19
#489977
0=
#490000
b110 !
b10 !
1(
#490990
16
#491038
05
#492131
09
#493670
14
1'
#495000
b110 !
0(
#495199
1;
#496000
15
#499257
02
0%
#499970
0;
#500000
b111 !
b101 !
b1 !
1(
#500990
17
#501028
06
#501038
05
#502272
19
#503862
12
1%
#504187
09
#504207
18
#505000
b101 !
0(
#505133
08
#505162
1<
#506000
15
#509889
18
#509906
0<
#510000
b111 !
b11 !
1(
#510070
03
0&
#510990
16
#511038
05
#512131
08
#514806
13
1&
#515000
b111 !
0(
#515159
1:
#516000
15
#518748
01
0$
#519916
0:
#520000
b110 !
b100 !
b0 !
1(
#521028
06
07
#521038
05
#522273
18
#523412
11
1$
#524470
08
#524494
19
#525000
b100 !
0(
#525201
09
#525219
1=
#526000
15
#529093
04
0'
#529956
19
#529977
0=
#530000
b110 !
b10 !
1(
#530990
16
#531038
05
#532131
09
#533670
14
1'
#535000
b110 !
0(
#535199
1;
#536000
15
#539257
02
0%
#539970
0;
#540000
b111 !
b101 !
b1 !
1(
#540990
17
#541028
06
#541038
05
#542272
19
#543862
12
1%
#544187
09
#544207
18
#545000
b101 !
0(
#545133
08
#545162
1<
#546000
15
#549889
18
#549906
0<
#550000
b111 !
b11 !
1(
#550070
03
0&
#550990
16
#551038
05
#552131
08
#554806
13
1&
#555000
b111 !
0(
#555159
1:
#556000
15
#558748
01
0$
#559916
0:
#560000
b110 !
b100 !
b0 !
1(
#561028
06
07
#561038
05
#562273
18
#563412
11
1$
#564470
08
#564494
19
#565000
b100 !
0(
#565201
09
#565219
1=
#566000
15
#569093
04
0'
#569956
19
#569977
0=
#570000
b110 !
b10 !
1(
#570990
16
#571038
05
#572131
09
#573670
14
1'
#575000
b110 !
0(
#575199
1;
#576000
15
#579257
02
0%
#579970
0;
#580000
b111 !
b101 !
b1 !
1(
#580990
17
#581028
06
#581038
05
#582272
19
#583862
12
1%
#584187
09
#584207
18
#585000
b101 !
0(
#585133
08
#585162
1<
#586000
15
#589889
18
#589906
0<
#590000
b111 !
b11 !
1(
#590070
03
0&
#590990
16
#591038
05
#592131
08
#594806
13
1&
#595000
b111 !
0(
#595159
1:
#596000
15
#598748
01
0$
#599916
0:
#600000
b110 !
b100 !
b0 !
1(
#601028
06
07
#601038
05
#602273
18
#603412
11
1$
#604470
08
#604494
19
#605000
b100 !
0(
#605201
09
#605219
1=
#606000
15
#609093
04
0'
#609956
19
#609977
0=
#610000
b110 !
b10 !
1(
#610990
16
#611038
05
#612131
09
#613670
14
1'
#615000
b110 !
0(
#615199
1;
#616000
15
#619257
02
0%
#619970
0;
#620000
b111 !
b101 !
b1 !
1(
#620990
17
#621028
06
#621038
05
#622272
19
#623862
12
1%
#624187
09
#624207
18
#625000
b101 !
0(
#625133
08
#625162
1<
#626000
15
#629889
18
#629906
0<
#630000
b111 !
b11 !
1(
#630070
03
0&
#630990
16
#631038
05
#632131
08
#634806
13
1&
#635000
b111 !
0(
#635159
1:
#636000
15
#638748
01
0$
#639916
0:
#640000
b110 !
b100 !
b0 !
1(
#641028
06
07
#641038
05
#642273
18
#643412
11
1$
#644470
08
#644494
19
#645000
b100 !
0(
#645201
09
#645219
1=
#646000
15
#649093
04
0'
#649956
19
#649977
0=
#650000
b110 !
b10 !
1(
#650990
16
#651038
05
#652131
09
#653670
14
1'
#655000
b110 !
0(
#655199
1;
#656000
15
#659257
02
0%
#659970
0;
#660000
b111 !
b101 !
b1 !
1(
#660990
17
#661028
06
#661038
05
#662272
19
#663862
12
1%
#664187
09
#664207
18
#665000
b101 !
0(
#665133
08
#665162
1<
#666000
15
#669889
18
#669906
0<
#670000
b111 !
b11 !
1(
#670070
03
0&
#670990
16
#671038
05
#672131
08
#674806
13
1&
#675000
b111 !
0(
#675159
1:
#676000
15
#678748
01
0$
#679916
0:
#680000
b110 !
b100 !
b0 !
1(
#681028
06
07
#681038
05
#682273
18
#683412
11
1$
#684470
08
#684494
19
#685000
b100 !
0(
#685201
09
#685219
1=
#686000
15
#689093
04
0'
#689956
19
#689977
0=
#690000
b110 !
b10 !
1(
#690990
16
#691038
05
#692131
09
#693670
14
1'
#695000
b110 !
0(
#695199
1;
#696000
15
#699257
02
0%
#699970
0;
#700000
b111 !
b101 !
b1 !
1(
#700990
17
#701028
06
#701038
05
#702272
19
#703862
12
1%
#704187
09
#704207
18
#705000
b101 !
0(
#705133
08
#705162
1<
#706000
15
#709889
18
#709906
0<
#710000
b111 !
b11 !
1(
#710070
03
0&
#710990
16
#711038
05
#712131
08
#714806
13
1&
#715000
b111 !
0(
#715159
1:
#716000
15
#718748
01
0$
#719916
0:
#720000
b110 !
b100 !
b0 !
1(
#721028
06
07
#721038
05
#722273
18
#723412
11
1$
#724470
08
#724494
19
#725000
b100 !
0(
#725201
09
#725219
1=
#726000
15
#729093
04
0'
#729956
19
#729977
0=
#730000
b110 !
b10 !
1(
#730990
16
#731038
05
#732131
09
#733670
14
1'
#735000
b110 !
0(
#735199
1;
#736000
15
#739257
02
0%
#739970
0;
#740000
b111 !
b101 !
b1 !
1(
#740990
17
#741028
06
#741038
05
#742272
19
#743862
12
1%
#744187
09
#744207
18
#745000
b101 !
0(
#745133
08
#745162
1<
#746000
15
#749889
18
#749906
0<
#750000
b111 !
b11 !
1(
#750070
03
0&
#750990
16
#751038
05
#752131
08
#754806
13
1&
#755000
b111 !
0(
#755159
1:
#756000
15
#758748
01
0$
#759916
0:
#760000
b110 !
b100 !
b0 !
1(
#761028
06
07
#761038
05
#762273
18
#763412
11
1$
#764470
08
#764494
19
#765000
b100 !
0(
#765201
09
#765219
1=
#766000
15
#769093
04
0'
#769956
19
#769977
0=
#770000
b110 !
b10 !
1(
#770990
16
#771038
05
#772131
09
#773670
14
1'
#775000
b110 !
0(
#775199
1;
#776000
15
#779257
02
0%
#779970
0;
#780000
b111 !
b101 !
b1 !
1(
#780990
17
#781028
06
#781038
05
#782272
19
#783862
12
1%
#784187
09
#784207
18
#785000
b101 !
0(
#785133
08
#785162
1<
#786000
15
#789889
18
#789906
0<
#790000
b111 !
b11 !
1(
#790070
03
0&
#790990
16
#791038
05
#792131
08
#794806
13
1&
#795000
b111 !
0(
#795159
1:
#796000
15
#798748
01
0$
#799916
0:
#800000
b110 !
b100 !
b0 !
1(
#801028
06
07
#801038
05
#802273
18
#803412
11
1$
#804470
08
#804494
19
#805000
b100 !
0(
#805201
09
#805219
1=
#806000
15
#809093
04
0'
#809956
19
#809977
0=
#810000
b110 !
b10 !
1(
#810990
16
#811038
05
#812131
09
#813670
14
1'
#815000
b110 !
0(
#815199
1;
#816000
15
#819257
02
0%
#819970
0;
#820000
b111 !
b101 !
b1 !
1(
#820990
17
#821028
06
#821038
05
#822272
19
#823862
12
1%
#824187
09
#824207
18
#825000
b101 !
0(
#825133
08
#825162
1<
#826000
15
#829889
18
#829906
0<
#830000
b111 !
b11 !
1(
#830070
03
0&
#830990
16
#831038
05
#832131
08
#834806
13
1&
#835000
b111 !
0(
#835159
1:
#836000
15
#838748
01
0$
#839916
0:
#840000
b110 !
b100 !
b0 !
1(
#841028
06
07
#841038
05
#842273
18
#843412
11
1$
#844470
08
#844494
19
#845000
b100 !
0(
#845201
09
#845219
1=
#846000
15
#849093
04
0'
#849956
19
#849977
0=
#850000
b110 !
b10 !
1(
#850990
16
#851038
05
#852131
09
#853670
14
1'
#855000
b110 !
0(
#855199
1;
#856000
15
#859257
02
0%
#859970
0;
#860000
b111 !
b101 !
b1 !
1(
#860990
17
#861028
06
#861038
05
#862272
19
#863862
12
1%
#864187
09
#864207
18
#865000
b101 !
0(
#865133
08
#865162
1<
#866000
15
#869889
18
#869906
0<
#870000
b111 !
b11 !
1(
#870070
03
0&
#870990
16
#871038
05
#872131
08
#874806
13
1&
#875000
b111 !
0(
#875159
1:
#876000
15
#878748
01
0$
#879916
0:
#880000
b110 !
b100 !
b0 !
1(
#881028
06
07
#881038
05
#882273
18
#883412
11
1$
#884470
08
#884494
19
#885000
b100 !
0(
#885201
09
#885219
1=
#886000
15
#889093
04
0'
#889956
19
#889977
0=
#890000
b110 !
b10 !
1(
#890990
16
#891038
05
#892131
09
#893670
14
1'
#895000
b110 !
0(
#895199
1;
#896000
15
#899257
02
0%
#899970
0;
#900000
b111 !
b101 !
b1 !
1(
#900990
17
#901028
06
#901038
05
#902272
19
#903862
12
1%
#904187
09
#904207
18
#905000
b101 !
0(
#905133
08
#905162
1<
#906000
15
#909889
18
#909906
0<
#910000
b111 !
b11 !
1(
#910070
03
0&
#910990
16
#911038
05
#912131
08
#914806
13
1&
#915000
b111 !
0(
#915159
1:
#916000
15
#918748
01
0$
#919916
0:
#920000
b110 !
b100 !
b0 !
1(
#921028
06
07
#921038
05
#922273
18
#923412
11
1$
#924470
08
#924494
19
#925000
b100 !
0(
#925201
09
#925219
1=
#926000
15
#929093
04
0'
#929956
19
#929977
0=
#930000
b110 !
b10 !
1(
#930990
16
#931038
05
#932131
09
#933670
14
1'
#935000
b110 !
0(
#935199
1;
#936000
15
#939257
02
0%
#939970
0;
#940000
b111 !
b101 !
b1 !
1(
#940990
17
#941028
06
#941038
05
#942272
19
#943862
12
1%
#944187
09
#944207
18
#945000
b101 !
0(
#945133
08
#945162
1<
#946000
15
#949889
18
#949906
0<
#950000
b111 !
b11 !
1(
#950070
03
0&
#950990
16
#951038
05
#952131
08
#954806
13
1&
#955000
b111 !
0(
#955159
1:
#956000
15
#958748
01
0$
#959916
0:
#960000
b110 !
b100 !
b0 !
1(
#961028
06
07
#961038
05
#962273
18
#963412
11
1$
#964470
08
#964494
19
#965000
b100 !
0(
#965201
09
#965219
1=
#966000
15
#969093
04
0'
#969956
19
#969977
0=
#970000
b110 !
b10 !
1(
#970990
16
#971038
05
#972131
09
#973670
14
1'
#975000
b110 !
0(
#975199
1;
#976000
15
#979257
02
0%
#979970
0;
#980000
b111 !
b101 !
b1 !
1(
#980990
17
#981028
06
#981038
05
#982272
19
#983862
12
1%
#984187
09
#984207
18
#985000
b101 !
0(
#985133
08
#985162
1<
#986000
15
#989889
18
#989906
0<
#990000
b111 !
b11 !
1(
#990070
03
0&
#990990
16
#991038
05
#992131
08
#994806
13
1&
#995000
b111 !
0(
#995159
1:
#996000
15
#998748
01
0$
#999916
0:
