File/simulation/qsim/fre_div.msim.vcd
$comment
	File created using the following command:
		vcd file fre_div.msim.vcd -direction
$end
$date
	Wed Dec 23 11:43:34 2020
$end
$version
	ModelSim Version 10.1d
$end
$timescale
	1ps
$end
$scope module fre_div_vlg_vec_tst $end
$var reg 1 ! clk_50mHz $end
$var wire 1 " clk_1HZ $end
$var wire 1 # clk_1KHZ $end
$var wire 1 $ clk_500Hz $end
$var wire 1 % sampler $end
$scope module i1 $end
$var wire 1 & gnd $end
$var wire 1 ' vcc $end
$var wire 1 ( unknown $end
$var tri1 1 ) devclrn $end
$var tri1 1 * devpor $end
$var tri1 1 + devoe $end
$var wire 1 , clk_500Hz~output_o $end
$var wire 1 - clk_1KHZ~output_o $end
$var wire 1 . clk_1HZ~output_o $end
$var wire 1 / clk_50mHz~input_o $end
$var wire 1 0 inst|inst|34~0_combout $end
$var wire 1 1 inst|inst|34~feeder_combout $end
$var wire 1 2 inst|inst|34~q $end
$var wire 1 3 inst|inst|29~combout $end
$var wire 1 4 inst|inst|33~0_combout $end
$var wire 1 5 inst|inst|33~q $end
$var wire 1 6 inst|inst|32~0_combout $end
$var wire 1 7 inst|inst|32~q $end
$var wire 1 8 inst|inst|31~0_combout $end
$var wire 1 9 inst|inst|31~feeder_combout $end
$var wire 1 : inst|inst|31~q $end
$var wire 1 ; inst|inst|7~0_combout $end
$var wire 1 < inst|inst|7~feeder_combout $end
$var wire 1 = inst|inst|7~q $end
$var wire 1 > inst|inst|20~combout $end
$var wire 1 ? inst|inst|6~0_combout $end
$var wire 1 @ inst|inst|6~q $end
$var wire 1 A inst|inst|5~0_combout $end
$var wire 1 B inst|inst|5~q $end
$var wire 1 C inst|inst|3~0_combout $end
$var wire 1 D inst|inst|3~feeder_combout $end
$var wire 1 E inst|inst|3~q $end
$var wire 1 F inst1|inst|34~0_combout $end
$var wire 1 G inst1|inst|34~feeder_combout $end
$var wire 1 H inst1|inst|34~q $end
$var wire 1 I inst1|inst|29~combout $end
$var wire 1 J inst1|inst|33~0_combout $end
$var wire 1 K inst1|inst|33~q $end
$var wire 1 L inst1|inst|32~0_combout $end
$var wire 1 M inst1|inst|32~q $end
$var wire 1 N inst1|inst|31~0_combout $end
$var wire 1 O inst1|inst|31~feeder_combout $end
$var wire 1 P inst1|inst|31~q $end
$var wire 1 Q inst1|inst|7~0_combout $end
$var wire 1 R inst1|inst|7~feeder_combout $end
$var wire 1 S inst1|inst|7~q $end
$var wire 1 T inst1|inst|20~combout $end
$var wire 1 U inst1|inst|6~0_combout $end
$var wire 1 V inst1|inst|6~q $end
$var wire 1 W inst1|inst|5~0_combout $end
$var wire 1 X inst1|inst|5~q $end
$var wire 1 Y inst1|inst|3~0_combout $end
$var wire 1 Z inst1|inst|3~feeder_combout $end
$var wire 1 [ inst1|inst|3~q $end
$var wire 1 \ inst3|20~combout $end
$var wire 1 ] inst3|6~0_combout $end
$var wire 1 ^ inst3|6~feeder_combout $end
$var wire 1 _ inst3|6~q $end
$var wire 1 ` inst3|5~0_combout $end
$var wire 1 a inst3|5~q $end
$var wire 1 b inst3|3~0_combout $end
$var wire 1 c inst3|3~feeder_combout $end
$var wire 1 d inst3|3~q $end
$var wire 1 e inst3|7~0_combout $end
$var wire 1 f inst3|7~feeder_combout $end
$var wire 1 g inst3|7~q $end
$var wire 1 h inst3|29~combout $end
$var wire 1 i inst3|33~0_combout $end
$var wire 1 j inst3|33~feeder_combout $end
$var wire 1 k inst3|33~q $end
$var wire 1 l inst3|32~0_combout $end
$var wire 1 m inst3|32~q $end
$var wire 1 n inst3|31~0_combout $end
$var wire 1 o inst3|31~q $end
$var wire 1 p inst2|inst|34~0_combout $end
$var wire 1 q inst2|inst|34~feeder_combout $end
$var wire 1 r inst2|inst|34~q $end
$var wire 1 s inst2|inst|29~combout $end
$var wire 1 t inst2|inst|33~0_combout $end
$var wire 1 u inst2|inst|33~q $end
$var wire 1 v inst2|inst|32~0_combout $end
$var wire 1 w inst2|inst|32~q $end
$var wire 1 x inst2|inst|31~0_combout $end
$var wire 1 y inst2|inst|31~feeder_combout $end
$var wire 1 z inst2|inst|31~q $end
$var wire 1 { inst2|inst|7~0_combout $end
$var wire 1 | inst2|inst|7~feeder_combout $end
$var wire 1 } inst2|inst|7~q $end
$var wire 1 ~ inst2|inst|20~combout $end
$var wire 1 !! inst2|inst|6~0_combout $end
$var wire 1 "! inst2|inst|6~feeder_combout $end
$var wire 1 #! inst2|inst|6~q $end
$var wire 1 $! inst2|inst|5~0_combout $end
$var wire 1 %! inst2|inst|5~q $end
$var wire 1 &! inst2|inst|3~0_combout $end
$var wire 1 '! inst2|inst|3~q $end
$upscope $end
$upscope $end
$enddefinitions $end
#0
$dumpvars
0!
x"
x#
x$
x%
0&
1'
x(
1)
1*
1+
x,
x-
x.
0/
x0
x1
02
x3
x4
05
16
07
x8
x9
0:
x;
x<
0=
x>
x?
0@
1A
0B
xC
xD
0E
xF
xG
0H
xI
xJ
0K
1L
0M
xN
xO
0P
xQ
xR
0S
xT
xU
0V
1W
0X
xY
xZ
0[
x\
x]
x^
0_
1`
0a
xb
xc
0d
xe
xf
0g
xh
xi
xj
0k
1l
0m
xn
0o
xp
xq
0r
xs
xt
0u
1v
0w
xx
xy
0z
x{
x|
0}
x~
x!!
x"!
0#!
1$!
0%!
x&!
0'!
$end
#521
0x
0&!
#522
0C
0N
#586
1~
#606
1\
1h
#675
0Y
#677
08
#714
0b
#723
1?
#738
1J
#739
1t
#744
1T
#748
13
#842
0n
#881
14
#886
1F
#901
1;
#933
1I
0y
#935
0O
0D
#941
1{
#946
1U
#954
1!!
#955
1>
#957
1Q
#958
1s
#1007
1i
#1089
0Z
#1090
09
#1096
1]
#1103
1p
#1127
0c
#1405
xd
#1417
1e
#1559
1|
#1603
10
#1705
1"!
#1719
1<
#1731
1R
#1796
x5
#1802
1G
#1831
x}
#1861
xV
#1900
1^
#1924
xS
#2028
1j
#2066
1q
#2316
x~
#2639
xT
#2640
x4
#2679
1f
#2695
x{
#2729
xU
#2805
xQ
#3234
11
#3266
x|
#3551
xR
#4276
0.
0"
#4493
0,
0$
#10000
1!
0%
#10990
1/
#20000
0!
1%
#21028
0/
#23271
12
#23978
03
#24940
00
#26387
01
#30000
1!
0%
#30990
1/
#40000
0!
1%
#41028
0/
#43271
02
#44019
13
#44874
10
#46505
11
#50000
1!
0%
#50990
1/
#60000
0!
1%
#61028
0/
#63271
12
#63978
03
#64940
00
#66387
01
#70000
1!
0%
#70990
1/
#80000
0!
1%
#81028
0/
#83271
02
#84019
13
#84874
10
#86505
11
#90000
1!
0%
#90990
1/
#100000
0!
1%
#101028
0/
#103271
12
#103978
03
#104940
00
#106387
01
#110000
1!
0%
#110990
1/
#120000
0!
1%
#121028
0/
#123271
02
#124019
13
#124874
10
#126505
11
#130000
1!
0%
#130990
1/
#140000
0!
1%
#141028
0/
#143271
12
#143978
03
#144940
00
#146387
01
#150000
1!
0%
#150990
1/
#160000
0!
1%
#161028
0/
#163271
02
#164019
13
#164874
10
#166505
11
#170000
1!
0%
#170990
1/
#180000
0!
1%
#181028
0/
#183271
12
#183978
03
#184940
00
#186387
01
#190000
1!
0%
#190990
1/
#200000
0!
1%
#201028
0/
#203271
02
#204019
13
#204874
10
#206505
11
#210000
1!
0%
#210990
1/
#220000
0!
1%
#221028
0/
#223271
12
#223978
03
#224940
00
#226387
01
#230000
1!
0%
#230990
1/
#240000
0!
1%
#241028
0/
#243271
02
#244019
13
#244874
10
#246505
11
#250000
1!
0%
#250990
1/
#260000
0!
1%
#261028
0/
#263271
12
#263978
03
#264940
00
#266387
01
#270000
1!
0%
#270990
1/
#280000
0!
1%
#281028
0/
#283271
02
#284019
13
#284874
10
#286505
11
#290000
1!
0%
#290990
1/
#300000
0!
1%
#301028
0/
#303271
12
#303978
03
#304940
00
#306387
01
#310000
1!
0%
#310990
1/
#320000
0!
1%
#321028
0/
#323271
02
#324019
13
#324874
10
#326505
11
#330000
1!
0%
#330990
1/
#340000
0!
1%
#341028
0/
#343271
12
#343978
03
#344940
00
#346387
01
#350000
1!
0%
#350990
1/
#360000
0!
1%
#361028
0/
#363271
02
#364019
13
#364874
10
#366505
11
#370000
1!
0%
#370990
1/
#380000
0!
1%
#381028
0/
#383271
12
#383978
03
#384940
00
#386387
01
#390000
1!
0%
#390990
1/
#400000
0!
1%
#401028
0/
#403271
02
#404019
13
#404874
10
#406505
11
#410000
1!
0%
#410990
1/
#420000
0!
1%
#421028
0/
#423271
12
#423978
03
#424940
00
#426387
01
#430000
1!
0%
#430990
1/
#440000
0!
1%
#441028
0/
#443271
02
#444019
13
#444874
10
#446505
11
#450000
1!
0%
#450990
1/
#460000
0!
1%
#461028
0/
#463271
12
#463978
03
#464940
00
#466387
01
#470000
1!
0%
#470990
1/
#480000
0!
1%
#481028
0/
#483271
02
#484019
13
#484874
10
#486505
11
#490000
1!
0%
#490990
1/
#500000
0!
1%
#501028
0/
#503271
12
#503978
03
#504940
00
#506387
01
#510000
1!
0%
#510990
1/
#520000
0!
1%
#521028
0/
#523271
02
#524019
13
#524874
10
#526505
11
#530000
1!
0%
#530990
1/
#540000
0!
1%
#541028
0/
#543271
12
#543978
03
#544940
00
#546387
01
#550000
1!
0%
#550990
1/
#560000
0!
1%
#561028
0/
#563271
02
#564019
13
#564874
10
#566505
11
#570000
1!
0%
#570990
1/
#580000
0!
1%
#581028
0/
#583271
12
#583978
03
#584940
00
#586387
01
#590000
1!
0%
#590990
1/
#600000
0!
1%
#601028
0/
#603271
02
#604019
13
#604874
10
#606505
11
#610000
1!
0%
#610990
1/
#620000
0!
1%
#621028
0/
#623271
12
#623978
03
#624940
00
#626387
01
#630000
1!
0%
#630990
1/
#640000
0!
1%
#641028
0/
#643271
02
#644019
13
#644874
10
#646505
11
#650000
1!
0%
#650990
1/
#660000
0!
1%
#661028
0/
#663271
12
#663978
03
#664940
00
#666387
01
#670000
1!
0%
#670990
1/
#680000
0!
1%
#681028
0/
#683271
02
#684019
13
#684874
10
#686505
11
#690000
1!
0%
#690990
1/
#700000
0!
1%
#701028
0/
#703271
12
#703978
03
#704940
00
#706387
01
#710000
1!
0%
#710990
1/
#720000
0!
1%
#721028
0/
#723271
02
#724019
13
#724874
10
#726505
11
#730000
1!
0%
#730990
1/
#740000
0!
1%
#741028
0/
#743271
12
#743978
03
#744940
00
#746387
01
#750000
1!
0%
#750990
1/
#760000
0!
1%
#761028
0/
#763271
02
#764019
13
#764874
10
#766505
11
#770000
1!
0%
#770990
1/
#780000
0!
1%
#781028
0/
#783271
12
#783978
03
#784940
00
#786387
01
#790000
1!
0%
#790990
1/
#800000
0!
1%
#801028
0/
#803271
02
#804019
13
#804874
10
#806505
11
#810000
1!
0%
#810990
1/
#820000
0!
1%
#821028
0/
#823271
12
#823978
03
#824940
00
#826387
01
#830000
1!
0%
#830990
1/
#840000
0!
1%
#841028
0/
#843271
02
#844019
13
#844874
10
#846505
11
#850000
1!
0%
#850990
1/
#860000
0!
1%
#861028
0/
#863271
12
#863978
03
#864940
00
#866387
01
#870000
1!
0%
#870990
1/
#880000
0!
1%
#881028
0/
#883271
02
#884019
13
#884874
10
#886505
11
#890000
1!
0%
#890990
1/
#900000
0!
1%
#901028
0/
#903271
12
#903978
03
#904940
00
#906387
01
#910000
1!
0%
#910990
1/
#920000
0!
1%
#921028
0/
#923271
02
#924019
13
#924874
10
#926505
11
#930000
1!
0%
#930990
1/
#940000
0!
1%
#941028
0/
#943271
12
#943978
03
#944940
00
#946387
01
#950000
1!
0%
#950990
1/
#960000
0!
1%
#961028
0/
#963271
02
#964019
13
#964874
10
#966505
11
#970000
1!
0%
#970990
1/
#980000
0!
1%
#981028
0/
#983271
12
#983978
03
#984940
00
#986387
01
#990000
1!
0%
