File/simulation/qsim/jicun.msim.vcd
$comment
	File created using the following command:
		vcd file jicun.msim.vcd -direction
$end
$date
	Fri Dec 18 08:16:49 2020
$end
$version
	ModelSim Version 10.1d
$end
$timescale
	1ps
$end
$scope module jicun_vlg_vec_tst $end
$var reg 1 ! A_01 $end
$var reg 1 " clk_01 $end
$var wire 1 # QA $end
$var wire 1 $ QB $end
$var wire 1 % QE $end
$var wire 1 & sampler $end
$scope module i1 $end
$var wire 1 ' gnd $end
$var wire 1 ( vcc $end
$var wire 1 ) unknown $end
$var tri1 1 * devclrn $end
$var tri1 1 + devpor $end
$var tri1 1 , devoe $end
$var wire 1 - QA~output_o $end
$var wire 1 . QB~output_o $end
$var wire 1 / QE~output_o $end
$var wire 1 0 clk_01~input_o $end
$var wire 1 1 clk_01~inputclkctrl_outclk $end
$var wire 1 2 A_01~input_o $end
$var wire 1 3 inst|3~feeder_combout $end
$var wire 1 4 inst|3~q $end
$var wire 1 5 inst|4~feeder_combout $end
$var wire 1 6 inst|4~q $end
$var wire 1 7 inst|5~feeder_combout $end
$var wire 1 8 inst|5~q $end
$var wire 1 9 inst|6~feeder_combout $end
$var wire 1 : inst|6~q $end
$var wire 1 ; inst|7~feeder_combout $end
$var wire 1 < inst|7~q $end
$upscope $end
$upscope $end
$enddefinitions $end
#0
$dumpvars
1!
0"
x#
x$
x%
x&
0'
1(
x)
1*
1+
1,
x-
x.
x/
00
x1
12
x3
04
x5
06
x7
08
x9
0:
x;
0<
$end
#189
01
#522
09
0;
#545
05
#547
07
#3180
0.
0$
#3218
0-
0#
#3527
13
#4741
0/
0%
#5000
1"
0&
#5990
10
#6190
11
#8321
14
#8818
15
#10000
0"
1&
#11028
00
#11217
01
#11671
1-
1#
#15000
1"
0&
#15990
10
#16190
11
#18321
16
#18820
17
#20000
0"
1&
#21028
00
#21217
01
#21616
1.
1$
#25000
1"
0&
#25990
10
#26190
11
#28321
18
#28794
19
#30000
0"
1&
#31028
00
#31217
01
#35000
1"
0&
#35990
10
#36190
11
#38321
1:
#38794
1;
#40000
0"
1&
#41028
00
#41217
01
#45000
1"
0&
#45990
10
#46190
11
#48321
1<
#50000
0"
1&
#51028
00
#51217
01
#53039
1/
1%
#55000
1"
0&
#55990
10
#56190
11
#60000
0"
1&
#61028
00
#61217
01
#65000
1"
0&
#65990
10
#66190
11
#70000
0"
1&
#71028
00
#71217
01
#75000
1"
0&
#75990
10
#76190
11
#80000
0"
1&
#81028
00
#81217
01
#85000
1"
0&
#85990
10
#86190
11
#90000
0"
1&
#91028
00
#91217
01
#95000
1"
0&
#95990
10
#96190
11
#100000
0"
1&
#101028
00
#101217
01
#105000
1"
0&
#105990
10
#106190
11
#110000
0"
1&
#111028
00
#111217
01
#115000
1"
0&
#115990
10
#116190
11
#120000
0"
1&
#121028
00
#121217
01
#125000
1"
0&
#125990
10
#126190
11
#130000
0"
1&
#131028
00
#131217
01
#135000
1"
0&
#135990
10
#136190
11
#140000
0"
1&
#141028
00
#141217
01
#145000
1"
0&
#145990
10
#146190
11
#150000
0"
1&
#151028
00
#151217
01
#155000
1"
0&
#155990
10
#156190
11
#160000
0"
1&
#161028
00
#161217
01
#165000
1"
0&
#165990
10
#166190
11
#170000
0"
1&
#171028
00
#171217
01
#175000
1"
0&
#175990
10
#176190
11
#180000
0"
1&
#181028
00
#181217
01
#185000
1"
0&
#185990
10
#186190
11
#190000
0"
1&
#191028
00
#191217
01
#195000
1"
0&
#195990
10
#196190
11
#200000
0"
1&
#201028
00
#201217
01
#205000
1"
0&
#205990
10
#206190
11
#210000
0"
1&
#211028
00
#211217
01
#215000
1"
0&
#215990
10
#216190
11
#220000
0"
1&
#221028
00
#221217
01
#225000
1"
0&
#225990
10
#226190
11
#230000
0"
1&
#231028
00
#231217
01
#235000
1"
0&
#235990
10
#236190
11
#240000
0"
1&
#241028
00
#241217
01
#245000
1"
0&
#245990
10
#246190
11
#250000
0"
1&
#251028
00
#251217
01
#255000
1"
0&
#255990
10
#256190
11
#260000
0"
1&
#261028
00
#261217
01
#265000
1"
0&
#265990
10
#266190
11
#270000
0"
1&
#271028
00
#271217
01
#275000
1"
0&
#275990
10
#276190
11
#280000
0"
1&
#281028
00
#281217
01
#285000
1"
0&
#285990
10
#286190
11
#290000
0"
1&
#291028
00
#291217
01
#295000
1"
0&
#295990
10
#296190
11
#300000
0"
1&
#301028
00
#301217
01
#305000
1"
0&
#305990
10
#306190
11
#310000
0"
1&
#311028
00
#311217
01
#315000
1"
0&
#315990
10
#316190
11
#320000
0"
1&
#321028
00
#321217
01
#325000
1"
0&
#325990
10
#326190
11
#330000
0"
1&
#331028
00
#331217
01
#335000
1"
0&
#335990
10
#336190
11
#340000
0"
1&
#341028
00
#341217
01
#345000
1"
0&
#345990
10
#346190
11
#350000
0"
1&
#351028
00
#351217
01
#355000
1"
0&
#355990
10
#356190
11
#360000
0"
1&
#361028
00
#361217
01
#365000
1"
0&
#365990
10
#366190
11
#370000
0"
1&
#371028
00
#371217
01
#375000
1"
0&
#375990
10
#376190
11
#380000
0"
1&
#381028
00
#381217
01
#385000
1"
0&
#385990
10
#386190
11
#390000
0"
1&
#391028
00
#391217
01
#395000
1"
0&
#395990
10
#396190
11
#400000
0"
1&
#401028
00
#401217
01
#405000
1"
0&
#405990
10
#406190
11
#410000
0"
1&
#411028
00
#411217
01
#415000
1"
0&
#415990
10
#416190
11
#420000
0"
1&
#421028
00
#421217
01
#425000
1"
0&
#425990
10
#426190
11
#430000
0"
1&
#431028
00
#431217
01
#435000
1"
0&
#435990
10
#436190
11
#440000
0"
1&
#441028
00
#441217
01
#445000
1"
0&
#445990
10
#446190
11
#450000
0"
1&
#451028
00
#451217
01
#455000
1"
0&
#455990
10
#456190
11
#460000
0"
1&
#461028
00
#461217
01
#465000
1"
0&
#465990
10
#466190
11
#470000
0"
1&
#471028
00
#471217
01
#475000
1"
0&
#475990
10
#476190
11
#480000
0"
1&
#481028
00
#481217
01
#485000
1"
0&
#485990
10
#486190
11
#490000
0"
1&
#491028
00
#491217
01
#495000
1"
0&
#495990
10
#496190
11
#500000
0"
1&
#501028
00
#501217
01
#505000
1"
0&
#505990
10
#506190
11
#510000
0"
1&
#511028
00
#511217
01
#515000
1"
0&
#515990
10
#516190
11
#520000
0"
1&
#521028
00
#521217
01
#525000
1"
0&
#525990
10
#526190
11
#530000
0"
1&
#531028
00
#531217
01
#535000
1"
0&
#535990
10
#536190
11
#540000
0"
1&
#541028
00
#541217
01
#545000
1"
0&
#545990
10
#546190
11
#550000
0"
1&
#551028
00
#551217
01
#555000
1"
0&
#555990
10
#556190
11
#560000
0"
1&
#561028
00
#561217
01
#565000
1"
0&
#565990
10
#566190
11
#570000
0"
1&
#571028
00
#571217
01
#575000
1"
0&
#575990
10
#576190
11
#580000
0"
1&
#581028
00
#581217
01
#585000
1"
0&
#585990
10
#586190
11
#590000
0"
1&
#591028
00
#591217
01
#595000
1"
0&
#595990
10
#596190
11
#600000
0"
1&
#601028
00
#601217
01
#605000
1"
0&
#605990
10
#606190
11
#610000
0"
1&
#611028
00
#611217
01
#615000
1"
0&
#615990
10
#616190
11
#620000
0"
1&
#621028
00
#621217
01
#625000
1"
0&
#625990
10
#626190
11
#630000
0"
1&
#631028
00
#631217
01
#635000
1"
0&
#635990
10
#636190
11
#640000
0"
1&
#641028
00
#641217
01
#645000
1"
0&
#645990
10
#646190
11
#650000
0"
1&
#651028
00
#651217
01
#655000
1"
0&
#655990
10
#656190
11
#660000
0"
1&
#661028
00
#661217
01
#665000
1"
0&
#665990
10
#666190
11
#670000
0"
1&
#671028
00
#671217
01
#675000
1"
0&
#675990
10
#676190
11
#680000
0"
1&
#681028
00
#681217
01
#685000
1"
0&
#685990
10
#686190
11
#690000
0"
1&
#691028
00
#691217
01
#695000
1"
0&
#695990
10
#696190
11
#700000
0"
1&
#701028
00
#701217
01
#705000
1"
0&
#705990
10
#706190
11
#710000
0"
1&
#711028
00
#711217
01
#715000
1"
0&
#715990
10
#716190
11
#720000
0"
1&
#721028
00
#721217
01
#725000
1"
0&
#725990
10
#726190
11
#730000
0"
1&
#731028
00
#731217
01
#735000
1"
0&
#735990
10
#736190
11
#740000
0"
1&
#741028
00
#741217
01
#745000
1"
0&
#745990
10
#746190
11
#750000
0"
1&
#751028
00
#751217
01
#755000
1"
0&
#755990
10
#756190
11
#760000
0"
1&
#761028
00
#761217
01
#765000
1"
0&
#765990
10
#766190
11
#770000
0"
1&
#771028
00
#771217
01
#775000
1"
0&
#775990
10
#776190
11
#780000
0"
1&
#781028
00
#781217
01
#785000
1"
0&
#785990
10
#786190
11
#790000
0"
1&
#791028
00
#791217
01
#795000
1"
0&
#795990
10
#796190
11
#800000
0"
1&
#801028
00
#801217
01
#805000
1"
0&
#805990
10
#806190
11
#810000
0"
1&
#811028
00
#811217
01
#815000
1"
0&
#815990
10
#816190
11
#820000
0"
1&
#821028
00
#821217
01
#825000
1"
0&
#825990
10
#826190
11
#830000
0"
1&
#831028
00
#831217
01
#835000
1"
0&
#835990
10
#836190
11
#840000
0"
1&
#841028
00
#841217
01
#845000
1"
0&
#845990
10
#846190
11
#850000
0"
1&
#851028
00
#851217
01
#855000
1"
0&
#855990
10
#856190
11
#860000
0"
1&
#861028
00
#861217
01
#865000
1"
0&
#865990
10
#866190
11
#870000
0"
1&
#871028
00
#871217
01
#875000
1"
0&
#875990
10
#876190
11
#880000
0"
1&
#881028
00
#881217
01
#885000
1"
0&
#885990
10
#886190
11
#890000
0"
1&
#891028
00
#891217
01
#895000
1"
0&
#895990
10
#896190
11
#900000
0"
1&
#901028
00
#901217
01
#905000
1"
0&
#905990
10
#906190
11
#910000
0"
1&
#911028
00
#911217
01
#915000
1"
0&
#915990
10
#916190
11
#920000
0"
1&
#921028
00
#921217
01
#925000
1"
0&
#925990
10
#926190
11
#930000
0"
1&
#931028
00
#931217
01
#935000
1"
0&
#935990
10
#936190
11
#940000
0"
1&
#941028
00
#941217
01
#945000
1"
0&
#945990
10
#946190
11
#950000
0"
1&
#951028
00
#951217
01
#955000
1"
0&
#955990
10
#956190
11
#960000
0"
1&
#961028
00
#961217
01
#965000
1"
0&
#965990
10
#966190
11
#970000
0"
1&
#971028
00
#971217
01
#975000
1"
0&
#975990
10
#976190
11
#980000
0"
1&
#981028
00
#981217
01
#985000
1"
0&
#985990
10
#986190
11
#990000
0"
1&
#991028
00
#991217
01
#995000
1"
0&
