File/simulation/qsim/m100.msim.vcd
$comment
	File created using the following command:
		vcd file m100.msim.vcd -direction
$end
$date
	Wed Dec 23 15:39:56 2020
$end
$version
	ModelSim Version 10.1d
$end
$timescale
	1ps
$end
$scope module m100_vlg_vec_tst $end
$var reg 1 ! pin_name1 $end
$var wire 1 " pin_name2 $end
$var wire 1 # sampler $end
$scope module i1 $end
$var wire 1 $ gnd $end
$var wire 1 % vcc $end
$var wire 1 & unknown $end
$var tri1 1 ' devclrn $end
$var tri1 1 ( devpor $end
$var tri1 1 ) devoe $end
$var wire 1 * pin_name2~output_o $end
$var wire 1 + pin_name1~input_o $end
$var wire 1 , inst|34~0_combout $end
$var wire 1 - inst|34~feeder_combout $end
$var wire 1 . inst|34~q $end
$var wire 1 / inst|29~combout $end
$var wire 1 0 inst|33~0_combout $end
$var wire 1 1 inst|33~q $end
$var wire 1 2 inst|32~0_combout $end
$var wire 1 3 inst|32~q $end
$var wire 1 4 inst|31~0_combout $end
$var wire 1 5 inst|31~feeder_combout $end
$var wire 1 6 inst|31~q $end
$var wire 1 7 inst|7~0_combout $end
$var wire 1 8 inst|7~feeder_combout $end
$var wire 1 9 inst|7~q $end
$var wire 1 : inst|20~combout $end
$var wire 1 ; inst|6~0_combout $end
$var wire 1 < inst|6~q $end
$var wire 1 = inst|5~0_combout $end
$var wire 1 > inst|5~q $end
$var wire 1 ? inst|3~0_combout $end
$var wire 1 @ inst|3~q $end
$upscope $end
$upscope $end
$enddefinitions $end
#0
$dumpvars
0!
x"
x#
0$
1%
x&
1'
1(
1)
x*
0+
x,
x-
0.
x/
x0
01
12
03
x4
x5
06
x7
x8
09
x:
x;
0<
1=
0>
x?
0@
$end
#521
0?
#569
1:
#712
04
#735
1;
#737
1/
#895
10
#1123
05
#1181
17
#1625
1,
#1651
x<
#1811
x1
#2354
x;
#2406
18
#2674
x0
#3243
1-
#3624
0*
0"
#5000
1!
0#
#6000
1+
#10000
0!
1#
#11038
0+
#13080
1.
#13782
0/
#14843
0,
#15000
1!
0#
#16000
1+
#16315
0-
#20000
0!
1#
#21038
0+
#23080
0.
#23817
1/
#24705
1,
#25000
1!
0#
#26000
1+
#26323
1-
#30000
0!
1#
#31038
0+
#33080
1.
#33782
0/
#34843
0,
#35000
1!
0#
#36000
1+
#36315
0-
#40000
0!
1#
#41038
0+
#43080
0.
#43817
1/
#44705
1,
#45000
1!
0#
#46000
1+
#46323
1-
#50000
0!
1#
#51038
0+
#53080
1.
#53782
0/
#54843
0,
#55000
1!
0#
#56000
1+
#56315
0-
#60000
0!
1#
#61038
0+
#63080
0.
#63817
1/
#64705
1,
#65000
1!
0#
#66000
1+
#66323
1-
#70000
0!
1#
#71038
0+
#73080
1.
#73782
0/
#74843
0,
#75000
1!
0#
#76000
1+
#76315
0-
#80000
0!
1#
#81038
0+
#83080
0.
#83817
1/
#84705
1,
#85000
1!
0#
#86000
1+
#86323
1-
#90000
0!
1#
#91038
0+
#93080
1.
#93782
0/
#94843
0,
#95000
1!
0#
#96000
1+
#96315
0-
#100000
0!
1#
#101038
0+
#103080
0.
#103817
1/
#104705
1,
#105000
1!
0#
#106000
1+
#106323
1-
#110000
0!
1#
#111038
0+
#113080
1.
#113782
0/
#114843
0,
#115000
1!
0#
#116000
1+
#116315
0-
#120000
0!
1#
#121038
0+
#123080
0.
#123817
1/
#124705
1,
#125000
1!
0#
#126000
1+
#126323
1-
#130000
0!
1#
#131038
0+
#133080
1.
#133782
0/
#134843
0,
#135000
1!
0#
#136000
1+
#136315
0-
#140000
0!
1#
#141038
0+
#143080
0.
#143817
1/
#144705
1,
#145000
1!
0#
#146000
1+
#146323
1-
#150000
0!
1#
#151038
0+
#153080
1.
#153782
0/
#154843
0,
#155000
1!
0#
#156000
1+
#156315
0-
#160000
0!
1#
#161038
0+
#163080
0.
#163817
1/
#164705
1,
#165000
1!
0#
#166000
1+
#166323
1-
#170000
0!
1#
#171038
0+
#173080
1.
#173782
0/
#174843
0,
#175000
1!
0#
#176000
1+
#176315
0-
#180000
0!
1#
#181038
0+
#183080
0.
#183817
1/
#184705
1,
#185000
1!
0#
#186000
1+
#186323
1-
#190000
0!
1#
#191038
0+
#193080
1.
#193782
0/
#194843
0,
#195000
1!
0#
#196000
1+
#196315
0-
#200000
0!
1#
#201038
0+
#203080
0.
#203817
1/
#204705
1,
#205000
1!
0#
#206000
1+
#206323
1-
#210000
0!
1#
#211038
0+
#213080
1.
#213782
0/
#214843
0,
#215000
1!
0#
#216000
1+
#216315
0-
#220000
0!
1#
#221038
0+
#223080
0.
#223817
1/
#224705
1,
#225000
1!
0#
#226000
1+
#226323
1-
#230000
0!
1#
#231038
0+
#233080
1.
#233782
0/
#234843
0,
#235000
1!
0#
#236000
1+
#236315
0-
#240000
0!
1#
#241038
0+
#243080
0.
#243817
1/
#244705
1,
#245000
1!
0#
#246000
1+
#246323
1-
#250000
0!
1#
#251038
0+
#253080
1.
#253782
0/
#254843
0,
#255000
1!
0#
#256000
1+
#256315
0-
#260000
0!
1#
#261038
0+
#263080
0.
#263817
1/
#264705
1,
#265000
1!
0#
#266000
1+
#266323
1-
#270000
0!
1#
#271038
0+
#273080
1.
#273782
0/
#274843
0,
#275000
1!
0#
#276000
1+
#276315
0-
#280000
0!
1#
#281038
0+
#283080
0.
#283817
1/
#284705
1,
#285000
1!
0#
#286000
1+
#286323
1-
#290000
0!
1#
#291038
0+
#293080
1.
#293782
0/
#294843
0,
#295000
1!
0#
#296000
1+
#296315
0-
#300000
0!
1#
#301038
0+
#303080
0.
#303817
1/
#304705
1,
#305000
1!
0#
#306000
1+
#306323
1-
#310000
0!
1#
#311038
0+
#313080
1.
#313782
0/
#314843
0,
#315000
1!
0#
#316000
1+
#316315
0-
#320000
0!
1#
#321038
0+
#323080
0.
#323817
1/
#324705
1,
#325000
1!
0#
#326000
1+
#326323
1-
#330000
0!
1#
#331038
0+
#333080
1.
#333782
0/
#334843
0,
#335000
1!
0#
#336000
1+
#336315
0-
#340000
0!
1#
#341038
0+
#343080
0.
#343817
1/
#344705
1,
#345000
1!
0#
#346000
1+
#346323
1-
#350000
0!
1#
#351038
0+
#353080
1.
#353782
0/
#354843
0,
#355000
1!
0#
#356000
1+
#356315
0-
#360000
0!
1#
#361038
0+
#363080
0.
#363817
1/
#364705
1,
#365000
1!
0#
#366000
1+
#366323
1-
#370000
0!
1#
#371038
0+
#373080
1.
#373782
0/
#374843
0,
#375000
1!
0#
#376000
1+
#376315
0-
#380000
0!
1#
#381038
0+
#383080
0.
#383817
1/
#384705
1,
#385000
1!
0#
#386000
1+
#386323
1-
#390000
0!
1#
#391038
0+
#393080
1.
#393782
0/
#394843
0,
#395000
1!
0#
#396000
1+
#396315
0-
#400000
0!
1#
#401038
0+
#403080
0.
#403817
1/
#404705
1,
#405000
1!
0#
#406000
1+
#406323
1-
#410000
0!
1#
#411038
0+
#413080
1.
#413782
0/
#414843
0,
#415000
1!
0#
#416000
1+
#416315
0-
#420000
0!
1#
#421038
0+
#423080
0.
#423817
1/
#424705
1,
#425000
1!
0#
#426000
1+
#426323
1-
#430000
0!
1#
#431038
0+
#433080
1.
#433782
0/
#434843
0,
#435000
1!
0#
#436000
1+
#436315
0-
#440000
0!
1#
#441038
0+
#443080
0.
#443817
1/
#444705
1,
#445000
1!
0#
#446000
1+
#446323
1-
#450000
0!
1#
#451038
0+
#453080
1.
#453782
0/
#454843
0,
#455000
1!
0#
#456000
1+
#456315
0-
#460000
0!
1#
#461038
0+
#463080
0.
#463817
1/
#464705
1,
#465000
1!
0#
#466000
1+
#466323
1-
#470000
0!
1#
#471038
0+
#473080
1.
#473782
0/
#474843
0,
#475000
1!
0#
#476000
1+
#476315
0-
#480000
0!
1#
#481038
0+
#483080
0.
#483817
1/
#484705
1,
#485000
1!
0#
#486000
1+
#486323
1-
#490000
0!
1#
#491038
0+
#493080
1.
#493782
0/
#494843
0,
#495000
1!
0#
#496000
1+
#496315
0-
#500000
0!
1#
#501038
0+
#503080
0.
#503817
1/
#504705
1,
#505000
1!
0#
#506000
1+
#506323
1-
#510000
0!
1#
#511038
0+
#513080
1.
#513782
0/
#514843
0,
#515000
1!
0#
#516000
1+
#516315
0-
#520000
0!
1#
#521038
0+
#523080
0.
#523817
1/
#524705
1,
#525000
1!
0#
#526000
1+
#526323
1-
#530000
0!
1#
#531038
0+
#533080
1.
#533782
0/
#534843
0,
#535000
1!
0#
#536000
1+
#536315
0-
#540000
0!
1#
#541038
0+
#543080
0.
#543817
1/
#544705
1,
#545000
1!
0#
#546000
1+
#546323
1-
#550000
0!
1#
#551038
0+
#553080
1.
#553782
0/
#554843
0,
#555000
1!
0#
#556000
1+
#556315
0-
#560000
0!
1#
#561038
0+
#563080
0.
#563817
1/
#564705
1,
#565000
1!
0#
#566000
1+
#566323
1-
#570000
0!
1#
#571038
0+
#573080
1.
#573782
0/
#574843
0,
#575000
1!
0#
#576000
1+
#576315
0-
#580000
0!
1#
#581038
0+
#583080
0.
#583817
1/
#584705
1,
#585000
1!
0#
#586000
1+
#586323
1-
#590000
0!
1#
#591038
0+
#593080
1.
#593782
0/
#594843
0,
#595000
1!
0#
#596000
1+
#596315
0-
#600000
0!
1#
#601038
0+
#603080
0.
#603817
1/
#604705
1,
#605000
1!
0#
#606000
1+
#606323
1-
#610000
0!
1#
#611038
0+
#613080
1.
#613782
0/
#614843
0,
#615000
1!
0#
#616000
1+
#616315
0-
#620000
0!
1#
#621038
0+
#623080
0.
#623817
1/
#624705
1,
#625000
1!
0#
#626000
1+
#626323
1-
#630000
0!
1#
#631038
0+
#633080
1.
#633782
0/
#634843
0,
#635000
1!
0#
#636000
1+
#636315
0-
#640000
0!
1#
#641038
0+
#643080
0.
#643817
1/
#644705
1,
#645000
1!
0#
#646000
1+
#646323
1-
#650000
0!
1#
#651038
0+
#653080
1.
#653782
0/
#654843
0,
#655000
1!
0#
#656000
1+
#656315
0-
#660000
0!
1#
#661038
0+
#663080
0.
#663817
1/
#664705
1,
#665000
1!
0#
#666000
1+
#666323
1-
#670000
0!
1#
#671038
0+
#673080
1.
#673782
0/
#674843
0,
#675000
1!
0#
#676000
1+
#676315
0-
#680000
0!
1#
#681038
0+
#683080
0.
#683817
1/
#684705
1,
#685000
1!
0#
#686000
1+
#686323
1-
#690000
0!
1#
#691038
0+
#693080
1.
#693782
0/
#694843
0,
#695000
1!
0#
#696000
1+
#696315
0-
#700000
0!
1#
#701038
0+
#703080
0.
#703817
1/
#704705
1,
#705000
1!
0#
#706000
1+
#706323
1-
#710000
0!
1#
#711038
0+
#713080
1.
#713782
0/
#714843
0,
#715000
1!
0#
#716000
1+
#716315
0-
#720000
0!
1#
#721038
0+
#723080
0.
#723817
1/
#724705
1,
#725000
1!
0#
#726000
1+
#726323
1-
#730000
0!
1#
#731038
0+
#733080
1.
#733782
0/
#734843
0,
#735000
1!
0#
#736000
1+
#736315
0-
#740000
0!
1#
#741038
0+
#743080
0.
#743817
1/
#744705
1,
#745000
1!
0#
#746000
1+
#746323
1-
#750000
0!
1#
#751038
0+
#753080
1.
#753782
0/
#754843
0,
#755000
1!
0#
#756000
1+
#756315
0-
#760000
0!
1#
#761038
0+
#763080
0.
#763817
1/
#764705
1,
#765000
1!
0#
#766000
1+
#766323
1-
#770000
0!
1#
#771038
0+
#773080
1.
#773782
0/
#774843
0,
#775000
1!
0#
#776000
1+
#776315
0-
#780000
0!
1#
#781038
0+
#783080
0.
#783817
1/
#784705
1,
#785000
1!
0#
#786000
1+
#786323
1-
#790000
0!
1#
#791038
0+
#793080
1.
#793782
0/
#794843
0,
#795000
1!
0#
#796000
1+
#796315
0-
#800000
0!
1#
#801038
0+
#803080
0.
#803817
1/
#804705
1,
#805000
1!
0#
#806000
1+
#806323
1-
#810000
0!
1#
#811038
0+
#813080
1.
#813782
0/
#814843
0,
#815000
1!
0#
#816000
1+
#816315
0-
#820000
0!
1#
#821038
0+
#823080
0.
#823817
1/
#824705
1,
#825000
1!
0#
#826000
1+
#826323
1-
#830000
0!
1#
#831038
0+
#833080
1.
#833782
0/
#834843
0,
#835000
1!
0#
#836000
1+
#836315
0-
#840000
0!
1#
#841038
0+
#843080
0.
#843817
1/
#844705
1,
#845000
1!
0#
#846000
1+
#846323
1-
#850000
0!
1#
#851038
0+
#853080
1.
#853782
0/
#854843
0,
#855000
1!
0#
#856000
1+
#856315
0-
#860000
0!
1#
#861038
0+
#863080
0.
#863817
1/
#864705
1,
#865000
1!
0#
#866000
1+
#866323
1-
#870000
0!
1#
#871038
0+
#873080
1.
#873782
0/
#874843
0,
#875000
1!
0#
#876000
1+
#876315
0-
#880000
0!
1#
#881038
0+
#883080
0.
#883817
1/
#884705
1,
#885000
1!
0#
#886000
1+
#886323
1-
#890000
0!
1#
#891038
0+
#893080
1.
#893782
0/
#894843
0,
#895000
1!
0#
#896000
1+
#896315
0-
#900000
0!
1#
#901038
0+
#903080
0.
#903817
1/
#904705
1,
#905000
1!
0#
#906000
1+
#906323
1-
#910000
0!
1#
#911038
0+
#913080
1.
#913782
0/
#914843
0,
#915000
1!
0#
#916000
1+
#916315
0-
#920000
0!
1#
#921038
0+
#923080
0.
#923817
1/
#924705
1,
#925000
1!
0#
#926000
1+
#926323
1-
#930000
0!
1#
#931038
0+
#933080
1.
#933782
0/
#934843
0,
#935000
1!
0#
#936000
1+
#936315
0-
#940000
0!
1#
#941038
0+
#943080
0.
#943817
1/
#944705
1,
#945000
1!
0#
#946000
1+
#946323
1-
#950000
0!
1#
#951038
0+
#953080
1.
#953782
0/
#954843
0,
#955000
1!
0#
#956000
1+
#956315
0-
#960000
0!
1#
#961038
0+
#963080
0.
#963817
1/
#964705
1,
#965000
1!
0#
#966000
1+
#966323
1-
#970000
0!
1#
#971038
0+
#973080
1.
#973782
0/
#974843
0,
#975000
1!
0#
#976000
1+
#976315
0-
#980000
0!
1#
#981038
0+
#983080
0.
#983817
1/
#984705
1,
#985000
1!
0#
#986000
1+
#986323
1-
#990000
0!
1#
#991038
0+
#993080
1.
#993782
0/
#994843
0,
#995000
1!
0#
#996000
1+
#996315
0-
