File/simulation/qsim/minu_time1.msim.vcd
$comment
	File created using the following command:
		vcd file minu_time1.msim.vcd -direction
$end
$date
	Thu Dec 17 08:21:55 2020
$end
$version
	ModelSim Version 10.1d
$end
$timescale
	1ps
$end
$scope module minu_time1_vlg_vec_tst $end
$var reg 1 ! A0_01 $end
$var reg 1 " A1_01 $end
$var reg 1 # C1_01 $end
$var wire 1 $ CO_01 $end
$var wire 1 % Y_01 $end
$var wire 1 & sampler $end
$scope module i1 $end
$var wire 1 ' gnd $end
$var wire 1 ( vcc $end
$var wire 1 ) unknown $end
$var tri1 1 * devclrn $end
$var tri1 1 + devpor $end
$var tri1 1 , devoe $end
$var wire 1 - Y_01~output_o $end
$var wire 1 . CO_01~output_o $end
$var wire 1 / A1_01~input_o $end
$var wire 1 0 A0_01~input_o $end
$var wire 1 1 C1_01~input_o $end
$var wire 1 2 inst11~0_combout $end
$var wire 1 3 inst10~0_combout $end
$upscope $end
$upscope $end
$enddefinitions $end
#0
$dumpvars
0!
0"
0#
x$
x%
x&
0'
1(
x)
1*
1+
1,
x-
x.
0/
00
01
x2
x3
$end
#4403
13
#4441
12
#8596
0.
0$
#9756
0-
0%
#10000
1#
0&
#10939
11
#15134
02
#20000
1"
0#
1&
#20142
1-
1%
#20979
1/
#20984
01
#24803
12
#25402
03
#25403
02
#29411
1.
1$
#30000
1#
0&
#30939
11
#35156
12
#35157
13
#39350
0.
0$
#40000
1!
0"
0#
1&
#40471
0-
0%
#40984
01
#41000
10
#41024
0/
#45402
03
#45403
02
#49411
1.
1$
#50000
1#
0&
#50411
1-
1%
#50939
11
#55156
12
#55157
13
#59350
0.
0$
#60000
1"
0#
1&
#60471
0-
0%
#60979
1/
#60984
01
#64804
03
#65403
02
#68813
1.
1$
#70000
1#
0&
#70411
1-
1%
#70939
11
#75156
12
#80000
0!
0"
0#
1&
#80471
0-
0%
#80984
01
#81024
0/
#81038
00
#85084
13
#89277
0.
0$
#90000
1#
0&
#90939
11
#95134
02
#100000
1"
0#
1&
#100142
1-
1%
#100979
1/
#100984
01
#104803
12
#105402
03
#105403
02
#109411
1.
1$
#110000
1#
0&
#110939
11
#115156
12
#115157
13
#119350
0.
0$
#120000
1!
0"
0#
1&
#120471
0-
0%
#120984
01
#121000
10
#121024
0/
#125402
03
#125403
02
#129411
1.
1$
#130000
1#
0&
#130411
1-
1%
#130939
11
#135156
12
#135157
13
#139350
0.
0$
#140000
1"
0#
1&
#140471
0-
0%
#140979
1/
#140984
01
#144804
03
#145403
02
#148813
1.
1$
#150000
1#
0&
#150411
1-
1%
#150939
11
#155156
12
#160000
0!
0"
0#
1&
#160471
0-
0%
#160984
01
#161024
0/
#161038
00
#165084
13
#169277
0.
0$
#170000
1#
0&
#170939
11
#175134
02
#180000
1"
0#
1&
#180142
1-
1%
#180979
1/
#180984
01
#184803
12
#185402
03
#185403
02
#189411
1.
1$
#190000
1#
0&
#190939
11
#195156
12
#195157
13
#199350
0.
0$
#200000
1!
0"
0#
1&
#200471
0-
0%
#200984
01
#201000
10
#201024
0/
#205402
03
#205403
02
#209411
1.
1$
#210000
1#
0&
#210411
1-
1%
#210939
11
#215156
12
#215157
13
#219350
0.
0$
#220000
1"
0#
1&
#220471
0-
0%
#220979
1/
#220984
01
#224804
03
#225403
02
#228813
1.
1$
#230000
1#
0&
#230411
1-
1%
#230939
11
#235156
12
#240000
0!
0"
0#
1&
#240471
0-
0%
#240984
01
#241024
0/
#241038
00
#245084
13
#249277
0.
0$
#250000
1#
0&
#250939
11
#255134
02
#260000
1"
0#
1&
#260142
1-
1%
#260979
1/
#260984
01
#264803
12
#265402
03
#265403
02
#269411
1.
1$
#270000
1#
0&
#270939
11
#275156
12
#275157
13
#279350
0.
0$
#280000
1!
0"
0#
1&
#280471
0-
0%
#280984
01
#281000
10
#281024
0/
#285402
03
#285403
02
#289411
1.
1$
#290000
1#
0&
#290411
1-
1%
#290939
11
#295156
12
#295157
13
#299350
0.
0$
#300000
1"
0#
1&
#300471
0-
0%
#300979
1/
#300984
01
#304804
03
#305403
02
#308813
1.
1$
#310000
1#
0&
#310411
1-
1%
#310939
11
#315156
12
#320000
0!
0"
0#
1&
#320471
0-
0%
#320984
01
#321024
0/
#321038
00
#325084
13
#329277
0.
0$
#330000
1#
0&
#330939
11
#335134
02
#340000
1"
0#
1&
#340142
1-
1%
#340979
1/
#340984
01
#344803
12
#345402
03
#345403
02
#349411
1.
1$
#350000
1#
0&
#350939
11
#355156
12
#355157
13
#359350
0.
0$
#360000
1!
0"
0#
1&
#360471
0-
0%
#360984
01
#361000
10
#361024
0/
#365402
03
#365403
02
#369411
1.
1$
#370000
1#
0&
#370411
1-
1%
#370939
11
#375156
12
#375157
13
#379350
0.
0$
#380000
1"
0#
1&
#380471
0-
0%
#380979
1/
#380984
01
#384804
03
#385403
02
#388813
1.
1$
#390000
1#
0&
#390411
1-
1%
#390939
11
#395156
12
#400000
0!
0"
0#
1&
#400471
0-
0%
#400984
01
#401024
0/
#401038
00
#405084
13
#409277
0.
0$
#410000
1#
0&
#410939
11
#415134
02
#420000
1"
0#
1&
#420142
1-
1%
#420979
1/
#420984
01
#424803
12
#425402
03
#425403
02
#429411
1.
1$
#430000
1#
0&
#430939
11
#435156
12
#435157
13
#439350
0.
0$
#440000
1!
0"
0#
1&
#440471
0-
0%
#440984
01
#441000
10
#441024
0/
#445402
03
#445403
02
#449411
1.
1$
#450000
1#
0&
#450411
1-
1%
#450939
11
#455156
12
#455157
13
#459350
0.
0$
#460000
1"
0#
1&
#460471
0-
0%
#460979
1/
#460984
01
#464804
03
#465403
02
#468813
1.
1$
#470000
1#
0&
#470411
1-
1%
#470939
11
#475156
12
#480000
0!
0"
0#
1&
#480471
0-
0%
#480984
01
#481024
0/
#481038
00
#485084
13
#489277
0.
0$
#490000
1#
0&
#490939
11
#495134
02
#500000
1"
0#
1&
#500142
1-
1%
#500979
1/
#500984
01
#504803
12
#505402
03
#505403
02
#509411
1.
1$
#510000
1#
0&
#510939
11
#515156
12
#515157
13
#519350
0.
0$
#520000
1!
0"
0#
1&
#520471
0-
0%
#520984
01
#521000
10
#521024
0/
#525402
03
#525403
02
#529411
1.
1$
#530000
1#
0&
#530411
1-
1%
#530939
11
#535156
12
#535157
13
#539350
0.
0$
#540000
1"
0#
1&
#540471
0-
0%
#540979
1/
#540984
01
#544804
03
#545403
02
#548813
1.
1$
#550000
1#
0&
#550411
1-
1%
#550939
11
#555156
12
#560000
0!
0"
0#
1&
#560471
0-
0%
#560984
01
#561024
0/
#561038
00
#565084
13
#569277
0.
0$
#570000
1#
0&
#570939
11
#575134
02
#580000
1"
0#
1&
#580142
1-
1%
#580979
1/
#580984
01
#584803
12
#585402
03
#585403
02
#589411
1.
1$
#590000
1#
0&
#590939
11
#595156
12
#595157
13
#599350
0.
0$
#600000
1!
0"
0#
1&
#600471
0-
0%
#600984
01
#601000
10
#601024
0/
#605402
03
#605403
02
#609411
1.
1$
#610000
1#
0&
#610411
1-
1%
#610939
11
#615156
12
#615157
13
#619350
0.
0$
#620000
1"
0#
1&
#620471
0-
0%
#620979
1/
#620984
01
#624804
03
#625403
02
#628813
1.
1$
#630000
1#
0&
#630411
1-
1%
#630939
11
#635156
12
#640000
0!
0"
0#
1&
#640471
0-
0%
#640984
01
#641024
0/
#641038
00
#645084
13
#649277
0.
0$
#650000
1#
0&
#650939
11
#655134
02
#660000
1"
0#
1&
#660142
1-
1%
#660979
1/
#660984
01
#664803
12
#665402
03
#665403
02
#669411
1.
1$
#670000
1#
0&
#670939
11
#675156
12
#675157
13
#679350
0.
0$
#680000
1!
0"
0#
1&
#680471
0-
0%
#680984
01
#681000
10
#681024
0/
#685402
03
#685403
02
#689411
1.
1$
#690000
1#
0&
#690411
1-
1%
#690939
11
#695156
12
#695157
13
#699350
0.
0$
#700000
1"
0#
1&
#700471
0-
0%
#700979
1/
#700984
01
#704804
03
#705403
02
#708813
1.
1$
#710000
1#
0&
#710411
1-
1%
#710939
11
#715156
12
#720000
0!
0"
0#
1&
#720471
0-
0%
#720984
01
#721024
0/
#721038
00
#725084
13
#729277
0.
0$
#730000
1#
0&
#730939
11
#735134
02
#740000
1"
0#
1&
#740142
1-
1%
#740979
1/
#740984
01
#744803
12
#745402
03
#745403
02
#749411
1.
1$
#750000
1#
0&
#750939
11
#755156
12
#755157
13
#759350
0.
0$
#760000
1!
0"
0#
1&
#760471
0-
0%
#760984
01
#761000
10
#761024
0/
#765402
03
#765403
02
#769411
1.
1$
#770000
1#
0&
#770411
1-
1%
#770939
11
#775156
12
#775157
13
#779350
0.
0$
#780000
1"
0#
1&
#780471
0-
0%
#780979
1/
#780984
01
#784804
03
#785403
02
#788813
1.
1$
#790000
1#
0&
#790411
1-
1%
#790939
11
#795156
12
#800000
0!
0"
0#
1&
#800471
0-
0%
#800984
01
#801024
0/
#801038
00
#805084
13
#809277
0.
0$
#810000
1#
0&
#810939
11
#815134
02
#820000
1"
0#
1&
#820142
1-
1%
#820979
1/
#820984
01
#824803
12
#825402
03
#825403
02
#829411
1.
1$
#830000
1#
0&
#830939
11
#835156
12
#835157
13
#839350
0.
0$
#840000
1!
0"
0#
1&
#840471
0-
0%
#840984
01
#841000
10
#841024
0/
#845402
03
#845403
02
#849411
1.
1$
#850000
1#
0&
#850411
1-
1%
#850939
11
#855156
12
#855157
13
#859350
0.
0$
#860000
1"
0#
1&
#860471
0-
0%
#860979
1/
#860984
01
#864804
03
#865403
02
#868813
1.
1$
#870000
1#
0&
#870411
1-
1%
#870939
11
#875156
12
#880000
0!
0"
0#
1&
#880471
0-
0%
#880984
01
#881024
0/
#881038
00
#885084
13
#889277
0.
0$
#890000
1#
0&
#890939
11
#895134
02
#900000
1"
0#
1&
#900142
1-
1%
#900979
1/
#900984
01
#904803
12
#905402
03
#905403
02
#909411
1.
1$
#910000
1#
0&
#910939
11
#915156
12
#915157
13
#919350
0.
0$
#920000
1!
0"
0#
1&
#920471
0-
0%
#920984
01
#921000
10
#921024
0/
#925402
03
#925403
02
#929411
1.
1$
#930000
1#
0&
#930411
1-
1%
#930939
11
#935156
12
#935157
13
#939350
0.
0$
#940000
1"
0#
1&
#940471
0-
0%
#940979
1/
#940984
01
#944804
03
#945403
02
#948813
1.
1$
#950000
1#
0&
#950411
1-
1%
#950939
11
#955156
12
#960000
0!
0"
0#
1&
#960471
0-
0%
#960984
01
#961024
0/
#961038
00
#965084
13
#969277
0.
0$
#970000
1#
0&
#970939
11
#975134
02
#980000
1"
0#
1&
#980142
1-
1%
#980979
1/
#980984
01
#984803
12
#985402
03
#985403
02
#989411
1.
1$
#990000
1#
0&
#990939
11
#995156
12
#995157
13
#999350
0.
0$
