File/simulation/qsim/seg_select.msim.vcd
$comment
	File created using the following command:
		vcd file seg_select.msim.vcd -direction
$end
$date
	Wed Dec 23 16:14:51 2020
$end
$version
	ModelSim Version 10.1d
$end
$timescale
	1ps
$end
$scope module seg_select_vlg_vec_tst $end
$var reg 3 ! add_01 [2:0] $end
$var reg 4 " hour_ge_01 [3:0] $end
$var reg 4 # hour_shi_01 [3:0] $end
$var reg 4 $ min_ge_01 [3:0] $end
$var reg 4 % min_shi_01 [3:0] $end
$var reg 4 & sec_ge_01 [3:0] $end
$var reg 4 ' sec_shi_01 [3:0] $end
$var wire 1 ( code_01 [3] $end
$var wire 1 ) code_01 [2] $end
$var wire 1 * code_01 [1] $end
$var wire 1 + code_01 [0] $end
$var wire 1 , sampler $end
$scope module i1 $end
$var wire 1 - gnd $end
$var wire 1 . vcc $end
$var wire 1 / unknown $end
$var tri1 1 0 devclrn $end
$var tri1 1 1 devpor $end
$var tri1 1 2 devoe $end
$var wire 1 3 sec_shi_01[2]~input_o $end
$var wire 1 4 code_01[3]~output_o $end
$var wire 1 5 code_01[2]~output_o $end
$var wire 1 6 code_01[1]~output_o $end
$var wire 1 7 code_01[0]~output_o $end
$var wire 1 8 add_01[1]~input_o $end
$var wire 1 9 min_shi_01[3]~input_o $end
$var wire 1 : min_ge_01[3]~input_o $end
$var wire 1 ; sec_shi_01[3]~input_o $end
$var wire 1 < add_01[0]~input_o $end
$var wire 1 = sec_ge_01[3]~input_o $end
$var wire 1 > inst3|sub|81~0_combout $end
$var wire 1 ? inst3|sub|81~1_combout $end
$var wire 1 @ hour_shi_01[3]~input_o $end
$var wire 1 A hour_ge_01[3]~input_o $end
$var wire 1 B inst3|sub|81~2_combout $end
$var wire 1 C add_01[2]~input_o $end
$var wire 1 D inst3|sub|81~3_combout $end
$var wire 1 E hour_shi_01[2]~input_o $end
$var wire 1 F hour_ge_01[2]~input_o $end
$var wire 1 G inst2|sub|81~0_combout $end
$var wire 1 H min_shi_01[2]~input_o $end
$var wire 1 I min_ge_01[2]~input_o $end
$var wire 1 J inst2|sub|81~1_combout $end
$var wire 1 K sec_ge_01[2]~input_o $end
$var wire 1 L inst2|sub|81~2_combout $end
$var wire 1 M hour_ge_01[1]~input_o $end
$var wire 1 N hour_shi_01[1]~input_o $end
$var wire 1 O inst1|sub|81~2_combout $end
$var wire 1 P sec_ge_01[1]~input_o $end
$var wire 1 Q min_ge_01[1]~input_o $end
$var wire 1 R inst1|sub|81~0_combout $end
$var wire 1 S min_shi_01[1]~input_o $end
$var wire 1 T sec_shi_01[1]~input_o $end
$var wire 1 U inst1|sub|81~1_combout $end
$var wire 1 V inst1|sub|81~3_combout $end
$var wire 1 W hour_shi_01[0]~input_o $end
$var wire 1 X hour_ge_01[0]~input_o $end
$var wire 1 Y inst|sub|81~2_combout $end
$var wire 1 Z min_shi_01[0]~input_o $end
$var wire 1 [ min_ge_01[0]~input_o $end
$var wire 1 \ sec_shi_01[0]~input_o $end
$var wire 1 ] sec_ge_01[0]~input_o $end
$var wire 1 ^ inst|sub|81~0_combout $end
$var wire 1 _ inst|sub|81~1_combout $end
$var wire 1 ` inst|sub|81~3_combout $end
$upscope $end
$upscope $end
$enddefinitions $end
#0
$dumpvars
b0 !
b10 "
b10 #
b10 $
b10 %
b10 &
b10 '
x+
x*
x)
x(
x,
0-
1.
x/
10
11
12
03
x4
x5
x6
x7
08
09
0:
0;
0<
0=
x>
x?
0@
0A
xB
0C
xD
0E
0F
xG
0H
0I
xJ
0K
xL
1M
1N
xO
1P
1Q
xR
1S
1T
xU
xV
0W
0X
xY
0Z
0[
0\
0]
x^
x_
x`
$end
#2181
1O
#4584
0>
#4588
0L
#4589
0^
#4648
0Y
#4821
0B
#4931
0J
#4999
0?
#5000
b100 !
b110 !
b111 !
0,
#5003
0_
#5191
0G
#5209
1R
#5784
0`
#5788
0D
#5939
1C
#5959
1<
#5964
1U
#5979
18
#6531
1V
#7913
05
0)
#9490
07
0+
#10000
b1010 "
b1000 "
b1001 "
b1010 #
b1000 #
b1001 #
b1010 $
b1000 $
b1001 $
b1010 %
b1000 %
b1001 %
b1010 &
b1000 &
b1001 &
b1010 '
b1000 '
b1001 '
b11 !
b1 !
b0 !
1,
#10483
0V
#10887
04
0(
#10907
1>
#10909
1G
1^
#10939
1X
1Z
1=
1;
#10949
1]
#10959
1W
1[
19
#10969
1@
1\
#10984
0S
0C
#10990
1A
#11004
0<
#11020
1:
#11024
08
#11028
0M
0N
0Q
0T
#11038
0P
#11646
1J
#11674
16
1*
#12935
0O
#14707
1V
#14955
1_
#15000
b100 !
b110 !
b111 !
0,
#15042
1L
#15058
0J
#15216
0U
#15300
06
0*
#15388
1Y
#15609
0R
#15612
0L
#15613
0G
#15622
1?
#15708
1`
#15798
0V
#15850
1U
#15887
1B
#15939
1C
#15959
1<
#15979
18
#16377
1D
#16398
0U
#16417
1V
#16980
0V
#19676
17
1+
#20000
b1 "
b0 "
b1 #
b0 #
b1 $
b0 $
b1 %
b0 %
b1 &
b0 &
b1 '
b0 '
b11 !
b1 !
b0 !
1,
#20317
0>
#20320
0D
#20321
0`
#20323
0^
#20907
1>
#20909
1G
1^
#20945
1R
#20984
0X
0Z
0=
0;
0C
#20994
0]
#21004
0W
0[
09
0<
#21014
0@
0\
#21024
08
#21028
0A
#21058
0:
#21646
1J
#21876
14
1(
#24027
07
0+
#24706
1D
#24708
1`
#25000
b100 !
b110 !
b111 !
0,
#25042
1L
#25058
0J
#25190
0_
#25419
04
0(
#25608
0>
#25609
0R
#25612
0L
#25613
0G
0^
#25624
1_
#25652
0Y
#25825
0B
#25850
1U
#25939
1C
#25959
1<
#25979
18
#26023
0?
#26027
0_
#26398
0U
#26417
1V
#26808
0`
#26812
0D
#26980
0V
#30000
b100 "
b100 #
b100 $
b100 %
b100 &
b100 '
b110 "
b110 #
b110 $
b110 %
b110 &
b110 '
b111 "
b111 #
b111 $
b111 %
b111 &
b111 '
b11 !
b1 !
b0 !
13
1,
#30907
1>
#30909
1G
1^
#30939
1F
1X
1S
1Z
#30945
1R
#30949
1]
#30959
1W
1[
#30969
1H
1\
#30979
1I
1K
#30984
0C
#30990
1M
1N
1Q
1T
#31000
1P
#31004
0<
#31010
1E
#31024
08
#31646
1J
#32837
1O
#34955
1_
#35000
1U
b100 !
b110 !
b111 !
0,
#35042
1L
#35058
0J
#35388
1Y
#35567
1V
#35608
0>
#35609
0R
#35613
0G
#35708
1`
#35714
1J
#35802
1?
#35939
1C
#35959
1<
#35979
18
#36023
0?
#36177
1G
#36213
1R
#36398
0U
#36968
1U
#36980
0V
#37535
1V
#38587
15
1)
#39676
17
1+
#40000
b1111 "
b1111 #
b1111 $
b1111 %
b1111 &
b1111 '
b1110 "
b1110 #
b1110 $
b1110 %
b1110 &
b1110 '
b11 !
b1 !
b0 !
1,
#40321
0`
#40323
0^
0L
#40326
0G
#40483
0V
#40907
1>
#40909
1G
1^
#40939
1=
1;
#40959
19
#40969
1@
#40984
0X
0Z
0C
#40990
1A
#40994
0]
#41004
0W
0[
0<
#41014
0\
#41020
1:
#41024
08
#41108
0J
#41646
1J
#43648
05
0)
#44027
07
0+
#44707
1V
#44708
1`
#45000
b100 !
b110 !
b111 !
0,
#45042
1L
#45190
0_
#45609
0R
#45613
0^
#45622
1?
#45624
1_
#45652
0Y
#45887
1B
#45939
1C
#45959
1<
#45979
18
#46027
0_
#46213
1R
#46377
1D
#46398
0U
#46808
0`
#46968
1U
#46980
0V
#47535
1V
#48587
15
1)
#50000
b1100 "
b1100 #
b1100 $
b1100 %
b1100 &
b1100 '
b100 "
b100 #
b100 $
b100 %
b100 &
b100 '
b101 "
b101 #
b101 $
b101 %
b101 &
b101 '
b11 !
b1 !
b0 !
1,
#50317
0>
#50320
0D
#50323
0L
#50326
0G
#50483
0V
#50907
1>
#50909
1G
1^
#50939
1X
1Z
#50949
1]
#50959
1W
1[
#50969
1\
#50984
0S
0=
0;
0C
#51004
09
0<
#51014
0@
#51024
08
#51028
0A
0M
0N
0Q
0T
#51038
0P
#51058
0:
#51108
0J
#51646
1J
#51876
14
1(
#52935
0O
#53648
05
0)
#54706
1D
#54707
1V
#54955
1_
#55000
b100 !
b110 !
b111 !
0,
#55042
1L
#55216
0U
#55388
1Y
#55419
04
0(
#55608
0>
#55609
0R
#55708
1`
#55798
0V
#55825
0B
#55850
1U
#55939
1C
#55959
1<
#55979
18
#56023
0?
#56398
0U
#56417
1V
#56812
0D
#56980
0V
#58587
15
1)
#59676
17
1+
#60000
b1101 "
b1101 #
b1101 $
b1101 %
b1101 &
b1101 '
b1100 "
b1100 #
b1100 $
b1100 %
b1100 &
b1100 '
b11 !
b1 !
b0 !
1,
#60321
0`
#60323
0^
0L
#60326
0G
#60907
1>
#60909
1G
1^
#60939
1=
1;
#60945
1R
#60959
19
#60969
1@
#60984
0X
0Z
0C
#60990
1A
#60994
0]
#61004
0W
0[
0<
#61014
0\
#61020
1:
#61024
08
#61108
0J
#61646
1J
#63648
05
0)
#64027
07
0+
#64708
1`
#65000
b100 !
b110 !
b111 !
0,
#65042
1L
#65190
0_
#65609
0R
#65613
0^
#65622
1?
#65624
1_
#65652
0Y
#65850
1U
#65887
1B
#65939
1C
#65959
1<
#65979
18
#66027
0_
#66377
1D
#66398
0U
#66417
1V
#66808
0`
#66980
0V
#68587
15
1)
#70000
b1000 "
b1000 #
b1000 $
b1000 %
b1000 &
b1000 '
b1010 "
b1010 #
b1010 $
b1010 %
b1010 &
b1010 '
b10 "
b10 #
b10 $
b10 %
b10 &
b10 '
b11 "
b11 #
b11 $
b11 %
b11 &
b11 '
b11 !
b1 !
b0 !
03
1,
#70317
0>
#70320
0D
#70323
0L
#70326
0G
#70907
1>
#70909
1G
1^
#70939
1X
1S
1Z
#70945
1R
#70949
1]
#70959
1W
1[
#70969
1\
#70984
0F
0=
0;
0C
#70990
1M
1N
1Q
1T
#71000
1P
#71004
09
0<
#71014
0@
0H
#71024
0I
0K
08
#71028
0A
#71048
0E
#71058
0:
#71108
0J
#71646
1J
#71876
14
1(
#72837
1O
#73648
05
0)
#74706
1D
#74955
1_
#75000
1U
b100 !
b110 !
b111 !
0,
#75042
1L
#75388
1Y
#75419
04
0(
#75567
1V
#75608
0>
#75609
0R
#75612
0L
#75708
1`
#75825
0B
#75939
1C
#75945
0J
#75959
1<
#75979
18
#76023
0?
#76195
0G
#76213
1R
#76398
0U
#76812
0D
#76968
1U
#76980
0V
#77535
1V
#79676
17
1+
#80000
b1011 "
b1011 #
b1011 $
b1011 %
b1011 &
b1011 '
b1010 "
b1010 #
b1010 $
b1010 %
b1010 &
b1010 '
b11 !
b1 !
b0 !
1,
#80321
0`
#80323
0^
#80483
0V
#80907
1>
#80909
1G
1^
#80939
1=
1;
#80959
19
#80969
1@
#80984
0X
0Z
0C
#80990
1A
#80994
0]
#81004
0W
0[
0<
#81014
0\
#81020
1:
#81024
08
#81646
1J
#84027
07
0+
#84707
1V
#84708
1`
#85000
b100 !
b110 !
b111 !
0,
#85042
1L
#85058
0J
#85190
0_
#85609
0R
#85612
0L
#85613
0G
0^
#85622
1?
#85624
1_
#85652
0Y
#85887
1B
#85939
1C
#85959
1<
#85979
18
#86027
0_
#86213
1R
#86377
1D
#86398
0U
#86808
0`
#86968
1U
#86980
0V
#87535
1V
#90000
b1000 "
b1000 #
b1000 $
b1000 %
b1000 &
b1000 '
b0 "
b0 #
b0 $
b0 %
b0 &
b0 '
b1 "
b1 #
b1 $
b1 %
b1 &
b1 '
b11 !
b1 !
b0 !
1,
#90317
0>
#90320
0D
#90483
0V
#90907
1>
#90909
1G
1^
#90939
1X
1Z
#90949
1]
#90959
1W
1[
#90969
1\
#90984
0S
0=
0;
0C
#91004
09
0<
#91014
0@
#91024
08
#91028
0A
0M
0N
0Q
0T
#91038
0P
#91058
0:
#91646
1J
#91876
14
1(
#92935
0O
#94706
1D
#94707
1V
#94955
1_
#95000
b100 !
b110 !
b111 !
0,
#95042
1L
#95058
0J
#95216
0U
#95388
1Y
#95419
04
0(
#95608
0>
#95609
0R
#95612
0L
#95613
0G
#95708
1`
#95798
0V
#95825
0B
#95850
1U
#95939
1C
#95959
1<
#95979
18
#96023
0?
#96398
0U
#96417
1V
#96812
0D
#96980
0V
#99676
17
1+
#100000
b1001 "
b1001 #
b1001 $
b1001 %
b1001 &
b1001 '
b1000 "
b1000 #
b1000 $
b1000 %
b1000 &
b1000 '
b11 !
b1 !
b0 !
1,
#100321
0`
#100323
0^
#100907
1>
#100909
1G
1^
#100939
1=
1;
#100945
1R
#100959
19
#100969
1@
#100984
0X
0Z
0C
#100990
1A
#100994
0]
#101004
0W
0[
0<
#101014
0\
#101020
1:
#101024
08
#101646
1J
#104027
07
0+
#104708
1`
#105000
b100 !
b110 !
b111 !
0,
#105042
1L
#105058
0J
#105190
0_
#105609
0R
#105612
0L
#105613
0G
0^
#105622
1?
#105624
1_
#105652
0Y
#105850
1U
#105887
1B
#105939
1C
#105959
1<
#105979
18
#106027
0_
#106377
1D
#106398
0U
#106417
1V
#106808
0`
#106980
0V
#110000
b1100 "
b1100 #
b1100 $
b1100 %
b1100 &
b1100 '
b1110 "
b1110 #
b1110 $
b1110 %
b1110 &
b1110 '
b1111 "
b1111 #
b1111 $
b1111 %
b1111 &
b1111 '
b11 !
b1 !
b0 !
13
1,
#110317
0>
#110320
0D
#110907
1>
#110909
1G
1^
#110939
1F
1X
1S
1Z
#110945
1R
#110949
1]
#110959
1W
1[
#110969
1H
1\
#110979
1I
1K
#110984
0C
#110990
1M
1N
1Q
1T
#111000
1P
#111004
0<
#111010
1E
#111024
08
#111646
1J
#111876
14
1(
#112837
1O
#114706
1D
#114955
1_
#115000
1U
b100 !
b110 !
b111 !
0,
#115042
1L
#115058
0J
#115388
1Y
#115419
04
0(
#115567
1V
#115609
0R
#115613
0G
#115708
1`
#115714
1J
#115939
1C
#115959
1<
#115979
18
#116177
1G
#116213
1R
#116398
0U
#116968
1U
#116980
0V
#117535
1V
#118587
15
1)
#119676
17
1+
#120000
b111 "
b111 #
b111 $
b111 %
b111 &
b111 '
b110 "
b110 #
b110 $
b110 %
b110 &
b110 '
b11 !
b1 !
b0 !
1,
#120205
14
1(
#120317
0>
#120320
0D
#120321
0`
#120323
0^
0L
#120326
0G
#120483
0V
#120907
1>
#120909
1G
1^
#120984
0X
0Z
0=
0;
0C
#120994
0]
#121004
0W
0[
09
0<
#121014
0@
0\
#121024
08
#121028
0A
#121058
0:
#121108
0J
#121646
1J
#123648
05
0)
#124027
07
0+
#124706
1D
#124707
1V
#124708
1`
#125000
b100 !
b110 !
b111 !
0,
#125042
1L
#125190
0_
#125419
04
0(
#125608
0>
#125609
0R
#125613
0^
#125624
1_
#125652
0Y
#125825
0B
#125939
1C
#125959
1<
#125979
18
#126023
0?
#126027
0_
#126213
1R
#126398
0U
#126808
0`
#126812
0D
#126968
1U
#126980
0V
#127535
1V
#128587
15
1)
#130000
b100 "
b100 #
b100 $
b100 %
b100 &
b100 '
b1100 "
b1100 #
b1100 $
b1100 %
b1100 &
b1100 '
b1101 "
b1101 #
b1101 $
b1101 %
b1101 &
b1101 '
b11 !
b1 !
b0 !
1,
#130323
0L
#130326
0G
#130483
0V
#130907
1>
#130909
1G
1^
#130939
1X
1Z
1=
1;
#130949
1]
#130959
1W
1[
19
#130969
1@
1\
#130984
0S
0C
#130990
1A
#131004
0<
#131020
1:
#131024
08
#131028
0M
0N
0Q
0T
#131038
0P
#131108
0J
#131646
1J
#132935
0O
#133648
05
0)
#134707
1V
#134955
1_
#135000
b100 !
b110 !
b111 !
0,
#135042
1L
#135216
0U
#135388
1Y
#135609
0R
#135622
1?
#135708
1`
#135798
0V
#135850
1U
#135887
1B
#135939
1C
#135959
1<
#135979
18
#136377
1D
#136398
0U
#136417
1V
#136980
0V
#138587
15
1)
#139676
17
1+
#140000
b101 "
b101 #
b101 $
b101 %
b101 &
b101 '
b100 "
b100 #
b100 $
b100 %
b100 &
b100 '
b11 !
b1 !
b0 !
1,
#140317
0>
#140320
0D
#140321
0`
#140323
0^
0L
#140326
0G
#140907
1>
#140909
1G
1^
#140945
1R
#140984
0X
0Z
0=
0;
0C
#140994
0]
#141004
0W
0[
09
0<
#141014
0@
0\
#141024
08
#141028
0A
#141058
0:
#141108
0J
#141646
1J
#141876
14
1(
#143648
05
0)
#144027
07
0+
#144706
1D
#144708
1`
#145000
b100 !
b110 !
b111 !
0,
#145042
1L
#145190
0_
#145419
04
0(
#145608
0>
#145609
0R
#145613
0^
#145624
1_
#145652
0Y
#145825
0B
#145850
1U
#145939
1C
#145959
1<
#145979
18
#146023
0?
#146027
0_
#146398
0U
#146417
1V
#146808
0`
#146812
0D
#146980
0V
#148587
15
1)
#150000
b0 "
b0 #
b0 $
b0 %
b0 &
b0 '
b10 "
b10 #
b10 $
b10 %
b10 &
b10 '
b1010 "
b1010 #
b1010 $
b1010 %
b1010 &
b1010 '
b1011 "
b1011 #
b1011 $
b1011 %
b1011 &
b1011 '
b11 !
b1 !
b0 !
03
1,
#150323
0L
#150326
0G
#150907
1>
#150909
1G
1^
#150939
1X
1S
1Z
1=
1;
#150945
1R
#150949
1]
#150959
1W
1[
19
#150969
1@
1\
#150984
0F
0C
#150990
1A
1M
1N
1Q
1T
#151000
1P
#151004
0<
#151014
0H
#151020
1:
#151024
0I
0K
08
#151048
0E
#151108
0J
#151646
1J
#152837
1O
#153648
05
0)
#154955
1_
#155000
1U
b100 !
b110 !
b111 !
0,
#155042
1L
#155388
1Y
#155567
1V
#155609
0R
#155612
0L
#155622
1?
#155708
1`
#155887
1B
#155939
1C
#155945
0J
#155959
1<
#155979
18
#156195
0G
#156213
1R
#156377
1D
#156398
0U
#156968
1U
#156980
0V
#157535
1V
#159676
17
1+
#160000
b11 "
b11 #
b11 $
b11 %
b11 &
b11 '
b10 "
b10 #
b10 $
b10 %
b10 &
b10 '
b11 !
b1 !
b0 !
1,
#160317
0>
#160320
0D
#160321
0`
#160323
0^
#160483
0V
#160907
1>
#160909
1G
1^
#160984
0X
0Z
0=
0;
0C
#160994
0]
#161004
0W
0[
09
0<
#161014
0@
0\
#161024
08
#161028
0A
#161058
0:
#161646
1J
#161876
14
1(
#164027
07
0+
#164706
1D
#164707
1V
#164708
1`
#165000
b100 !
b110 !
b111 !
0,
#165042
1L
#165058
0J
#165190
0_
#165419
04
0(
#165608
0>
#165609
0R
#165612
0L
#165613
0G
0^
#165624
1_
#165652
0Y
#165825
0B
#165939
1C
#165959
1<
#165979
18
#166023
0?
#166027
0_
#166213
1R
#166398
0U
#166808
0`
#166812
0D
#166968
1U
#166980
0V
#167535
1V
#170000
b0 "
b0 #
b0 $
b0 %
b0 &
b0 '
b1000 "
b1000 #
b1000 $
b1000 %
b1000 &
b1000 '
b1001 "
b1001 #
b1001 $
b1001 %
b1001 &
b1001 '
b11 !
b1 !
b0 !
1,
#170483
0V
#170907
1>
#170909
1G
1^
#170939
1X
1Z
1=
1;
#170949
1]
#170959
1W
1[
19
#170969
1@
1\
#170984
0S
0C
#170990
1A
#171004
0<
#171020
1:
#171024
08
#171028
0M
0N
0Q
0T
#171038
0P
#171646
1J
#172935
0O
#174707
1V
#174955
1_
#175000
b100 !
b110 !
b111 !
0,
#175042
1L
#175058
0J
#175216
0U
#175388
1Y
#175609
0R
#175612
0L
#175613
0G
#175622
1?
#175708
1`
#175798
0V
#175850
1U
#175887
1B
#175939
1C
#175959
1<
#175979
18
#176377
1D
#176398
0U
#176417
1V
#176980
0V
#179676
17
1+
#180000
b1 "
b1 #
b1 $
b1 %
b1 &
b1 '
b0 "
b0 #
b0 $
b0 %
b0 &
b0 '
b11 !
b1 !
b0 !
1,
#180317
0>
#180320
0D
#180321
0`
#180323
0^
#180907
1>
#180909
1G
1^
#180945
1R
#180984
0X
0Z
0=
0;
0C
#180994
0]
#181004
0W
0[
09
0<
#181014
0@
0\
#181024
08
#181028
0A
#181058
0:
#181646
1J
#181876
14
1(
#184027
07
0+
#184706
1D
#184708
1`
#185000
b100 !
b110 !
b111 !
0,
#185042
1L
#185058
0J
#185190
0_
#185419
04
0(
#185608
0>
#185609
0R
#185612
0L
#185613
0G
0^
#185624
1_
#185652
0Y
#185825
0B
#185850
1U
#185939
1C
#185959
1<
#185979
18
#186023
0?
#186027
0_
#186398
0U
#186417
1V
#186808
0`
#186812
0D
#186980
0V
#190000
b100 "
b100 #
b100 $
b100 %
b100 &
b100 '
b110 "
b110 #
b110 $
b110 %
b110 &
b110 '
b111 "
b111 #
b111 $
b111 %
b111 &
b111 '
b11 !
b1 !
b0 !
13
1,
#190907
1>
#190909
1G
1^
#190939
1F
1X
1S
1Z
#190945
1R
#190949
1]
#190959
1W
1[
#190969
1H
1\
#190979
1I
1K
#190984
0C
#190990
1M
1N
1Q
1T
#191000
1P
#191004
0<
#191010
1E
#191024
08
#191646
1J
#192837
1O
#194955
1_
#195000
1U
b100 !
b110 !
b111 !
0,
#195042
1L
#195058
0J
#195388
1Y
#195567
1V
#195608
0>
#195609
0R
#195613
0G
#195708
1`
#195714
1J
#195802
1?
#195939
1C
#195959
1<
#195979
18
#196023
0?
#196177
1G
#196213
1R
#196398
0U
#196968
1U
#196980
0V
#197535
1V
#198587
15
1)
#199676
17
1+
#200000
b1111 "
b1111 #
b1111 $
b1111 %
b1111 &
b1111 '
b1110 "
b1110 #
b1110 $
b1110 %
b1110 &
b1110 '
b11 !
b1 !
b0 !
1,
#200321
0`
#200323
0^
0L
#200326
0G
#200483
0V
#200907
1>
#200909
1G
1^
#200939
1=
1;
#200959
19
#200969
1@
#200984
0X
0Z
0C
#200990
1A
#200994
0]
#201004
0W
0[
0<
#201014
0\
#201020
1:
#201024
08
#201108
0J
#201646
1J
#203648
05
0)
#204027
07
0+
#204707
1V
#204708
1`
#205000
b100 !
b110 !
b111 !
0,
#205042
1L
#205190
0_
#205609
0R
#205613
0^
#205622
1?
#205624
1_
#205652
0Y
#205887
1B
#205939
1C
#205959
1<
#205979
18
#206027
0_
#206213
1R
#206377
1D
#206398
0U
#206808
0`
#206968
1U
#206980
0V
#207535
1V
#208587
15
1)
#210000
b1100 "
b1100 #
b1100 $
b1100 %
b1100 &
b1100 '
b100 "
b100 #
b100 $
b100 %
b100 &
b100 '
b101 "
b101 #
b101 $
b101 %
b101 &
b101 '
b11 !
b1 !
b0 !
1,
#210317
0>
#210320
0D
#210323
0L
#210326
0G
#210483
0V
#210907
1>
#210909
1G
1^
#210939
1X
1Z
#210949
1]
#210959
1W
1[
#210969
1\
#210984
0S
0=
0;
0C
#211004
09
0<
#211014
0@
#211024
08
#211028
0A
0M
0N
0Q
0T
#211038
0P
#211058
0:
#211108
0J
#211646
1J
#211876
14
1(
#212935
0O
#213648
05
0)
#214706
1D
#214707
1V
#214955
1_
#215000
b100 !
b110 !
b111 !
0,
#215042
1L
#215216
0U
#215388
1Y
#215419
04
0(
#215608
0>
#215609
0R
#215708
1`
#215798
0V
#215825
0B
#215850
1U
#215939
1C
#215959
1<
#215979
18
#216023
0?
#216398
0U
#216417
1V
#216812
0D
#216980
0V
#218587
15
1)
#219676
17
1+
#220000
b1101 "
b1101 #
b1101 $
b1101 %
b1101 &
b1101 '
b1100 "
b1100 #
b1100 $
b1100 %
b1100 &
b1100 '
b11 !
b1 !
b0 !
1,
#220321
0`
#220323
0^
0L
#220326
0G
#220907
1>
#220909
1G
1^
#220939
1=
1;
#220945
1R
#220959
19
#220969
1@
#220984
0X
0Z
0C
#220990
1A
#220994
0]
#221004
0W
0[
0<
#221014
0\
#221020
1:
#221024
08
#221108
0J
#221646
1J
#223648
05
0)
#224027
07
0+
#224708
1`
#225000
b100 !
b110 !
b111 !
0,
#225042
1L
#225190
0_
#225609
0R
#225613
0^
#225622
1?
#225624
1_
#225652
0Y
#225850
1U
#225887
1B
#225939
1C
#225959
1<
#225979
18
#226027
0_
#226377
1D
#226398
0U
#226417
1V
#226808
0`
#226980
0V
#228587
15
1)
#230000
b1000 "
b1000 #
b1000 $
b1000 %
b1000 &
b1000 '
b1010 "
b1010 #
b1010 $
b1010 %
b1010 &
b1010 '
b10 "
b10 #
b10 $
b10 %
b10 &
b10 '
b11 "
b11 #
b11 $
b11 %
b11 &
b11 '
b11 !
b1 !
b0 !
03
1,
#230317
0>
#230320
0D
#230323
0L
#230326
0G
#230907
1>
#230909
1G
1^
#230939
1X
1S
1Z
#230945
1R
#230949
1]
#230959
1W
1[
#230969
1\
#230984
0F
0=
0;
0C
#230990
1M
1N
1Q
1T
#231000
1P
#231004
09
0<
#231014
0@
0H
#231024
0I
0K
08
#231028
0A
#231048
0E
#231058
0:
#231108
0J
#231646
1J
#231876
14
1(
#232837
1O
#233648
05
0)
#234706
1D
#234955
1_
#235000
1U
b100 !
b110 !
b111 !
0,
#235042
1L
#235388
1Y
#235419
04
0(
#235567
1V
#235608
0>
#235609
0R
#235612
0L
#235708
1`
#235825
0B
#235939
1C
#235945
0J
#235959
1<
#235979
18
#236023
0?
#236195
0G
#236213
1R
#236398
0U
#236812
0D
#236968
1U
#236980
0V
#237535
1V
#239676
17
1+
#240000
b1011 "
b1011 #
b1011 $
b1011 %
b1011 &
b1011 '
b1010 "
b1010 #
b1010 $
b1010 %
b1010 &
b1010 '
b11 !
b1 !
b0 !
1,
#240321
0`
#240323
0^
#240483
0V
#240907
1>
#240909
1G
1^
#240939
1=
1;
#240959
19
#240969
1@
#240984
0X
0Z
0C
#240990
1A
#240994
0]
#241004
0W
0[
0<
#241014
0\
#241020
1:
#241024
08
#241646
1J
#244027
07
0+
#244707
1V
#244708
1`
#245000
b100 !
b110 !
b111 !
0,
#245042
1L
#245058
0J
#245190
0_
#245609
0R
#245612
0L
#245613
0G
0^
#245622
1?
#245624
1_
#245652
0Y
#245887
1B
#245939
1C
#245959
1<
#245979
18
#246027
0_
#246213
1R
#246377
1D
#246398
0U
#246808
0`
#246968
1U
#246980
0V
#247535
1V
#250000
b1000 "
b1000 #
b1000 $
b1000 %
b1000 &
b1000 '
b0 "
b0 #
b0 $
b0 %
b0 &
b0 '
b1 "
b1 #
b1 $
b1 %
b1 &
b1 '
b11 !
b1 !
b0 !
1,
#250317
0>
#250320
0D
#250483
0V
#250907
1>
#250909
1G
1^
#250939
1X
1Z
#250949
1]
#250959
1W
1[
#250969
1\
#250984
0S
0=
0;
0C
#251004
09
0<
#251014
0@
#251024
08
#251028
0A
0M
0N
0Q
0T
#251038
0P
#251058
0:
#251646
1J
#251876
14
1(
#252935
0O
#254706
1D
#254707
1V
#254955
1_
#255000
b100 !
b110 !
b111 !
0,
#255042
1L
#255058
0J
#255216
0U
#255388
1Y
#255419
04
0(
#255608
0>
#255609
0R
#255612
0L
#255613
0G
#255708
1`
#255798
0V
#255825
0B
#255850
1U
#255939
1C
#255959
1<
#255979
18
#256023
0?
#256398
0U
#256417
1V
#256812
0D
#256980
0V
#259676
17
1+
#260000
b1001 "
b1001 #
b1001 $
b1001 %
b1001 &
b1001 '
b1000 "
b1000 #
b1000 $
b1000 %
b1000 &
b1000 '
b11 !
b1 !
b0 !
1,
#260321
0`
#260323
0^
#260907
1>
#260909
1G
1^
#260939
1=
1;
#260945
1R
#260959
19
#260969
1@
#260984
0X
0Z
0C
#260990
1A
#260994
0]
#261004
0W
0[
0<
#261014
0\
#261020
1:
#261024
08
#261646
1J
#264027
07
0+
#264708
1`
#265000
b100 !
b110 !
b111 !
0,
#265042
1L
#265058
0J
#265190
0_
#265609
0R
#265612
0L
#265613
0G
0^
#265622
1?
#265624
1_
#265652
0Y
#265850
1U
#265887
1B
#265939
1C
#265959
1<
#265979
18
#266027
0_
#266377
1D
#266398
0U
#266417
1V
#266808
0`
#266980
0V
#270000
b1100 "
b1100 #
b1100 $
b1100 %
b1100 &
b1100 '
b1110 "
b1110 #
b1110 $
b1110 %
b1110 &
b1110 '
b1111 "
b1111 #
b1111 $
b1111 %
b1111 &
b1111 '
b11 !
b1 !
b0 !
13
1,
#270317
0>
#270320
0D
#270907
1>
#270909
1G
1^
#270939
1F
1X
1S
1Z
#270945
1R
#270949
1]
#270959
1W
1[
#270969
1H
1\
#270979
1I
1K
#270984
0C
#270990
1M
1N
1Q
1T
#271000
1P
#271004
0<
#271010
1E
#271024
08
#271646
1J
#271876
14
1(
#272837
1O
#274706
1D
#274955
1_
#275000
1U
b100 !
b110 !
b111 !
0,
#275042
1L
#275058
0J
#275388
1Y
#275419
04
0(
#275567
1V
#275609
0R
#275613
0G
#275708
1`
#275714
1J
#275939
1C
#275959
1<
#275979
18
#276177
1G
#276213
1R
#276398
0U
#276968
1U
#276980
0V
#277535
1V
#278587
15
1)
#279676
17
1+
#280000
b111 "
b111 #
b111 $
b111 %
b111 &
b111 '
b110 "
b110 #
b110 $
b110 %
b110 &
b110 '
b11 !
b1 !
b0 !
1,
#280205
14
1(
#280317
0>
#280320
0D
#280321
0`
#280323
0^
0L
#280326
0G
#280483
0V
#280907
1>
#280909
1G
1^
#280984
0X
0Z
0=
0;
0C
#280994
0]
#281004
0W
0[
09
0<
#281014
0@
0\
#281024
08
#281028
0A
#281058
0:
#281108
0J
#281646
1J
#283648
05
0)
#284027
07
0+
#284706
1D
#284707
1V
#284708
1`
#285000
b100 !
b110 !
b111 !
0,
#285042
1L
#285190
0_
#285419
04
0(
#285608
0>
#285609
0R
#285613
0^
#285624
1_
#285652
0Y
#285825
0B
#285939
1C
#285959
1<
#285979
18
#286023
0?
#286027
0_
#286213
1R
#286398
0U
#286808
0`
#286812
0D
#286968
1U
#286980
0V
#287535
1V
#288587
15
1)
