File/simulation/qsim/sys_choice.msim.vcd
$comment
	File created using the following command:
		vcd file sys_choice.msim.vcd -direction
$end
$date
	Wed Dec 23 13:28:20 2020
$end
$version
	ModelSim Version 10.1d
$end
$timescale
	1ps
$end
$scope module sys_choice_vlg_vec_tst $end
$var reg 4 ! A0_01 [3:0] $end
$var reg 4 " A1_01 [3:0] $end
$var reg 1 # choice_01 $end
$var wire 1 $ B_01 [3] $end
$var wire 1 % B_01 [2] $end
$var wire 1 & B_01 [1] $end
$var wire 1 ' B_01 [0] $end
$var wire 1 ( sampler $end
$scope module i1 $end
$var wire 1 ) gnd $end
$var wire 1 * vcc $end
$var wire 1 + unknown $end
$var tri1 1 , devclrn $end
$var tri1 1 - devpor $end
$var tri1 1 . devoe $end
$var wire 1 / B_01[3]~output_o $end
$var wire 1 0 B_01[2]~output_o $end
$var wire 1 1 B_01[1]~output_o $end
$var wire 1 2 B_01[0]~output_o $end
$var wire 1 3 choice_01~input_o $end
$var wire 1 4 A0_01[3]~input_o $end
$var wire 1 5 A1_01[3]~input_o $end
$var wire 1 6 inst1|10~0_combout $end
$var wire 1 7 A1_01[2]~input_o $end
$var wire 1 8 A0_01[2]~input_o $end
$var wire 1 9 inst1|9~0_combout $end
$var wire 1 : A0_01[1]~input_o $end
$var wire 1 ; A1_01[1]~input_o $end
$var wire 1 < inst|10~0_combout $end
$var wire 1 = A1_01[0]~input_o $end
$var wire 1 > A0_01[0]~input_o $end
$var wire 1 ? inst|9~0_combout $end
$upscope $end
$upscope $end
$enddefinitions $end
#0
$dumpvars
b0 !
b110 "
0#
x'
x&
x%
x$
x(
0)
1*
x+
1,
1-
1.
x/
x0
x1
x2
03
04
05
x6
17
08
x9
0:
1;
x<
0=
0>
x?
$end
#4074
0?
#4327
06
#4523
0<
#4556
09
#7635
00
0%
#7747
0/
0$
#7813
01
0&
#8197
02
0'
#10000
b1 !
b111 "
0(
#10990
1>
#11000
1=
#11975
1?
#16290
12
1'
#20000
b11 !
b1111 "
b1011 "
b1001 "
b10 !
b1000 "
1(
#20969
15
#21010
1:
#21024
0;
#21028
0>
07
#21038
0=
#22084
0?
#25352
1<
#26207
02
0'
#28767
11
1&
#30000
b11 !
b1001 "
0(
#30990
1>
#31000
1=
#31975
1?
#36290
12
1'
#40000
b111 !
b101 !
b1011 "
b100 !
b1010 "
1(
#40979
1;
#41000
18
#41028
0>
#41038
0=
#41048
0:
#42084
0?
#44146
19
#45571
0<
#46207
02
0'
#47303
10
1%
#48861
01
0&
#50000
b101 !
b1011 "
0(
#50990
1>
#51000
1=
#51975
1?
#56290
12
1'
#60000
b1111 "
b111 !
b1101 "
b110 !
b1100 "
1(
#60990
17
#61010
1:
#61024
0;
#61028
0>
#61038
0=
#62084
0?
#65352
1<
#66207
02
0'
#68767
11
1&
#70000
b111 !
b1101 "
0(
#70990
1>
#71000
1=
#71975
1?
#76290
12
1'
#80000
b1111 !
b1011 !
b1001 !
b1111 "
b1000 !
b1110 "
1(
#80979
1;
#80990
14
#81028
0>
#81038
08
0=
#81048
0:
#82084
0?
#84400
09
#84824
16
#85571
0<
#86207
02
0'
#87479
00
0%
#88371
1/
1$
#88861
01
0&
#90000
b1001 !
b1111 "
0(
#90990
1>
#91000
1=
#91975
1?
#96290
12
1'
#100000
b111 "
b11 "
b1011 !
b1 "
b1010 !
b0 "
1(
#101010
1:
#101014
05
#101024
0;
#101028
07
0>
#101038
0=
#102084
0?
#105352
1<
#106207
02
0'
#108767
11
1&
#110000
b1011 !
b1 "
0(
#110990
1>
#111000
1=
#111975
1?
#116290
12
1'
#120000
b1111 !
b1101 !
b11 "
b1100 !
b10 "
1(
#120979
1;
#121000
18
#121028
0>
#121038
0=
#121048
0:
#122084
0?
#124146
19
#125571
0<
#126207
02
0'
#127303
10
1%
#128861
01
0&
#130000
b1101 !
b11 "
0(
#130990
1>
#131000
1=
#131975
1?
#136290
12
1'
#140000
b111 "
b1111 !
b101 "
b1110 !
b100 "
1(
#140990
17
#141010
1:
#141024
0;
#141028
0>
#141038
0=
#142084
0?
#145352
1<
#146207
02
0'
#148767
11
1&
#150000
b1111 !
b101 "
0(
#150990
1>
#151000
1=
#151975
1?
#156290
12
1'
#160000
b111 !
b11 !
b1 !
b111 "
b0 !
b110 "
1(
#160979
1;
#161028
04
0>
#161038
08
0=
#161048
0:
#162084
0?
#164400
09
#165040
06
#165571
0<
#166207
02
0'
#167479
00
0%
#168460
0/
0$
#168861
01
0&
#170000
b1 !
b111 "
0(
#170990
1>
#171000
1=
#171975
1?
#176290
12
1'
#180000
b1111 "
b1011 "
b11 !
b1001 "
b10 !
b1000 "
1(
#180969
15
#181010
1:
#181024
0;
#181028
07
0>
#181038
0=
#182084
0?
#185352
1<
#186207
02
0'
#188767
11
1&
#190000
b11 !
b1001 "
0(
#190990
1>
#191000
1=
#191975
1?
#196290
12
1'
#200000
b111 !
b101 !
b1011 "
b100 !
b1010 "
1(
#200979
1;
#201000
18
#201028
0>
#201038
0=
#201048
0:
#202084
0?
#204146
19
#205571
0<
#206207
02
0'
#207303
10
1%
#208861
01
0&
#210000
b101 !
b1011 "
0(
#210990
1>
#211000
1=
#211975
1?
#216290
12
1'
#220000
b1111 "
b111 !
b1101 "
b110 !
b1100 "
1(
#220990
17
#221010
1:
#221024
0;
#221028
0>
#221038
0=
#222084
0?
#225352
1<
#226207
02
0'
#228767
11
1&
#230000
b111 !
b1101 "
0(
#230990
1>
#231000
1=
#231975
1?
#236290
12
1'
#240000
b1111 !
b1011 !
b1001 !
b1111 "
b1000 !
b1110 "
1(
#240979
1;
#240990
14
#241028
0>
#241038
08
0=
#241048
0:
#242084
0?
#244400
09
#244824
16
#245571
0<
#246207
02
0'
#247479
00
0%
#248371
1/
1$
#248861
01
0&
#250000
b1001 !
b1111 "
0(
#250990
1>
#251000
1=
#251975
1?
#256290
12
1'
#260000
b111 "
b11 "
b1011 !
b1 "
b1010 !
b0 "
1(
#261010
1:
#261014
05
#261024
0;
#261028
07
0>
#261038
0=
#262084
0?
#265352
1<
#266207
02
0'
#268767
11
1&
#270000
b1011 !
b1 "
0(
#270990
1>
#271000
1=
#271975
1?
#276290
12
1'
#280000
b1111 !
b1101 !
b11 "
b1100 !
b10 "
1(
#280979
1;
#281000
18
#281028
0>
#281038
0=
#281048
0:
#282084
0?
#284146
19
#285571
0<
#286207
02
0'
#287303
10
1%
#288861
01
0&
#290000
b1101 !
b11 "
0(
#290990
1>
#291000
1=
#291975
1?
#296290
12
1'
#300000
b111 "
b1111 !
b101 "
b1110 !
b100 "
1(
#300990
17
#301010
1:
#301024
0;
#301028
0>
#301038
0=
#302084
0?
#305352
1<
#306207
02
0'
#308767
11
1&
#310000
b1111 !
b101 "
0(
#310990
1>
#311000
1=
#311975
1?
#316290
12
1'
#320000
b111 !
b11 !
b1 !
b111 "
b0 !
b110 "
1(
#320979
1;
#321028
04
0>
#321038
08
0=
#321048
0:
#322084
0?
#324400
09
#325040
06
#325571
0<
#326207
02
0'
#327479
00
0%
#328460
0/
0$
#328861
01
0&
#330000
b1 !
b111 "
0(
#330990
1>
#331000
1=
#331975
1?
#336290
12
1'
#340000
b1111 "
b1011 "
b11 !
b1001 "
b10 !
b1000 "
1(
#340969
15
#341010
1:
#341024
0;
#341028
07
0>
#341038
0=
#342084
0?
#345352
1<
#346207
02
0'
#348767
11
1&
#350000
b11 !
b1001 "
0(
#350990
1>
#351000
1=
#351975
1?
#356290
12
1'
#360000
b111 !
b101 !
b1011 "
b100 !
b1010 "
1(
#360979
1;
#361000
18
#361028
0>
#361038
0=
#361048
0:
#362084
0?
#364146
19
#365571
0<
#366207
02
0'
#367303
10
1%
#368861
01
0&
#370000
b101 !
b1011 "
0(
#370990
1>
#371000
1=
#371975
1?
#376290
12
1'
#380000
b1111 "
b111 !
b1101 "
b110 !
b1100 "
1(
#380990
17
#381010
1:
#381024
0;
#381028
0>
#381038
0=
#382084
0?
#385352
1<
#386207
02
0'
#388767
11
1&
#390000
b111 !
b1101 "
0(
#390990
1>
#391000
1=
#391975
1?
#396290
12
1'
#400000
b1111 !
b1011 !
b1001 !
b1111 "
b1000 !
b1110 "
1(
#400979
1;
#400990
14
#401028
0>
#401038
08
0=
#401048
0:
#402084
0?
#404400
09
#404824
16
#405571
0<
#406207
02
0'
#407479
00
0%
#408371
1/
1$
#408861
01
0&
#410000
b1001 !
b1111 "
0(
#410990
1>
#411000
1=
#411975
1?
#416290
12
1'
#420000
b111 "
b11 "
b1011 !
b1 "
b1010 !
b0 "
1(
#421010
1:
#421014
05
#421024
0;
#421028
07
0>
#421038
0=
#422084
0?
#425352
1<
#426207
02
0'
#428767
11
1&
#430000
b1011 !
b1 "
0(
#430990
1>
#431000
1=
#431975
1?
#436290
12
1'
#440000
b1111 !
b1101 !
b11 "
b1100 !
b10 "
1(
#440979
1;
#441000
18
#441028
0>
#441038
0=
#441048
0:
#442084
0?
#444146
19
#445571
0<
#446207
02
0'
#447303
10
1%
#448861
01
0&
#450000
b1101 !
b11 "
0(
#450990
1>
#451000
1=
#451975
1?
#456290
12
1'
#460000
b111 "
b1111 !
b101 "
b1110 !
b100 "
1(
#460990
17
#461010
1:
#461024
0;
#461028
0>
#461038
0=
#462084
0?
#465352
1<
#466207
02
0'
#468767
11
1&
#470000
b1111 !
b101 "
0(
#470990
1>
#471000
1=
#471975
1?
#476290
12
1'
#480000
b111 !
b11 !
b1 !
b111 "
b0 !
b110 "
1(
#480979
1;
#481028
04
0>
#481038
08
0=
#481048
0:
#482084
0?
#484400
09
#485040
06
#485571
0<
#486207
02
0'
#487479
00
0%
#488460
0/
0$
#488861
01
0&
#490000
b1 !
b111 "
0(
#490990
1>
#491000
1=
#491975
1?
#496290
12
1'
#500000
b1111 "
b1011 "
b11 !
b1001 "
b10 !
b1000 "
1(
#500969
15
#501010
1:
#501024
0;
#501028
07
0>
#501038
0=
#502084
0?
#505352
1<
#506207
02
0'
#508767
11
1&
#510000
b11 !
b1001 "
0(
#510990
1>
#511000
1=
#511975
1?
#516290
12
1'
#520000
b111 !
b101 !
b1011 "
b100 !
b1010 "
1(
#520979
1;
#521000
18
#521028
0>
#521038
0=
#521048
0:
#522084
0?
#524146
19
#525571
0<
#526207
02
0'
#527303
10
1%
#528861
01
0&
#530000
b101 !
b1011 "
0(
#530990
1>
#531000
1=
#531975
1?
#536290
12
1'
#540000
b1111 "
b111 !
b1101 "
b110 !
b1100 "
1(
#540990
17
#541010
1:
#541024
0;
#541028
0>
#541038
0=
#542084
0?
#545352
1<
#546207
02
0'
#548767
11
1&
#550000
b111 !
b1101 "
0(
#550990
1>
#551000
1=
#551975
1?
#556290
12
1'
#560000
b1111 !
b1011 !
b1001 !
b1111 "
b1000 !
b1110 "
1(
#560979
1;
#560990
14
#561028
0>
#561038
08
0=
#561048
0:
#562084
0?
#564400
09
#564824
16
#565571
0<
#566207
02
0'
#567479
00
0%
#568371
1/
1$
#568861
01
0&
#570000
b1001 !
b1111 "
0(
#570990
1>
#571000
1=
#571975
1?
#576290
12
1'
#580000
b111 "
b11 "
b1011 !
b1 "
b1010 !
b0 "
1(
#581010
1:
#581014
05
#581024
0;
#581028
07
0>
#581038
0=
#582084
0?
#585352
1<
#586207
02
0'
#588767
11
1&
#590000
b1011 !
b1 "
0(
#590990
1>
#591000
1=
#591975
1?
#596290
12
1'
#600000
b1111 !
b1101 !
b11 "
b1100 !
b10 "
1(
#600979
1;
#601000
18
#601028
0>
#601038
0=
#601048
0:
#602084
0?
#604146
19
#605571
0<
#606207
02
0'
#607303
10
1%
#608861
01
0&
#610000
b1101 !
b11 "
0(
#610990
1>
#611000
1=
#611975
1?
#616290
12
1'
#620000
b111 "
b1111 !
b101 "
b1110 !
b100 "
1(
#620990
17
#621010
1:
#621024
0;
#621028
0>
#621038
0=
#622084
0?
#625352
1<
#626207
02
0'
#628767
11
1&
#630000
b1111 !
b101 "
0(
#630990
1>
#631000
1=
#631975
1?
#636290
12
1'
#640000
b111 !
b11 !
b1 !
b111 "
b0 !
b110 "
1(
#640979
1;
#641028
04
0>
#641038
08
0=
#641048
0:
#642084
0?
#644400
09
#645040
06
#645571
0<
#646207
02
0'
#647479
00
0%
#648460
0/
0$
#648861
01
0&
#650000
b1 !
b111 "
0(
#650990
1>
#651000
1=
#651975
1?
#656290
12
1'
#660000
b1111 "
b1011 "
b11 !
b1001 "
b10 !
b1000 "
1(
#660969
15
#661010
1:
#661024
0;
#661028
07
0>
#661038
0=
#662084
0?
#665352
1<
#666207
02
0'
#668767
11
1&
#670000
b11 !
b1001 "
0(
#670990
1>
#671000
1=
#671975
1?
#676290
12
1'
#680000
b111 !
b101 !
b1011 "
b100 !
b1010 "
1(
#680979
1;
#681000
18
#681028
0>
#681038
0=
#681048
0:
#682084
0?
#684146
19
#685571
0<
#686207
02
0'
#687303
10
1%
#688861
01
0&
#690000
b101 !
b1011 "
0(
#690990
1>
#691000
1=
#691975
1?
#696290
12
1'
#700000
b1111 "
b111 !
b1101 "
b110 !
b1100 "
1(
#700990
17
#701010
1:
#701024
0;
#701028
0>
#701038
0=
#702084
0?
#705352
1<
#706207
02
0'
#708767
11
1&
#710000
b111 !
b1101 "
0(
#710990
1>
#711000
1=
#711975
1?
#716290
12
1'
#720000
b1111 !
b1011 !
b1001 !
b1111 "
b1000 !
b1110 "
1(
#720979
1;
#720990
14
#721028
0>
#721038
08
0=
#721048
0:
#722084
0?
#724400
09
#724824
16
#725571
0<
#726207
02
0'
#727479
00
0%
#728371
1/
1$
#728861
01
0&
#730000
b1001 !
b1111 "
0(
#730990
1>
#731000
1=
#731975
1?
#736290
12
1'
#740000
b111 "
b11 "
b1011 !
b1 "
b1010 !
b0 "
1(
#741010
1:
#741014
05
#741024
0;
#741028
07
0>
#741038
0=
#742084
0?
#745352
1<
#746207
02
0'
#748767
11
1&
#750000
b1011 !
b1 "
0(
#750990
1>
#751000
1=
#751975
1?
#756290
12
1'
#760000
b1111 !
b1101 !
b11 "
b1100 !
b10 "
1(
#760979
1;
#761000
18
#761028
0>
#761038
0=
#761048
0:
#762084
0?
#764146
19
#765571
0<
#766207
02
0'
#767303
10
1%
#768861
01
0&
#770000
b1101 !
b11 "
0(
#770990
1>
#771000
1=
#771975
1?
#776290
12
1'
#780000
b111 "
b1111 !
b101 "
b1110 !
b100 "
1(
#780990
17
#781010
1:
#781024
0;
#781028
0>
#781038
0=
#782084
0?
#785352
1<
#786207
02
0'
#788767
11
1&
#790000
b1111 !
b101 "
0(
#790990
1>
#791000
1=
#791975
1?
#796290
12
1'
#800000
b111 !
b11 !
b1 !
b111 "
b0 !
b110 "
1(
#800979
1;
#801028
04
0>
#801038
08
0=
#801048
0:
#802084
0?
#804400
09
#805040
06
#805571
0<
#806207
02
0'
#807479
00
0%
#808460
0/
0$
#808861
01
0&
#810000
b1 !
b111 "
0(
#810990
1>
#811000
1=
#811975
1?
#816290
12
1'
#820000
b1111 "
b1011 "
b11 !
b1001 "
b10 !
b1000 "
1(
#820969
15
#821010
1:
#821024
0;
#821028
07
0>
#821038
0=
#822084
0?
#825352
1<
#826207
02
0'
#828767
11
1&
#830000
b11 !
b1001 "
0(
#830990
1>
#831000
1=
#831975
1?
#836290
12
1'
#840000
b111 !
b101 !
b1011 "
b100 !
b1010 "
1(
#840979
1;
#841000
18
#841028
0>
#841038
0=
#841048
0:
#842084
0?
#844146
19
#845571
0<
#846207
02
0'
#847303
10
1%
#848861
01
0&
#850000
b101 !
b1011 "
0(
#850990
1>
#851000
1=
#851975
1?
#856290
12
1'
#860000
b1111 "
b111 !
b1101 "
b110 !
b1100 "
1(
#860990
17
#861010
1:
#861024
0;
#861028
0>
#861038
0=
#862084
0?
#865352
1<
#866207
02
0'
#868767
11
1&
#870000
b111 !
b1101 "
0(
#870990
1>
#871000
1=
#871975
1?
#876290
12
1'
#880000
b1111 !
b1011 !
b1001 !
b1111 "
b1000 !
b1110 "
1(
#880979
1;
#880990
14
#881028
0>
#881038
08
0=
#881048
0:
#882084
0?
#884400
09
#884824
16
#885571
0<
#886207
02
0'
#887479
00
0%
#888371
1/
1$
#888861
01
0&
#890000
b1001 !
b1111 "
0(
#890990
1>
#891000
1=
#891975
1?
#896290
12
1'
#900000
b111 "
b11 "
b1011 !
b1 "
b1010 !
b0 "
1(
#901010
1:
#901014
05
#901024
0;
#901028
07
0>
#901038
0=
#902084
0?
#905352
1<
#906207
02
0'
#908767
11
1&
#910000
b1011 !
b1 "
0(
#910990
1>
#911000
1=
#911975
1?
#916290
12
1'
#920000
b1111 !
b1101 !
b11 "
b1100 !
b10 "
1(
#920979
1;
#921000
18
#921028
0>
#921038
0=
#921048
0:
#922084
0?
#924146
19
#925571
0<
#926207
02
0'
#927303
10
1%
#928861
01
0&
#930000
b1101 !
b11 "
0(
#930990
1>
#931000
1=
#931975
1?
#936290
12
1'
#940000
b111 "
b1111 !
b101 "
b1110 !
b100 "
1(
#940990
17
#941010
1:
#941024
0;
#941028
0>
#941038
0=
#942084
0?
#945352
1<
#946207
02
0'
#948767
11
1&
#950000
b1111 !
b101 "
0(
#950990
1>
#951000
1=
#951975
1?
#956290
12
1'
#960000
b111 !
b11 !
b1 !
b111 "
b0 !
b110 "
1(
#960979
1;
#961028
04
0>
#961038
08
0=
#961048
0:
#962084
0?
#964400
09
#965040
06
#965571
0<
#966207
02
0'
#967479
00
0%
#968460
0/
0$
#968861
01
0&
#970000
b1 !
b111 "
0(
#970990
1>
#971000
1=
#971975
1?
#976290
12
1'
#980000
b1111 "
b1011 "
b11 !
b1001 "
b10 !
b1000 "
1(
#980969
15
#981010
1:
#981024
0;
#981028
07
0>
#981038
0=
#982084
0?
#985352
1<
#986207
02
0'
#988767
11
1&
#990000
b11 !
b1001 "
0(
#990990
1>
#991000
1=
#991975
1?
#996290
12
1'
