File/simulation/qsim/Top_level.msim.vcd
$comment
	File created using the following command:
		vcd file Top_level.msim.vcd -direction
$end
$date
	Wed Dec 23 13:32:54 2020
$end
$version
	ModelSim Version 10.1d
$end
$timescale
	1ps
$end
$scope module Top_level_vlg_vec_tst $end
$var reg 8 ! ala_key [7:0] $end
$var reg 1 " ala_sw2_01 $end
$var reg 1 # ala_sw3_01 $end
$var reg 1 $ chron_sw4_01 $end
$var reg 1 % clk_01 $end
$var reg 1 & CR_sw1_01 $end
$var reg 1 ' int_sw5_01 $end
$var reg 1 ( pin_sw7_01 $end
$var reg 1 ) sus_sw0_01 $end
$var reg 1 * sys_sw6_01 $end
$var wire 1 + ala_01 $end
$var wire 1 , dig_01 [5] $end
$var wire 1 - dig_01 [4] $end
$var wire 1 . dig_01 [3] $end
$var wire 1 / dig_01 [2] $end
$var wire 1 0 dig_01 [1] $end
$var wire 1 1 dig_01 [0] $end
$var wire 1 2 led_am $end
$var wire 1 3 led_pm $end
$var wire 1 4 seg_01 [6] $end
$var wire 1 5 seg_01 [5] $end
$var wire 1 6 seg_01 [4] $end
$var wire 1 7 seg_01 [3] $end
$var wire 1 8 seg_01 [2] $end
$var wire 1 9 seg_01 [1] $end
$var wire 1 : seg_01 [0] $end
$var wire 1 ; sampler $end
$scope module i1 $end
$var wire 1 < gnd $end
$var wire 1 = vcc $end
$var wire 1 > unknown $end
$var tri1 1 ? devclrn $end
$var tri1 1 @ devpor $end
$var tri1 1 A devoe $end
$var wire 1 B ala_01~output_o $end
$var wire 1 C led_am~output_o $end
$var wire 1 D led_pm~output_o $end
$var wire 1 E dig_01[5]~output_o $end
$var wire 1 F dig_01[4]~output_o $end
$var wire 1 G dig_01[3]~output_o $end
$var wire 1 H dig_01[2]~output_o $end
$var wire 1 I dig_01[1]~output_o $end
$var wire 1 J dig_01[0]~output_o $end
$var wire 1 K seg_01[6]~output_o $end
$var wire 1 L seg_01[5]~output_o $end
$var wire 1 M seg_01[4]~output_o $end
$var wire 1 N seg_01[3]~output_o $end
$var wire 1 O seg_01[2]~output_o $end
$var wire 1 P seg_01[1]~output_o $end
$var wire 1 Q seg_01[0]~output_o $end
$var wire 1 R clk_01~input_o $end
$var wire 1 S inst|inst|inst|34~0_combout $end
$var wire 1 T inst|inst|inst|34~feeder_combout $end
$var wire 1 U inst|inst|inst|34~q $end
$var wire 1 V inst|inst|inst|29~combout $end
$var wire 1 W inst|inst|inst|33~0_combout $end
$var wire 1 X inst|inst|inst|33~q $end
$var wire 1 Y inst|inst|inst|32~0_combout $end
$var wire 1 Z inst|inst|inst|32~q $end
$var wire 1 [ inst|inst|inst|31~0_combout $end
$var wire 1 \ inst|inst|inst|31~feeder_combout $end
$var wire 1 ] inst|inst|inst|31~q $end
$var wire 1 ^ inst|inst|inst|7~0_combout $end
$var wire 1 _ inst|inst|inst|7~feeder_combout $end
$var wire 1 ` inst|inst|inst|7~q $end
$var wire 1 a inst|inst|inst|20~combout $end
$var wire 1 b inst|inst|inst|6~0_combout $end
$var wire 1 c inst|inst|inst|6~q $end
$var wire 1 d inst|inst|inst|5~0_combout $end
$var wire 1 e inst|inst|inst|5~q $end
$var wire 1 f inst|inst|inst|3~0_combout $end
$var wire 1 g inst|inst|inst|3~feeder_combout $end
$var wire 1 h inst|inst|inst|3~q $end
$var wire 1 i inst|inst1|inst|34~0_combout $end
$var wire 1 j inst|inst1|inst|34~feeder_combout $end
$var wire 1 k inst|inst1|inst|34~q $end
$var wire 1 l inst|inst1|inst|29~combout $end
$var wire 1 m inst|inst1|inst|33~0_combout $end
$var wire 1 n inst|inst1|inst|33~feeder_combout $end
$var wire 1 o inst|inst1|inst|33~q $end
$var wire 1 p inst|inst1|inst|32~0_combout $end
$var wire 1 q inst|inst1|inst|32~q $end
$var wire 1 r inst|inst1|inst|31~0_combout $end
$var wire 1 s inst|inst1|inst|31~feeder_combout $end
$var wire 1 t inst|inst1|inst|31~q $end
$var wire 1 u inst|inst1|inst|7~0_combout $end
$var wire 1 v inst|inst1|inst|7~feeder_combout $end
$var wire 1 w inst|inst1|inst|7~q $end
$var wire 1 x inst|inst1|inst|20~combout $end
$var wire 1 y inst|inst1|inst|6~0_combout $end
$var wire 1 z inst|inst1|inst|6~feeder_combout $end
$var wire 1 { inst|inst1|inst|6~q $end
$var wire 1 | inst|inst1|inst|5~0_combout $end
$var wire 1 } inst|inst1|inst|5~q $end
$var wire 1 ~ inst|inst1|inst|3~0_combout $end
$var wire 1 !! inst|inst1|inst|3~feeder_combout $end
$var wire 1 "! inst|inst1|inst|3~q $end
$var wire 1 #! inst|inst3|20~combout $end
$var wire 1 $! inst|inst3|6~0_combout $end
$var wire 1 %! inst|inst3|6~feeder_combout $end
$var wire 1 &! inst|inst3|6~q $end
$var wire 1 '! inst|inst3|5~0_combout $end
$var wire 1 (! inst|inst3|5~q $end
$var wire 1 )! inst|inst3|3~0_combout $end
$var wire 1 *! inst|inst3|3~feeder_combout $end
$var wire 1 +! inst|inst3|3~q $end
$var wire 1 ,! chron_sw4_01~input_o $end
$var wire 1 -! int_sw5_01~input_o $end
$var wire 1 .! sys_sw6_01~input_o $end
$var wire 1 /! sus_sw0_01~input_o $end
$var wire 1 0! pin_sw7_01~input_o $end
$var wire 1 1! inst|inst3|3~clkctrl_outclk $end
$var wire 1 2! inst|inst3|7~0_combout $end
$var wire 1 3! inst|inst3|7~feeder_combout $end
$var wire 1 4! inst|inst3|7~q $end
$var wire 1 5! inst|inst3|29~combout $end
$var wire 1 6! inst|inst3|33~0_combout $end
$var wire 1 7! inst|inst3|33~q $end
$var wire 1 8! inst|inst3|32~0_combout $end
$var wire 1 9! inst|inst3|32~q $end
$var wire 1 :! inst|inst3|31~0_combout $end
$var wire 1 ;! inst|inst3|31~feeder_combout $end
$var wire 1 <! inst|inst3|31~q $end
$var wire 1 =! inst|inst2|inst|34~0_combout $end
$var wire 1 >! inst|inst2|inst|34~feeder_combout $end
$var wire 1 ?! inst|inst2|inst|34~q $end
$var wire 1 @! inst|inst2|inst|29~combout $end
$var wire 1 A! inst|inst2|inst|33~0_combout $end
$var wire 1 B! inst|inst2|inst|33~feeder_combout $end
$var wire 1 C! inst|inst2|inst|33~q $end
$var wire 1 D! inst|inst2|inst|32~0_combout $end
$var wire 1 E! inst|inst2|inst|32~q $end
$var wire 1 F! inst|inst2|inst|31~0_combout $end
$var wire 1 G! inst|inst2|inst|31~feeder_combout $end
$var wire 1 H! inst|inst2|inst|31~q $end
$var wire 1 I! inst|inst2|inst|7~0_combout $end
$var wire 1 J! inst|inst2|inst|7~feeder_combout $end
$var wire 1 K! inst|inst2|inst|7~q $end
$var wire 1 L! inst|inst2|inst|20~combout $end
$var wire 1 M! inst|inst2|inst|6~0_combout $end
$var wire 1 N! inst|inst2|inst|6~feeder_combout $end
$var wire 1 O! inst|inst2|inst|6~q $end
$var wire 1 P! inst|inst2|inst|5~0_combout $end
$var wire 1 Q! inst|inst2|inst|5~q $end
$var wire 1 R! inst|inst2|inst|3~0_combout $end
$var wire 1 S! inst|inst2|inst|3~q $end
$var wire 1 T! inst95|inst|10~0_combout $end
$var wire 1 U! inst4~combout $end
$var wire 1 V! inst67|inst|inst1|7~0_combout $end
$var wire 1 W! inst67|inst|inst1|7~feeder_combout $end
$var wire 1 X! CR_sw1_01~input_o $end
$var wire 1 Y! CR_sw1_01~inputclkctrl_outclk $end
$var wire 1 Z! inst67|inst|inst1|7~q $end
$var wire 1 [! inst67|inst|inst1|20~combout $end
$var wire 1 \! inst67|inst|inst1|6~0_combout $end
$var wire 1 ]! inst67|inst|inst1|6~feeder_combout $end
$var wire 1 ^! inst67|inst|inst1|6~q $end
$var wire 1 _! inst67|inst|inst1|5~0_combout $end
$var wire 1 `! inst67|inst|inst1|5~q $end
$var wire 1 a! inst67|inst|inst1|3~0_combout $end
$var wire 1 b! inst67|inst|inst1|3~feeder_combout $end
$var wire 1 c! inst67|inst|inst1|3~q $end
$var wire 1 d! inst67|inst|inst1|34~0_combout $end
$var wire 1 e! inst67|inst|inst1|34~feeder_combout $end
$var wire 1 f! inst67|inst|inst1|32~0_combout $end
$var wire 1 g! inst67|inst|inst1|32~feeder_combout $end
$var wire 1 h! inst67|inst|inst1|32~q $end
$var wire 1 i! inst67|inst|inst1|31~0_combout $end
$var wire 1 j! inst67|inst|inst1|31~feeder_combout $end
$var wire 1 k! inst67|inst|inst1|31~q $end
$var wire 1 l! inst67|inst|inst1|29~combout $end
$var wire 1 m! inst67|inst|inst1|33~0_combout $end
$var wire 1 n! inst67|inst|inst1|33~feeder_combout $end
$var wire 1 o! inst67|inst|inst1|33~q $end
$var wire 1 p! inst67|inst|inst3|4~combout $end
$var wire 1 q! inst67|inst|inst3|4~clkctrl_outclk $end
$var wire 1 r! inst67|inst|inst1|34~q $end
$var wire 1 s! inst67|inst|inst2~combout $end
$var wire 1 t! inst67|inst1|inst1|7~0_combout $end
$var wire 1 u! inst67|inst1|inst1|7~q $end
$var wire 1 v! inst67|inst1|inst1|20~combout $end
$var wire 1 w! inst67|inst1|inst1|6~0_combout $end
$var wire 1 x! inst67|inst1|inst1|6~feeder_combout $end
$var wire 1 y! inst67|inst1|inst1|6~q $end
$var wire 1 z! inst67|inst1|inst1|5~0_combout $end
$var wire 1 {! inst67|inst1|inst1|5~q $end
$var wire 1 |! inst67|inst1|inst1|3~0_combout $end
$var wire 1 }! inst67|inst1|inst1|3~feeder_combout $end
$var wire 1 ~! inst67|inst1|inst1|3~q $end
$var wire 1 !" inst67|inst1|inst1|34~0_combout $end
$var wire 1 "" inst67|inst1|inst1|34~feeder_combout $end
$var wire 1 #" inst67|inst1|inst1|32~0_combout $end
$var wire 1 $" inst67|inst1|inst1|32~feeder_combout $end
$var wire 1 %" inst67|inst1|inst1|32~q $end
$var wire 1 &" inst67|inst1|inst1|31~0_combout $end
$var wire 1 '" inst67|inst1|inst1|31~feeder_combout $end
$var wire 1 (" inst67|inst1|inst1|31~q $end
$var wire 1 )" inst67|inst1|inst1|29~combout $end
$var wire 1 *" inst67|inst1|inst1|33~0_combout $end
$var wire 1 +" inst67|inst1|inst1|33~q $end
$var wire 1 ," inst67|inst1|inst3|4~combout $end
$var wire 1 -" inst67|inst1|inst3|4~clkctrl_outclk $end
$var wire 1 ." inst67|inst1|inst1|34~q $end
$var wire 1 /" inst67|inst1|inst2~combout $end
$var wire 1 0" inst67|inst1|inst2~clkctrl_outclk $end
$var wire 1 1" inst67|inst2|inst|7~0_combout $end
$var wire 1 2" inst67|inst2|inst|3~0_combout $end
$var wire 1 3" inst67|inst2|inst|3~q $end
$var wire 1 4" inst67|inst2|inst|20~combout $end
$var wire 1 5" inst67|inst2|inst|6~0_combout $end
$var wire 1 6" inst67|inst2|inst|6~feeder_combout $end
$var wire 1 7" inst67|inst2|inst|6~q $end
$var wire 1 8" inst67|inst2|inst|5~0_combout $end
$var wire 1 9" inst67|inst2|inst|5~q $end
$var wire 1 :" inst67|inst2|inst|34~0_combout $end
$var wire 1 ;" inst67|inst2|inst|34~feeder_combout $end
$var wire 1 <" inst67|inst2|inst|34~q $end
$var wire 1 =" inst67|inst2|inst|32~0_combout $end
$var wire 1 >" inst67|inst2|inst|32~q $end
$var wire 1 ?" inst67|inst2|inst|31~0_combout $end
$var wire 1 @" inst67|inst2|inst|31~feeder_combout $end
$var wire 1 A" inst67|inst2|inst|31~q $end
$var wire 1 B" inst67|inst2|inst|29~combout $end
$var wire 1 C" inst67|inst2|inst|33~0_combout $end
$var wire 1 D" inst67|inst2|inst|33~feeder_combout $end
$var wire 1 E" inst67|inst2|inst|33~q $end
$var wire 1 F" inst67|inst2|inst3|4~combout $end
$var wire 1 G" inst67|inst2|inst3|4~clkctrl_outclk $end
$var wire 1 H" inst67|inst2|inst|7~q $end
$var wire 1 I" inst67|inst3|inst|7~0_combout $end
$var wire 1 J" inst67|inst3|inst|7~feeder_combout $end
$var wire 1 K" inst67|inst3|inst|5~0_combout $end
$var wire 1 L" inst67|inst3|inst|5~q $end
$var wire 1 M" inst67|inst3|inst|3~0_combout $end
$var wire 1 N" inst67|inst3|inst|3~feeder_combout $end
$var wire 1 O" inst67|inst3|inst|3~q $end
$var wire 1 P" inst67|inst3|inst|20~combout $end
$var wire 1 Q" inst67|inst3|inst|6~0_combout $end
$var wire 1 R" inst67|inst3|inst|6~q $end
$var wire 1 S" inst67|inst3|inst|34~0_combout $end
$var wire 1 T" inst67|inst3|inst|34~feeder_combout $end
$var wire 1 U" inst67|inst3|inst|34~q $end
$var wire 1 V" inst67|inst3|inst3|4~combout $end
$var wire 1 W" inst67|inst3|inst3|4~clkctrl_outclk $end
$var wire 1 X" inst67|inst3|inst|7~q $end
$var wire 1 Y" inst48|inst4|inst5|sub|90~combout $end
$var wire 1 Z" inst67|inst12|inst|10~0_combout $end
$var wire 1 [" inst48|inst6~0_combout $end
$var wire 1 \" inst67|inst12|inst1|10~0_combout $end
$var wire 1 ]" inst67|inst12|inst1|9~0_combout $end
$var wire 1 ^" inst48|inst6~1_combout $end
$var wire 1 _" inst67|inst13|inst|9~0_combout $end
$var wire 1 `" inst67|inst3|inst|32~0_combout $end
$var wire 1 a" inst67|inst3|inst|32~q $end
$var wire 1 b" inst67|inst3|inst|31~0_combout $end
$var wire 1 c" inst67|inst3|inst|31~feeder_combout $end
$var wire 1 d" inst67|inst3|inst|31~q $end
$var wire 1 e" inst67|inst3|inst|29~combout $end
$var wire 1 f" inst67|inst3|inst|33~0_combout $end
$var wire 1 g" inst67|inst3|inst|33~q $end
$var wire 1 h" inst67|inst13|inst|10~0_combout $end
$var wire 1 i" inst48|inst6~2_combout $end
$var wire 1 j" inst67|inst13|inst1|9~0_combout $end
$var wire 1 k" inst67|inst13|inst1|10~0_combout $end
$var wire 1 l" inst48|inst6~3_combout $end
$var wire 1 m" inst48|inst6~5_combout $end
$var wire 1 n" inst48|inst6~6_combout $end
$var wire 1 o" inst48|inst6~4_combout $end
$var wire 1 p" inst48|inst6~7_combout $end
$var wire 1 q" inst48|inst6~7clkctrl_outclk $end
$var wire 1 r" inst54|inst6~4_combout $end
$var wire 1 s" inst54|inst6~7_combout $end
$var wire 1 t" inst54|inst6~5_combout $end
$var wire 1 u" inst54|inst6~6_combout $end
$var wire 1 v" inst54|inst6~8_combout $end
$var wire 1 w" ala_key[5]~input_o $end
$var wire 1 x" inst68|inst5|inst1|inst|3~feeder_combout $end
$var wire 1 y" inst68|inst5|inst1|inst|3~q $end
$var wire 1 z" inst68|inst5|inst1|inst|4~q $end
$var wire 1 {" ala_key[4]~input_o $end
$var wire 1 |" inst68|inst5|inst|inst|3~feeder_combout $end
$var wire 1 }" inst68|inst5|inst|inst|3~q $end
$var wire 1 ~" inst68|inst5|inst|inst|4~feeder_combout $end
$var wire 1 !# inst68|inst5|inst|inst|4~q $end
$var wire 1 "# inst54|inst6~2_combout $end
$var wire 1 ## ala_key[6]~input_o $end
$var wire 1 $# inst68|inst5|inst2|inst|3~feeder_combout $end
$var wire 1 %# inst68|inst5|inst2|inst|3~q $end
$var wire 1 &# inst68|inst5|inst2|inst|4~q $end
$var wire 1 '# ala_key[7]~input_o $end
$var wire 1 (# inst68|inst5|inst3|inst|3~feeder_combout $end
$var wire 1 )# inst68|inst5|inst3|inst|3~q $end
$var wire 1 *# inst68|inst5|inst3|inst|4~feeder_combout $end
$var wire 1 +# inst68|inst5|inst3|inst|4~q $end
$var wire 1 ,# inst54|inst6~3_combout $end
$var wire 1 -# ala_key[3]~input_o $end
$var wire 1 .# inst68|inst4|inst3|inst|3~feeder_combout $end
$var wire 1 /# inst68|inst4|inst3|inst|3~q $end
$var wire 1 0# inst68|inst4|inst3|inst|4~feeder_combout $end
$var wire 1 1# inst68|inst4|inst3|inst|4~q $end
$var wire 1 2# ala_key[2]~input_o $end
$var wire 1 3# inst68|inst4|inst2|inst|3~q $end
$var wire 1 4# inst68|inst4|inst2|inst|4~q $end
$var wire 1 5# inst54|inst6~0_combout $end
$var wire 1 6# ala_key[0]~input_o $end
$var wire 1 7# inst68|inst4|inst|inst|3~feeder_combout $end
$var wire 1 8# inst68|inst4|inst|inst|3~q $end
$var wire 1 9# inst68|inst4|inst|inst|4~q $end
$var wire 1 :# inst54|inst4|inst5|sub|90~combout $end
$var wire 1 ;# ala_key[1]~input_o $end
$var wire 1 <# inst68|inst4|inst1|inst|3~q $end
$var wire 1 =# inst68|inst4|inst1|inst|4~q $end
$var wire 1 ># inst54|inst6~1_combout $end
$var wire 1 ?# inst54|inst6~9_combout $end
$var wire 1 @# inst54|inst6~9clkctrl_outclk $end
$var wire 1 A# inst65~0_combout $end
$var wire 1 B# inst67|inst6~3_combout $end
$var wire 1 C# inst67|inst6~1_combout $end
$var wire 1 D# inst67|inst6~2_combout $end
$var wire 1 E# inst67|inst6~0_combout $end
$var wire 1 F# inst67|inst6~4_combout $end
$var wire 1 G# inst59~combout $end
$var wire 1 H# inst60~combout $end
$var wire 1 I# inst5|inst|inst|7~0_combout $end
$var wire 1 J# inst5|inst|inst|7~feeder_combout $end
$var wire 1 K# inst5|inst|inst|7~q $end
$var wire 1 L# inst5|inst|inst|5~0_combout $end
$var wire 1 M# inst5|inst|inst|5~q $end
$var wire 1 N# inst5|inst|inst|3~0_combout $end
$var wire 1 O# inst5|inst|inst|3~q $end
$var wire 1 P# inst5|inst|inst|20~combout $end
$var wire 1 Q# inst5|inst|inst|6~0_combout $end
$var wire 1 R# inst5|inst|inst|6~q $end
$var wire 1 S# inst5|inst4|inst|15~0_combout $end
$var wire 1 T# inst5|inst4|inst|15~1_combout $end
$var wire 1 U# inst5|inst4|inst|15~2_combout $end
$var wire 1 V# inst5|inst4|inst|15~3_combout $end
$var wire 1 W# inst5|inst4|inst|15~4_combout $end
$var wire 1 X# inst5|inst4|inst|15~5_combout $end
$var wire 1 Y# ala_sw3_01~input_o $end
$var wire 1 Z# inst105~combout $end
$var wire 1 [# inst100|inst|inst1|7~0_combout $end
$var wire 1 \# inst100|inst|inst1|7~feeder_combout $end
$var wire 1 ]# ala_sw2_01~input_o $end
$var wire 1 ^# inst100|inst|inst1|7~q $end
$var wire 1 _# inst100|inst|inst1|20~combout $end
$var wire 1 `# inst100|inst|inst1|6~0_combout $end
$var wire 1 a# inst100|inst|inst1|6~feeder_combout $end
$var wire 1 b# inst100|inst|inst1|6~q $end
$var wire 1 c# inst100|inst|inst1|5~0_combout $end
$var wire 1 d# inst100|inst|inst1|5~q $end
$var wire 1 e# inst100|inst|inst1|3~0_combout $end
$var wire 1 f# inst100|inst|inst1|3~feeder_combout $end
$var wire 1 g# inst100|inst|inst1|3~q $end
$var wire 1 h# inst100|inst|inst1|34~0_combout $end
$var wire 1 i# inst100|inst|inst1|34~q $end
$var wire 1 j# inst100|inst|inst1|29~combout $end
$var wire 1 k# inst100|inst|inst1|33~0_combout $end
$var wire 1 l# inst100|inst|inst1|33~feeder_combout $end
$var wire 1 m# inst100|inst|inst1|33~q $end
$var wire 1 n# inst100|inst|inst1|32~0_combout $end
$var wire 1 o# inst100|inst|inst1|32~q $end
$var wire 1 p# inst100|inst|inst1|31~0_combout $end
$var wire 1 q# inst100|inst|inst1|31~feeder_combout $end
$var wire 1 r# inst100|inst|inst1|31~q $end
$var wire 1 s# inst100|inst2|inst1|7~0_combout $end
$var wire 1 t# inst100|inst2|inst1|7~q $end
$var wire 1 u# inst100|inst2|inst1|20~combout $end
$var wire 1 v# inst100|inst2|inst1|6~0_combout $end
$var wire 1 w# inst100|inst2|inst1|6~feeder_combout $end
$var wire 1 x# inst100|inst2|inst1|6~q $end
$var wire 1 y# inst100|inst2|inst1|5~0_combout $end
$var wire 1 z# inst100|inst2|inst1|5~q $end
$var wire 1 {# inst100|inst2|inst1|3~0_combout $end
$var wire 1 |# inst100|inst2|inst1|3~feeder_combout $end
$var wire 1 }# inst100|inst2|inst1|3~q $end
$var wire 1 ~# inst100|inst2|inst1|34~0_combout $end
$var wire 1 !$ inst100|inst2|inst1|34~feeder_combout $end
$var wire 1 "$ inst100|inst2|inst1|31~0_combout $end
$var wire 1 #$ inst100|inst2|inst1|31~feeder_combout $end
$var wire 1 $$ inst100|inst2|inst1|31~q $end
$var wire 1 %$ inst100|inst2|inst1|29~combout $end
$var wire 1 &$ inst100|inst2|inst1|33~0_combout $end
$var wire 1 '$ inst100|inst2|inst1|33~feeder_combout $end
$var wire 1 ($ inst100|inst2|inst1|33~q $end
$var wire 1 )$ inst100|inst2|inst1|32~0_combout $end
$var wire 1 *$ inst100|inst2|inst1|32~feeder_combout $end
$var wire 1 +$ inst100|inst2|inst1|32~q $end
$var wire 1 ,$ inst100|inst2|inst3|4~combout $end
$var wire 1 -$ inst100|inst2|inst3|4~clkctrl_outclk $end
$var wire 1 .$ inst100|inst2|inst1|34~q $end
$var wire 1 /$ inst100|inst2|inst2~combout $end
$var wire 1 0$ inst100|inst4|inst1|7~0_combout $end
$var wire 1 1$ inst100|inst4|inst1|7~feeder_combout $end
$var wire 1 2$ inst100|inst4|inst1|7~q $end
$var wire 1 3$ inst100|inst4|inst1|20~combout $end
$var wire 1 4$ inst100|inst4|inst1|6~0_combout $end
$var wire 1 5$ inst100|inst4|inst1|6~feeder_combout $end
$var wire 1 6$ inst100|inst4|inst1|6~q $end
$var wire 1 7$ inst100|inst4|inst1|5~0_combout $end
$var wire 1 8$ inst100|inst4|inst1|5~q $end
$var wire 1 9$ inst100|inst4|inst1|3~0_combout $end
$var wire 1 :$ inst100|inst4|inst1|3~feeder_combout $end
$var wire 1 ;$ inst100|inst4|inst1|3~q $end
$var wire 1 <$ inst100|inst4|inst1|34~0_combout $end
$var wire 1 =$ inst100|inst4|inst1|32~0_combout $end
$var wire 1 >$ inst100|inst4|inst1|32~q $end
$var wire 1 ?$ inst100|inst4|inst3|4~combout $end
$var wire 1 @$ inst100|inst4|inst3|4~clkctrl_outclk $end
$var wire 1 A$ inst100|inst4|inst1|34~q $end
$var wire 1 B$ inst100|inst4|inst1|31~0_combout $end
$var wire 1 C$ inst100|inst4|inst1|31~feeder_combout $end
$var wire 1 D$ inst100|inst4|inst1|31~q $end
$var wire 1 E$ inst100|inst4|inst1|29~combout $end
$var wire 1 F$ inst100|inst4|inst1|33~0_combout $end
$var wire 1 G$ inst100|inst4|inst1|33~feeder_combout $end
$var wire 1 H$ inst100|inst4|inst1|33~q $end
$var wire 1 I$ inst5|inst1|inst1|sub|81~4_combout $end
$var wire 1 J$ inst5|inst1|inst1|sub|81~5_combout $end
$var wire 1 K$ inst5|inst1|inst1|sub|81~0_combout $end
$var wire 1 L$ inst5|inst1|inst1|sub|81~1_combout $end
$var wire 1 M$ inst5|inst1|inst1|sub|81~2_combout $end
$var wire 1 N$ inst5|inst1|inst1|sub|81~3_combout $end
$var wire 1 O$ inst5|inst1|inst1|sub|81~6_combout $end
$var wire 1 P$ inst5|inst1|inst3|sub|81~4_combout $end
$var wire 1 Q$ inst5|inst1|inst3|sub|81~5_combout $end
$var wire 1 R$ inst5|inst1|inst3|sub|81~0_combout $end
$var wire 1 S$ inst5|inst1|inst3|sub|81~1_combout $end
$var wire 1 T$ inst5|inst1|inst3|sub|81~2_combout $end
$var wire 1 U$ inst5|inst1|inst3|sub|81~3_combout $end
$var wire 1 V$ inst5|inst1|inst3|sub|81~6_combout $end
$var wire 1 W$ inst5|inst1|inst|sub|81~0_combout $end
$var wire 1 X$ inst5|inst1|inst|sub|81~1_combout $end
$var wire 1 Y$ inst5|inst1|inst|sub|81~2_combout $end
$var wire 1 Z$ inst5|inst1|inst|sub|81~3_combout $end
$var wire 1 [$ inst5|inst1|inst|sub|81~4_combout $end
$var wire 1 \$ inst5|inst1|inst|sub|81~5_combout $end
$var wire 1 ]$ inst5|inst1|inst|sub|81~6_combout $end
$var wire 1 ^$ inst5|inst1|inst2|sub|81~4_combout $end
$var wire 1 _$ inst5|inst1|inst2|sub|81~5_combout $end
$var wire 1 `$ inst5|inst1|inst2|sub|81~0_combout $end
$var wire 1 a$ inst5|inst1|inst2|sub|81~1_combout $end
$var wire 1 b$ inst5|inst1|inst2|sub|81~2_combout $end
$var wire 1 c$ inst5|inst1|inst2|sub|81~3_combout $end
$var wire 1 d$ inst5|inst1|inst2|sub|81~6_combout $end
$var wire 1 e$ inst5|inst3|inst|72~combout $end
$var wire 1 f$ inst5|inst3|inst|66~0_combout $end
$var wire 1 g$ inst5|inst3|inst|71~combout $end
$var wire 1 h$ inst5|inst3|inst|67~0_combout $end
$var wire 1 i$ inst5|inst3|inst|70~combout $end
$var wire 1 j$ inst5|inst3|inst|68~0_combout $end
$var wire 1 k$ inst5|inst3|inst|69~0_combout $end
$upscope $end
$upscope $end
$enddefinitions $end
#0
$dumpvars
b0 !
0"
0#
0$
0%
0&
0'
0(
0)
0*
x+
x1
x0
x/
x.
x-
x,
x2
x3
x:
x9
x8
x7
x6
x5
x4
x;
0<
1=
x>
1?
1@
1A
xB
xC
xD
xE
xF
xG
xH
xI
xJ
xK
xL
xM
xN
xO
xP
xQ
0R
xS
xT
0U
xV
xW
0X
1Y
0Z
x[
x\
0]
x^
x_
0`
xa
xb
0c
1d
0e
xf
xg
0h
xi
xj
0k
xl
xm
xn
0o
1p
0q
xr
xs
0t
xu
xv
0w
xx
xy
xz
0{
1|
0}
x~
x!!
0"!
x#!
x$!
x%!
0&!
1'!
0(!
x)!
x*!
0+!
0,!
0-!
0.!
0/!
00!
x1!
x2!
x3!
04!
x5!
x6!
07!
18!
09!
x:!
x;!
0<!
x=!
x>!
0?!
x@!
xA!
xB!
0C!
1D!
0E!
xF!
xG!
0H!
xI!
xJ!
0K!
xL!
xM!
xN!
0O!
1P!
0Q!
xR!
0S!
xT!
xU!
xV!
xW!
0X!
xY!
0Z!
x[!
x\!
x]!
0^!
1_!
0`!
xa!
xb!
0c!
xd!
xe!
xf!
xg!
0h!
xi!
xj!
0k!
xl!
xm!
xn!
0o!
xp!
xq!
0r!
xs!
xt!
0u!
xv!
xw!
xx!
0y!
1z!
0{!
x|!
x}!
0~!
x!"
x""
x#"
x$"
0%"
x&"
x'"
0("
x)"
x*"
0+"
x,"
x-"
0."
x/"
x0"
x1"
x2"
03"
x4"
x5"
x6"
07"
18"
09"
x:"
x;"
0<"
1="
0>"
x?"
x@"
0A"
xB"
xC"
xD"
0E"
xF"
xG"
0H"
xI"
xJ"
1K"
0L"
xM"
xN"
0O"
xP"
xQ"
0R"
xS"
xT"
0U"
xV"
xW"
0X"
xY"
xZ"
x["
x\"
x]"
x^"
x_"
1`"
0a"
xb"
xc"
0d"
xe"
xf"
0g"
xh"
xi"
xj"
xk"
xl"
xm"
xn"
xo"
xp"
xq"
xr"
xs"
xt"
0u"
xv"
0w"
xx"
0y"
0z"
0{"
x|"
0}"
x~"
0!#
x"#
0##
x$#
0%#
0&#
0'#
x(#
0)#
x*#
0+#
x,#
0-#
x.#
0/#
x0#
01#
02#
03#
04#
x5#
06#
x7#
08#
09#
x:#
0;#
0<#
0=#
x>#
x?#
x@#
xA#
xB#
xC#
xD#
xE#
xF#
xG#
xH#
xI#
xJ#
0K#
1L#
0M#
xN#
0O#
xP#
xQ#
0R#
xS#
xT#
xU#
xV#
xW#
xX#
0Y#
xZ#
x[#
x\#
0]#
0^#
x_#
x`#
xa#
0b#
1c#
0d#
xe#
xf#
0g#
xh#
0i#
xj#
xk#
xl#
0m#
1n#
0o#
xp#
xq#
0r#
xs#
0t#
xu#
xv#
xw#
0x#
1y#
0z#
x{#
x|#
0}#
x~#
x!$
x"$
x#$
0$$
x%$
x&$
x'$
0($
x)$
x*$
0+$
x,$
x-$
0.$
x/$
x0$
x1$
02$
x3$
x4$
x5$
06$
17$
08$
x9$
x:$
0;$
x<$
1=$
0>$
x?$
x@$
0A$
xB$
xC$
0D$
xE$
xF$
xG$
0H$
xI$
xJ$
xK$
xL$
xM$
xN$
xO$
xP$
xQ$
xR$
xS$
xT$
xU$
xV$
xW$
xX$
xY$
xZ$
x[$
x\$
x]$
x^$
x_$
x`$
xa$
xb$
xc$
xd$
xe$
xf$
xg$
xh$
xi$
xj$
xk$
$end
#356
0Y!
#520
0R!
#521
0f
0)!
#522
0*#
00#
#523
0~"
#546
0N#
#548
09$
#568
14"
#569
1L!
#570
1u#
#573
1x
#579
1[!
#581
1f!
1E$
#582
1v!
#583
1@!
#584
1a
#594
1l
1P#
#606
1j#
#621
1#"
#677
0[
0r
0~
#690
0F!
#701
0e#
0{#
#702
0:!
#707
0a!
#710
0t"
#711
0|!
#713
1b
#715
0p#
#719
1/"
#721
0B$
#722
1s!
#724
16!
#735
1_#
#739
0b"
#748
1#!
#749
1%$
#750
1V
#761
1Z#
1)$
1S"
#765
1Q#
#802
1W
#878
1<$
0?"
#886
0&"
#892
1I!
1Q"
#901
0"$
#919
1B"
#929
1M!
#931
1u
#932
1s#
#933
0*!
0g
#934
1/$
#941
1=!
#943
1^
#948
0T!
#952
1m
#959
1h#
#960
0:$
#968
1C"
#978
1A!
#979
0M"
#994
14$
#997
1g!
#1000
1~#
#1013
1y
#1025
1*"
#1026
1F$
#1027
1v#
#1029
1k#
#1038
1$"
#1039
1`#
#1088
0\
#1089
0!!
#1092
0s
#1105
0G!
#1106
1i
#1112
0|#
#1115
0f#
#1116
0;!
#1120
1:"
0b!
#1124
1\!
#1126
1&$
0q#
0}!
#1127
1w!
#1135
0C$
#1142
13$
#1149
1d!
#1150
0c"
#1153
1$!
#1162
10$
#1165
15"
#1177
1*$
#1182
02"
#1193
1e"
#1203
1f"
#1220
1[#
#1268
0A#
0_"
#1291
0@"
#1294
0j"
#1296
1t!
#1300
0'"
#1314
0#$
#1381
1T"
x"!
#1384
1V!
#1390
0N"
#1392
1)"
#1417
1!"
